<?xml version="1.0" encoding="iso-8859-1"?>
<!-- Generator: Adobe Illustrator 17.1.0, SVG Export Plug-In . SVG Version: 6.00 Build 0)  -->
<!DOCTYPE svg PUBLIC "-//W3C//DTD SVG 1.1//EN" "http://www.w3.org/Graphics/SVG/1.1/DTD/svg11.dtd">
<svg version="1.1" id="Capa_1" xmlns="http://www.w3.org/2000/svg" xmlns:xlink="http://www.w3.org/1999/xlink" x="0px" y="0px"
	 viewBox="0 0 249.753 249.753" style="enable-background:new 0 0 249.753 249.753;" xml:space="preserve">
<g>
	<path style="fill:#fff;" d="M169.168,79.554c-1.999-1.975-4.933-2.668-7.604-1.793L9.497,127.519
		c-2.94,0.962-4.988,3.63-5.156,6.719c-0.169,3.089,1.576,5.964,4.394,7.241l48.639,22.034c3.772,1.709,8.217,0.037,9.926-3.737
		c1.709-3.773,0.036-8.217-3.737-9.926l-31.066-14.074L152.37,96.551l-38.2,121.563l-26.735-55.532
		c-1.797-3.733-6.279-5.302-10.011-3.504c-1.148,0.553-2.09,1.362-2.793,2.323c-0.327,0.235-0.643,0.491-0.937,0.785L2.197,233.683
		c-2.929,2.929-2.929,7.678,0,10.606c1.464,1.464,3.384,2.197,5.303,2.197s3.839-0.732,5.303-2.197l65.693-65.693l30.385,63.114
		c1.256,2.609,3.892,4.247,6.755,4.247c0.18,0,0.361-0.006,0.543-0.02c3.069-0.222,5.692-2.296,6.615-5.232l48.257-153.568
		C171.894,84.456,171.167,81.529,169.168,79.554z"/>
	<path style="fill:#fff;" d="M136.718,3.267c-46.091,0-87.164,27.558-104.637,70.207c-1.57,3.833,0.264,8.213,4.097,9.783
		c3.833,1.57,8.213-0.264,9.783-4.097c15.155-36.991,50.78-60.893,90.757-60.893c54.056,0,98.034,43.978,98.034,98.034
		c0,44.401-29.929,83.365-72.782,94.753c-4.003,1.064-6.386,5.172-5.322,9.175c0.893,3.358,3.926,5.576,7.244,5.576
		c0.638,0,1.286-0.082,1.931-0.253c49.417-13.133,83.929-58.058,83.929-109.25C249.753,53.974,199.046,3.267,136.718,3.267z"/>
	<path style="fill:#fff;" d="M161.211,176.023c-3.864,1.492-5.788,5.833-4.296,9.698c1.149,2.977,3.989,4.801,6.999,4.801
		c0.898,0,1.812-0.163,2.699-0.505c14.833-5.725,27.502-15.667,36.641-28.749c9.354-13.393,14.299-29.136,14.299-45.527
		c0-43.887-35.705-79.592-79.592-79.592c-30.586,0-58.826,17.864-71.944,45.509c-1.776,3.742-0.182,8.215,3.561,9.991
		c3.743,1.775,8.216,0.181,9.991-3.561c10.648-22.44,33.568-36.94,58.392-36.94c35.616,0,64.592,28.976,64.592,64.592
		C202.552,142.254,185.938,166.48,161.211,176.023z"/>
</g>
<g>
</g>
<g>
</g>
<g>
</g>
<g>
</g>
<g>
</g>
<g>
</g>
<g>
</g>
<g>
</g>
<g>
</g>
<g>
</g>
<g>
</g>
<g>
</g>
<g>
</g>
<g>
</g>
<g>
</g>
</svg>
