<?xml version="1.0" encoding="utf-8"?>
<!-- Generator: Adobe Illustrator 23.0.2, SVG Export Plug-In . SVG Version: 6.00 Build 0)  -->
<!DOCTYPE svg PUBLIC "-//W3C//DTD SVG 1.1//EN" "http://www.w3.org/Graphics/SVG/1.1/DTD/svg11.dtd" [
	<!ENTITY ns_extend "http://ns.adobe.com/Extensibility/1.0/">
	<!ENTITY ns_ai "http://ns.adobe.com/AdobeIllustrator/10.0/">
	<!ENTITY ns_graphs "http://ns.adobe.com/Graphs/1.0/">
	<!ENTITY ns_vars "http://ns.adobe.com/Variables/1.0/">
	<!ENTITY ns_imrep "http://ns.adobe.com/ImageReplacement/1.0/">
	<!ENTITY ns_sfw "http://ns.adobe.com/SaveForWeb/1.0/">
	<!ENTITY ns_custom "http://ns.adobe.com/GenericCustomNamespace/1.0/">
	<!ENTITY ns_adobe_xpath "http://ns.adobe.com/XPath/1.0/">
]>
<svg version="1.1" id="Режим_изоляции" xmlns:x="&ns_extend;" xmlns:i="&ns_ai;" xmlns:graph="&ns_graphs;"
	 xmlns="http://www.w3.org/2000/svg" xmlns:xlink="http://www.w3.org/1999/xlink" x="0px" y="0px" viewBox="0 0 75.5 176.3"
	 style="enable-background:new 0 0 75.5 176.3;" xml:space="preserve">
<style type="text/css">
	.st0{fill:#FFCDBC;}
	.st1{fill:#1F2E3F;}
	.st2{fill:#142230;}
	.st3{fill:#4A4F69;}
	.st4{fill:#FFA082;}
	.st5{fill:#4A60F1;}
	.st6{fill:#2D4BD2;}
	.st7{fill:#FAFAFA;}
	.st8{fill:#F7766C;}
	.st9{fill:#F7904E;}
	.st10{fill:#222331;}
</style>
<metadata>
	<sfw  xmlns="&ns_sfw;">
		<slices></slices>
		<sliceSourceBounds  bottomLeftOrigin="true" height="176.3" width="75.5" x="230.6" y="-333.5"></sliceSourceBounds>
	</sfw>
</metadata>
<g id="XMLID_533_">
	<g id="XMLID_1955_">
		<path id="XMLID_1063_" class="st0" d="M29.4,52.7c-0.2-0.4-0.9-0.3-0.9,0.2c-0.3,2.7-1.4,8.3-6.3,15.7
			c-6.8,10.3-6.8,12.7-8.2,13.5c-2.7,1.5-6.2,1.8-6,2.6c0.1,0.6,1.6,0.4,2.8,0c0.3-0.1,0.5,0.5,0.3,0.8l-4,4.9
			C6.3,91.5,8,92,8.4,91.9c1.8-0.1,7.2-4.4,10.1-7.8c5.3-6.3,15.3-18.5,16.9-20.7c0.1-0.2,0.1-0.4,0-0.5L29.4,52.7z"/>
	</g>
	<g id="XMLID_126_">
		<path id="XMLID_1061_" class="st0" d="M20.6,113c0,0,2.3,12.7,5.2,15.8c5.2,5.7,8.6,15.3,14.3,23.5c2.6,3.6,4.3,6.9,3.6,12.8
			c-0.9,7.3-3.9,8.8-3.9,8.8l8.8-1.9c0,0,4-10.8,1.5-13.5c-2.5-2.7-3.3-9.6-4-15.1c-0.7-5.4-3.8-12.3-7.6-17.8
			c-3.8-5.5-1.4-15.2-1.4-15.2L20.6,113z"/>
	</g>
	<g id="XMLID_117_">
		<path id="XMLID_1060_" class="st0" d="M48.6,112c0,0-6.7,9.4-7,16.7c-0.3,7.2-2.5,11.2-7.5,20.2c-5.1,9-6.2,10.4-6.2,12.7
			s-4.7,13.5-11.4,12.3c-6.6-1.1,3.6,1.7,5.5-13.8c1-8.1,4-21.8,6.1-28c2.1-6.2,1.3-18.2,1.3-18.2L48.6,112z"/>
	</g>
	<g id="XMLID_116_">
		<path id="XMLID_1058_" class="st1" d="M27.9,161.5c0,0,1.9,1,1.9,3.4c0,2.5-1.3,11.4-1.3,11.4h-1.8l0.1-6.7l-2.8,5.9
			c-0.2,0.5-0.6,0.8-1.2,0.8h-9.3c-0.3,0-0.5-0.2-0.5-0.5c-0.1-0.8-0.2-2.4,1.1-2.8c1.7-0.5,5.7,0.5,7.7-1.3
			C22.6,171.1,23.2,170.2,27.9,161.5z"/>
	</g>
	<g id="XMLID_115_">
		<path id="XMLID_1057_" class="st2" d="M49.7,158.1c0,0,2.1,0.4,2.7,2.8c0.7,2.4,1.9,11.3,1.9,11.3l-1.8,0.5l-1.7-6.4l-1.1,6.4
			c-0.1,0.5-0.4,0.9-0.9,1.1l-8.9,2.5c-0.3,0.1-0.5-0.1-0.6-0.3c-0.3-0.7-0.8-2.3,0.3-3c1.5-0.9,5.6-1.1,7.1-3.3
			C47.2,168.8,47.5,167.8,49.7,158.1z"/>
	</g>
	<g id="XMLID_106_">
		<path id="XMLID_1053_" class="st3" d="M44.7,70.8c0,0,14.4,12.9,9.6,29.4c-3.2,10.8-8.8,18.6-9.6,19.8c-0.1,0.1-0.2,0.2-0.3,0.2
			H21.9c-0.2,0-0.4-0.1-0.4-0.3c-0.6-3.2-4.3-27.2,5.9-48.2L44.7,70.8z"/>
	</g>
	<g id="XMLID_1931_">
		<path id="XMLID_1051_" class="st0" d="M36.9,29.4c0,0,0.7,2.8-0.8,4.8c-1.6,2.1-4.7,4.9-5.8,10c-1.1,5.1,5.2,2.5,5.2,2.5l9.5-8.2
			c0,0-2.9-6.3,0-13.3S36.9,29.4,36.9,29.4z"/>
	</g>
	<g id="XMLID_1767_">
		<path id="XMLID_1050_" class="st4" d="M44.6,26.2l-0.1-0.3L37,30.7l0,0c0,0.3,0,0.6,0,0.9l0,0c0.5-0.2,3.1-0.8,3.9,1.2
			c1.7,4.1,3,4.6,3.6,4.5C43.9,35.2,43,31,44.6,26.2z"/>
	</g>
	<g id="XMLID_1916_">
		<path id="XMLID_1048_" class="st5" d="M35.8,34.5c0,0,0.2-0.2-0.4,0.6c-2.7,3,0.9,5.2,2.6,3.1c1.3-1.7,1.8-2.8,4.7-2.9
			c2.8,0,4.7,2.6,5.4,6c0.8,4.2-8.1,17.9-6.1,23.9c0.9,2.6,2.5,4.7,4.5,6.9c2.5,2.9-20.5,3.2-19.3-0.9c2.1-6.7,2.4-11.9,2.4-13.2
			c0-5.3-5.8-7.2-2.7-13.2C29.9,39,35.6,34.4,35.8,34.5z"/>
	</g>
	<g id="XMLID_1913_">
		<path id="XMLID_1047_" class="st6" d="M40.4,52.6c0.5-5.3-1.8-11.8-1.8-11.8c4-0.1,7.1,0.8,9.3,2.3c-1,5.4-7.8,16.8-6,22.2
			c0.5,1.5,1.3,2.9,2.2,4.1c0.1,0.2,0.3,0.4,0.5,0.6C37.6,64.1,39.9,57.9,40.4,52.6z"/>
	</g>
	<g id="XMLID_1906_">
		<g id="XMLID_1910_">
			<path id="XMLID_1045_" class="st1" d="M12.4,93.8l2.5-2.7c0.9-1,0.9-2.6-0.1-3.5l-8.1-7.5c-1-0.9-2.6-0.9-3.5,0.1l-2.5,2.7
				c-0.9,1-0.9,2.6,0.1,3.5L8.8,94C9.9,94.9,11.4,94.8,12.4,93.8z"/>
		</g>
		<g id="XMLID_1907_">
			<path id="XMLID_1044_" class="st7" d="M11.7,92.7l2-2.1c0.7-0.8,0.7-2-0.1-2.7l-7.1-6.6c-0.8-0.7-2-0.7-2.7,0.1l-2,2.1
				c-0.7,0.8-0.7,2,0.1,2.7L9,92.8C9.8,93.5,11,93.5,11.7,92.7z"/>
		</g>
	</g>
	<g id="XMLID_1903_">
		<path id="XMLID_1042_" class="st4" d="M10.7,83.4c0,0-2.3,0.2-3.1,0.9c-1,0.9,4.2,0.5,4.2,0.5L10.7,83.4z"/>
	</g>
	<g id="XMLID_1900_">
		<path id="XMLID_1041_" class="st8" d="M59.9,66.8l-21.2,5.5c-0.4,0.1-0.9-0.2-1-0.6l-2.1-11.3c-0.3-1.4,0.6-2.7,1.9-3l16.1-4.2
			c1.3-0.3,2.7,0.4,3.2,1.7l3.6,10.9C60.6,66.2,60.4,66.6,59.9,66.8z"/>
	</g>
	<g id="XMLID_1897_">
		<polygon id="XMLID_1039_" class="st9" points="36.7,59.8 48,62.9 55.8,55.3 48,61.2 		"/>
	</g>
	<g id="XMLID_1894_">
		<path id="XMLID_1038_" class="st0" d="M50.4,47.6c0,0,5.2,15,8,18.7c2.7,3.7,7,15.9,10.5,19.6c3.6,3.7,6,5.4,6.5,7
			c1.1,3.3-5.5,0.8-7.4-0.9c-2-1.8-3.2-3.1-2.7-1.3c0.5,1.7-1,4.2-1.4,0.9c-0.4-3.2,0.1-4.1-1.9-7c-2-2.9-14-17-16.2-23.8
			c-2.2-6.8-3-8.1-3-8.1L50.4,47.6z"/>
	</g>
	<g id="XMLID_1891_">
		<path id="XMLID_1036_" class="st6" d="M47.2,38.6l3.7,10.3l-8.1,3.6l-3.9-10.9c-1.3-4.9,5.7-7.6,8.3-3.2
			C47.1,38.5,47.1,38.6,47.2,38.6z"/>
	</g>
	<g id="XMLID_1890_">
		<g id="XMLID_1032_">
			<path id="XMLID_1035_" class="st9" d="M36.7,58.5C36.7,58.5,36.7,58.5,36.7,58.5c-0.3,0-0.5-0.2-0.5-0.5c0-2.3,0.5-22.3,5.4-23
				c4.7-0.7,7.7,5.8,12.8,16.5l0.8,1.8c0.1,0.2,0,0.5-0.2,0.7c-0.3,0.1-0.5,0-0.7-0.2l-0.8-1.8c-4.8-10.3-7.7-16.5-11.7-15.9
				c-3,0.4-4.4,13.8-4.5,22.1C37.2,58.3,37,58.5,36.7,58.5z"/>
		</g>
	</g>
	<g id="XMLID_1778_">
		<g id="XMLID_1827_">
			<path id="XMLID_1028_" class="st0" d="M33.6,17.6c-0.8,3.3-1.4,6.7,0,9.5c1,2.1,2.7,3.2,4.6,3.6c4,0.9,10.3-4.2,11.7-10.5
				c1.4-6.3-2.5-11.5-6.5-12.4S35,11.2,33.6,17.6z"/>
		</g>
		<g id="XMLID_1824_">
			<path id="XMLID_1026_" class="st0" d="M49.2,19c0,0,1.6-0.7,2.3,0.3c0.8,1.1-1.6,5.6-4.2,5.5C44.7,24.7,49.2,19,49.2,19z"/>
		</g>
		<g id="XMLID_1806_">
			<path id="XMLID_1024_" class="st3" d="M55.1,3.7c-1,2.4-1,4.4,0.6,5.8c6.8,6-1.2,8.3-4.1,14.4c-3.6,7.7,4.2,16,11.9,12.2
				c2-1,2.1-3.3,0.7-4.6c-0.5-0.5-0.9-1.1-0.9-1.9c-0.1-0.7,0.2-1.4,1-2c2.5-1.7,8.8-4.9,6.5-11.3c-1.9-5.4-7.3-4.3-6.1-11.8
				C66-3.2,56.3,0.7,55.1,3.7z"/>
		</g>
		<g id="XMLID_1803_">
			<path id="XMLID_1023_" class="st8" d="M53,7.5c0,0-1.5-1.5-1-2c0.5-0.5,1.4,0.2,1.9-0.5s1-0.8,1.3,0.8c0.3,1.6,0.3,2.9,1,3.8
				s-0.7,0.5-1,0.6c-0.2,0.1-0.6,0.3-0.8,1.5C54,13.9,53,7.5,53,7.5z"/>
		</g>
		<g id="XMLID_1800_">
			<path id="XMLID_1022_" class="st3" d="M38.7,6.5c-1.8,1.6-1.1,3.5-0.6,3.6c1.7,0.3,4.8,0.2,6.6,3.9s1.3,6.1,2.9,6.1
				c1.6,0,1.4-1.4,3-1.3c1.2,0.1,1.2,2.6-1.1,5.1c-2.4,2.5,9.1-5.8,3.8-16.6C50.4,1.9,44.7,1.1,38.7,6.5z"/>
		</g>
	</g>
	<g id="XMLID_177_">
		<path id="XMLID_1021_" class="st10" d="M42.7,112c-6.2,6.4-17.4,6.4-20.6,8.2h22.2c0.1,0,0.3-0.1,0.3-0.2c0.9-1.3,6.5-9,9.6-19.8
			c2.3-8,0.1-15.2-2.7-20.4C52.3,87.2,53.4,101.1,42.7,112z"/>
	</g>
</g>
</svg>
