<?xml version="1.0" encoding="utf-8"?>
<!-- Generator: Adobe Illustrator 23.0.2, SVG Export Plug-In . SVG Version: 6.00 Build 0)  -->
<!DOCTYPE svg PUBLIC "-//W3C//DTD SVG 1.1//EN" "http://www.w3.org/Graphics/SVG/1.1/DTD/svg11.dtd" [
	<!ENTITY ns_extend "http://ns.adobe.com/Extensibility/1.0/">
	<!ENTITY ns_ai "http://ns.adobe.com/AdobeIllustrator/10.0/">
	<!ENTITY ns_graphs "http://ns.adobe.com/Graphs/1.0/">
	<!ENTITY ns_vars "http://ns.adobe.com/Variables/1.0/">
	<!ENTITY ns_imrep "http://ns.adobe.com/ImageReplacement/1.0/">
	<!ENTITY ns_sfw "http://ns.adobe.com/SaveForWeb/1.0/">
	<!ENTITY ns_custom "http://ns.adobe.com/GenericCustomNamespace/1.0/">
	<!ENTITY ns_adobe_xpath "http://ns.adobe.com/XPath/1.0/">
]>
<svg version="1.1" xmlns:x="&ns_extend;" xmlns:i="&ns_ai;" xmlns:graph="&ns_graphs;"
	 xmlns="http://www.w3.org/2000/svg" xmlns:xlink="http://www.w3.org/1999/xlink" x="0px" y="0px" viewBox="0 0 230.6 286.5"
	 style="enable-background:new 0 0 230.6 286.5;" xml:space="preserve">
<style type="text/css">
	.st0{fill:#B1B9FC;}
	.st1{fill:#E0E3FE;}
	.st2{fill:url(#SVGID_1_);}
	.st3{fill:#C1C7FD;}
	.st4{fill:#808EDB;}
	.st5{fill:#EFF1FE;}
	.st6{fill:#D0D5FD;}
	.st7{opacity:0.15;fill:#4A4F69;}
	.st8{fill:#FFFFFF;}
	.st9{fill:#4A4F69;}
	.st10{fill:url(#SVGID_2_);}
	.st11{fill:url(#SVGID_3_);}
	.st12{fill:url(#SVGID_4_);}
	.st13{fill:url(#SVGID_5_);}
	.st14{fill:url(#SVGID_6_);}
	.st15{fill:url(#SVGID_7_);}
	.st16{opacity:0.21;fill:#1F191A;}
	.st17{fill:url(#SVGID_8_);}
	.st18{fill:url(#SVGID_9_);}
	.st19{fill:#4B61F4;}
	.st20{fill:url(#SVGID_10_);}
	.st21{fill:url(#XMLID_2_);}
	.st22{opacity:0.1;fill:#FFFFFF;}
	.st23{fill:#FFCFBE;}
	.st24{fill:#446DFF;}
	.st25{fill:#F7F7F7;}
	.st26{fill:#10163A;}
	.st27{opacity:0.3;fill:#10163A;}
	.st28{fill:url(#SVGID_11_);}
	.st29{fill:url(#SVGID_12_);}
	.st30{opacity:0.14;}
	.st31{opacity:0.27;}
	.st32{fill:#353535;}
	.st33{fill:url(#SVGID_13_);}
	.st34{fill:#FFC655;}
	.st35{fill:#4D75FF;}
	.st36{fill:#E8E8E8;}
	.st37{fill:#6F7287;}
	.st38{fill:url(#XMLID_3_);}
	.st39{fill:url(#XMLID_4_);}
	.st40{opacity:0.29;}
	.st41{fill:#485059;}
	.st42{fill:#343B41;}
	.st43{fill:url(#SVGID_14_);}
	.st44{fill:url(#SVGID_15_);}
	.st45{opacity:0.1;clip-path:url(#SVGID_17_);fill:#FFFFFF;}
	.st46{fill:#DFE3FD;}
	.st47{fill:#D0D4FD;}
	.st48{fill:#EFF0FF;}
	.st49{clip-path:url(#SVGID_19_);fill:#4B61F4;}
	.st50{opacity:0.1;clip-path:url(#SVGID_19_);}
	.st51{opacity:0.51;fill:#FFFFFF;}
	.st52{fill:#222331;}
	.st53{fill:#36394E;}
	.st54{fill:url(#XMLID_5_);}
	.st55{opacity:0.2;}
</style>
<metadata>
	<sfw  xmlns="&ns_sfw;">
		<slices></slices>
		<sliceSourceBounds  bottomLeftOrigin="true" height="295.6" width="301.4" x="789.4" y="-364"></sliceSourceBounds>
	</sfw>
</metadata>
<g id="Graphics">
	<g>
		<circle class="st0" cx="121.7" cy="88" r="17.8"/>
		<ellipse transform="matrix(0.931 -0.365 0.365 0.931 -23.7109 50.4829)" class="st1" cx="121.7" cy="88" rx="15.7" ry="15.7"/>
		<path class="st0" d="M122,88.6h-0.4c-0.3,0-0.5-0.2-0.5-0.5V73.7c0-0.3,0.2-0.5,0.5-0.5h0.4c0.3,0,0.5,0.2,0.5,0.5V88
			C122.5,88.3,122.2,88.6,122,88.6z"/>
		<path class="st0" d="M121.3,88.4l-0.2-0.3c-0.2-0.2-0.1-0.6,0.1-0.7l7-4.8c0.2-0.2,0.6-0.1,0.7,0.1l0.2,0.3
			c0.2,0.2,0.1,0.6-0.1,0.7l-7,4.8C121.8,88.7,121.5,88.6,121.3,88.4z"/>
	</g>
</g>
<g id="text">
	<path class="st0" d="M230.3,0l-0.1,284.2c0,0-39.8,11.3-53.1-16.5c-15.1-31.5,0.8-59-23.2-73.1c-31.7-18.6-72.5,31-113-13.5
		s-6.5-121,37.5-139s83.7,14.2,102.8-2.1C200.5,23.7,196.7,0,196.7,0H230.3z"/>
	<linearGradient id="SVGID_1_" gradientUnits="userSpaceOnUse" x1="87.9447" y1="216.3607" x2="270.4326" y2="39.344">
		<stop  offset="0" style="stop-color:#DDE0FE"/>
		<stop  offset="0.3772" style="stop-color:#E1E4FE"/>
		<stop  offset="0.7883" style="stop-color:#EEF0FF"/>
		<stop  offset="1" style="stop-color:#F8F9FF"/>
	</linearGradient>
	<path class="st2" d="M230.6,0l-0.1,268.5c0,0-30,31-50.2-1.4c-17.4-27.9-1.8-53.4-23-69.8c-29-22.5-71.9,21-112.4-23.5
		S34.7,60.2,78.7,42.2s85.3,14.9,104.5-1.4C202.4,24.4,205,0,205,0H230.6z"/>
	<path class="st0" d="M230.6,173.8c0,0-9.3,12.5-24.2,2.8c-20.4-13.4-38.6-5.6-53.7-30.6c-13.6-22.4-33.9-2.2-46.6-12.1
		c-16.8-13.1,23.3-14.2,0.3-31c-36.7-26.8-17.4-59.8,3.6-62.3c19.4-2.3,31,3.3,45.9-14.1c13.6-15.9,29.2-19.4,46.9-14.1
		c23.2,7,27.6,31.4,27.6,31.4L230.6,173.8z"/>
	<g>
		<g id="XMLID_204_">
			<rect id="XMLID_208_" x="149.5" y="125.8" class="st0" width="72.7" height="3.7"/>
			<rect id="XMLID_207_" x="149.5" y="125.8" class="st3" width="72.7" height="1.6"/>
			<rect id="XMLID_206_" x="158.3" y="129.2" class="st3" width="4.1" height="2.6"/>
			<rect id="XMLID_205_" x="208.7" y="129.2" class="st0" width="4.1" height="2.6"/>
		</g>
		<g id="XMLID_174_">
			<g id="XMLID_193_">
				<rect id="XMLID_203_" x="207.6" y="101" class="st4" width="7.7" height="24.9"/>
				<rect id="XMLID_202_" x="207.6" y="104.4" class="st3" width="7.7" height="1.2"/>
				<rect id="XMLID_201_" x="207.6" y="119" class="st3" width="7.7" height="1.2"/>
				<rect id="XMLID_200_" x="207.6" y="120.9" class="st3" width="7.7" height="1.2"/>
				<rect id="XMLID_194_" x="207.6" y="106.5" class="st3" width="7.7" height="1.2"/>
			</g>
			<g id="XMLID_187_">
				<rect id="XMLID_192_" x="196.3" y="99.9" class="st5" width="5.1" height="26"/>
				<rect id="XMLID_191_" x="196.3" y="103.4" class="st0" width="5.1" height="1.3"/>
				<rect id="XMLID_190_" x="196.3" y="118.7" class="st0" width="5.1" height="1.3"/>
				<rect id="XMLID_189_" x="196.3" y="120.6" class="st0" width="5.1" height="1.3"/>
				<rect id="XMLID_188_" x="196.3" y="105.6" class="st0" width="5.1" height="1.3"/>
			</g>
			<g id="XMLID_181_">
				<rect id="XMLID_186_" x="204.6" y="99.9" class="st6" width="3.3" height="26"/>
				<rect id="XMLID_185_" x="204.6" y="103.4" class="st4" width="3.3" height="1.3"/>
				<rect id="XMLID_184_" x="204.6" y="118.7" class="st4" width="3.3" height="1.3"/>
				<rect id="XMLID_183_" x="204.6" y="120.6" class="st4" width="3.3" height="1.3"/>
				<rect id="XMLID_182_" x="204.6" y="105.6" class="st4" width="3.3" height="1.3"/>
			</g>
			<g id="XMLID_175_">
				<rect id="XMLID_180_" x="201.1" y="104.7" class="st3" width="3.3" height="21.1"/>
				<rect id="XMLID_179_" x="201.1" y="107.6" class="st5" width="3.3" height="1.1"/>
				<rect id="XMLID_178_" x="201.1" y="120" class="st5" width="3.3" height="1.1"/>
				<rect id="XMLID_177_" x="201.1" y="121.6" class="st5" width="3.3" height="1.1"/>
				<rect id="XMLID_176_" x="201.1" y="109.4" class="st5" width="3.3" height="1.1"/>
			</g>
		</g>
		<g id="XMLID_44_">
			<g id="XMLID_171_">
				<g id="XMLID_172_">
					<rect id="XMLID_173_" x="160.5" y="124.2" class="st0" width="1.1" height="1.7"/>
				</g>
			</g>
			<g id="XMLID_168_">
				<g id="XMLID_169_">
					<rect id="XMLID_170_" x="182.9" y="124.2" class="st0" width="1.1" height="1.7"/>
				</g>
			</g>
			<g id="XMLID_165_">
				<g id="XMLID_166_">
					<rect id="XMLID_167_" x="158.5" y="112.2" class="st4" width="27.3" height="12.4"/>
				</g>
			</g>
			<g id="XMLID_136_">
				<g id="XMLID_163_">
					<rect id="XMLID_164_" x="160" y="113.7" class="st1" width="10.3" height="9.5"/>
				</g>
			</g>
			<g id="XMLID_133_">
				<g id="XMLID_134_">
					<rect id="XMLID_135_" x="163.3" y="116.8" class="st5" width="3.6" height="3.3"/>
				</g>
			</g>
			<g id="XMLID_124_">
				<g id="XMLID_125_">
					<rect id="XMLID_132_" x="164.9" y="114.2" class="st0" width="0.2" height="1"/>
				</g>
			</g>
			<g id="XMLID_121_">
				<g id="XMLID_122_">
					
						<rect id="XMLID_123_" x="166.8" y="114.7" transform="matrix(0.866 0.5001 -0.5001 0.866 79.9566 -68.0396)" class="st0" width="0.2" height="1"/>
				</g>
			</g>
			<g id="XMLID_118_">
				<g id="XMLID_119_">
					
						<rect id="XMLID_120_" x="168.2" y="116" transform="matrix(0.499 0.8666 -0.8666 0.499 185.2887 -87.5155)" class="st0" width="0.2" height="1"/>
				</g>
			</g>
			<g id="XMLID_115_">
				<g id="XMLID_116_">
					
						<rect id="XMLID_117_" x="168.8" y="117.9" transform="matrix(-2.147070e-03 1 -1 -2.147070e-03 287.6173 -50.2698)" class="st0" width="0.2" height="1"/>
				</g>
			</g>
			<g id="XMLID_112_">
				<g id="XMLID_113_">
					
						<rect id="XMLID_114_" x="168.3" y="119.8" transform="matrix(-0.5022 0.8648 -0.8648 -0.5022 357.0128 34.9935)" class="st0" width="0.2" height="1"/>
				</g>
			</g>
			<g id="XMLID_109_">
				<g id="XMLID_110_">
					
						<rect id="XMLID_111_" x="167" y="121.2" transform="matrix(-0.8678 0.4969 -0.4969 -0.8678 372.5543 144.2143)" class="st0" width="0.2" height="1"/>
				</g>
			</g>
			<g id="XMLID_105_">
				<g id="XMLID_106_">
					
						<rect id="XMLID_107_" x="165.1" y="121.7" transform="matrix(-1 -4.292050e-03 4.292050e-03 -1 329.9226 245.1441)" class="st0" width="0.2" height="1"/>
				</g>
			</g>
			<g id="XMLID_102_">
				<g id="XMLID_103_">
					
						<rect id="XMLID_104_" x="163.2" y="121.3" transform="matrix(-0.8637 -0.504 0.504 -0.8637 243.0287 309.2451)" class="st0" width="0.2" height="1"/>
				</g>
			</g>
			<g id="XMLID_96_">
				<g id="XMLID_97_">
					
						<rect id="XMLID_98_" x="161.8" y="119.9" transform="matrix(-0.4957 -0.8685 0.8685 -0.4957 137.6065 320.733)" class="st0" width="0.2" height="1"/>
				</g>
			</g>
			<g id="XMLID_93_">
				<g id="XMLID_94_">
					
						<rect id="XMLID_95_" x="161.3" y="118.1" transform="matrix(6.494108e-03 -1 1 6.494108e-03 41.7883 279.1508)" class="st0" width="0.2" height="1"/>
				</g>
			</g>
			<g id="XMLID_90_">
				<g id="XMLID_91_">
					
						<rect id="XMLID_92_" x="161.7" y="116.2" transform="matrix(0.5059 -0.8626 0.8626 0.5059 -20.656 197.2486)" class="st0" width="0.2" height="1"/>
				</g>
			</g>
			<g id="XMLID_87_">
				<g id="XMLID_88_">
					
						<rect id="XMLID_89_" x="163.1" y="114.8" transform="matrix(0.8696 -0.4938 0.4938 0.8696 -35.6266 95.62)" class="st0" width="0.2" height="1"/>
				</g>
			</g>
			<g id="XMLID_84_">
				<g id="XMLID_85_">
					<rect id="XMLID_86_" x="165.1" y="118.2" class="st0" width="2.6" height="0.5"/>
				</g>
			</g>
			<g id="XMLID_81_">
				<g id="XMLID_82_">
					
						<rect id="XMLID_83_" x="163.9" y="117.2" transform="matrix(6.123234e-17 -1 1 6.123234e-17 47.9001 282.5505)" class="st0" width="2.6" height="0.2"/>
				</g>
			</g>
			<g id="XMLID_74_">
				<g id="XMLID_79_">
					<rect id="XMLID_80_" x="171.9" y="113.9" class="st3" width="12.3" height="0.5"/>
				</g>
			</g>
			<g id="XMLID_71_">
				<g id="XMLID_72_">
					<rect id="XMLID_73_" x="171.9" y="115.2" class="st3" width="12.3" height="0.5"/>
				</g>
			</g>
			<g id="XMLID_68_">
				<g id="XMLID_69_">
					<rect id="XMLID_70_" x="171.9" y="116.4" class="st3" width="12.3" height="0.5"/>
				</g>
			</g>
			<g id="XMLID_65_">
				<g id="XMLID_66_">
					<rect id="XMLID_67_" x="171.9" y="117.6" class="st3" width="12.3" height="0.5"/>
				</g>
			</g>
			<g id="XMLID_54_">
				<g id="XMLID_55_">
					<rect id="XMLID_57_" x="171.9" y="118.8" class="st3" width="12.3" height="0.5"/>
				</g>
			</g>
			<g id="XMLID_51_">
				<g id="XMLID_52_">
					<rect id="XMLID_53_" x="171.9" y="120" class="st3" width="12.3" height="0.5"/>
				</g>
			</g>
			<g id="XMLID_48_">
				<g id="XMLID_49_">
					<rect id="XMLID_50_" x="171.9" y="121.3" class="st3" width="12.3" height="0.5"/>
				</g>
			</g>
			<g id="XMLID_45_">
				<g id="XMLID_46_">
					<rect id="XMLID_47_" x="171.9" y="122.5" class="st3" width="12.3" height="0.5"/>
				</g>
			</g>
		</g>
	</g>
	<path class="st7" d="M120.9,247.1c4.8-0.2,7.4,0.9,0.5,1C114.4,248.1,114.2,247.3,120.9,247.1z"/>
	<path class="st7" d="M42.7,247.2c4.8-0.2,7.4,0.9,0.5,1S36.1,247.5,42.7,247.2z"/>
	<path class="st7" d="M166.4,251.2c4.8-0.2,7.4,0.9,0.4,1S159.7,251.5,166.4,251.2z"/>
	<path class="st7" d="M212,249.7c8.5-0.2,13.1,0.9,0.8,1C200.5,250.7,200.2,250,212,249.7z"/>
	<path class="st7" d="M177.2,247.6c6.9-0.4,10.5,2.3,0.6,2.3C168,250,167.7,248.2,177.2,247.6z"/>
	<path class="st7" d="M14.3,251.7c4.8-0.2,7.4,0.9,0.5,1S7.6,251.9,14.3,251.7z"/>
	<path class="st7" d="M163.8,248.9c0,0-27.3-0.4-27.9,0s7.4,0.9,13.1,0.9s17.1,0.3,17.2-0.4C166.1,248.6,169.8,249,163.8,248.9z"/>
	<path class="st7" d="M95.5,247.1c0,0-27.9,0-28.6,0.4s12.8,0.9,18.4,0.9s18.4-0.1,18.4-0.5C103.8,247.4,95.5,247.1,95.5,247.1z"/>
	<g>
		<rect x="79.1" y="82.9" class="st8" width="102.2" height="56.5"/>
		<rect x="76.6" y="136.2" class="st9" width="107.1" height="4.8"/>
		<g>
			<linearGradient id="SVGID_2_" gradientUnits="userSpaceOnUse" x1="168.2537" y1="90.5795" x2="91.7537" y2="135.5795">
				<stop  offset="5.282353e-03" style="stop-color:#F99747"/>
				<stop  offset="0.3696" style="stop-color:#F77D62"/>
				<stop  offset="1" style="stop-color:#F3538C"/>
			</linearGradient>
			<polygon class="st10" points="96.3,126.1 95.8,125.5 109.1,115.2 119.3,121.4 138.6,101.5 147.1,112.2 164.8,99 165.2,99.6 
				147,113.3 138.5,102.7 119.5,122.4 109.2,116.1 			"/>
		</g>
		<g>
			<rect x="95.3" y="90.1" class="st0" width="0.8" height="40.7"/>
		</g>
		<g>
			<rect x="88.7" y="125.8" class="st0" width="87.1" height="0.8"/>
		</g>
		<linearGradient id="SVGID_3_" gradientUnits="userSpaceOnUse" x1="171.1841" y1="95.5611" x2="94.6841" y2="140.5611">
			<stop  offset="5.282353e-03" style="stop-color:#F99747"/>
			<stop  offset="0.3696" style="stop-color:#F77D62"/>
			<stop  offset="1" style="stop-color:#F3538C"/>
		</linearGradient>
		<path class="st11" d="M167.2,98.9c0,1-0.8,1.8-1.8,1.8c-1,0-1.8-0.8-1.8-1.8s0.8-1.8,1.8-1.8C166.4,97.1,167.2,97.9,167.2,98.9z"
			/>
		<linearGradient id="SVGID_4_" gradientUnits="userSpaceOnUse" x1="165.6719" y1="86.1905" x2="89.1719" y2="131.1905">
			<stop  offset="5.282353e-03" style="stop-color:#F99747"/>
			<stop  offset="0.3696" style="stop-color:#F77D62"/>
			<stop  offset="1" style="stop-color:#F3538C"/>
		</linearGradient>
		<path class="st12" d="M140.3,102.2c0,1-0.8,1.8-1.8,1.8c-1,0-1.8-0.8-1.8-1.8c0-1,0.8-1.8,1.8-1.8
			C139.5,100.4,140.3,101.2,140.3,102.2z"/>
		<linearGradient id="SVGID_5_" gradientUnits="userSpaceOnUse" x1="164.1024" y1="83.5222" x2="87.6024" y2="128.5222">
			<stop  offset="5.282353e-03" style="stop-color:#F99747"/>
			<stop  offset="0.3696" style="stop-color:#F77D62"/>
			<stop  offset="1" style="stop-color:#F3538C"/>
		</linearGradient>
		<path class="st13" d="M110.9,115.9c0,1-0.8,1.8-1.8,1.8c-1,0-1.8-0.8-1.8-1.8s0.8-1.8,1.8-1.8C110.1,114,110.9,114.9,110.9,115.9z
			"/>
		<linearGradient id="SVGID_6_" gradientUnits="userSpaceOnUse" x1="169.2246" y1="92.2301" x2="92.7246" y2="137.2301">
			<stop  offset="5.282353e-03" style="stop-color:#F99747"/>
			<stop  offset="0.3696" style="stop-color:#F77D62"/>
			<stop  offset="1" style="stop-color:#F3538C"/>
		</linearGradient>
		<path class="st14" d="M121.1,121.6c0,1-0.8,1.8-1.8,1.8c-1,0-1.8-0.8-1.8-1.8c0-1,0.8-1.8,1.8-1.8
			C120.4,119.7,121.1,120.5,121.1,121.6z"/>
		<linearGradient id="SVGID_7_" gradientUnits="userSpaceOnUse" x1="172.3064" y1="97.4691" x2="95.8064" y2="142.4691">
			<stop  offset="5.282353e-03" style="stop-color:#F99747"/>
			<stop  offset="0.3696" style="stop-color:#F77D62"/>
			<stop  offset="1" style="stop-color:#F3538C"/>
		</linearGradient>
		<path class="st15" d="M148.7,112.4c0,1-0.8,1.8-1.8,1.8c-1,0-1.8-0.8-1.8-1.8c0-1,0.8-1.8,1.8-1.8
			C147.9,110.6,148.7,111.4,148.7,112.4z"/>
	</g>
	<g>
		<polygon class="st16" points="93.4,103.5 81.1,103.1 81.5,90 93,89.6 		"/>
		<linearGradient id="SVGID_8_" gradientUnits="userSpaceOnUse" x1="93.6704" y1="89.7613" x2="76.9204" y2="106.428">
			<stop  offset="0" style="stop-color:#DDE0FE"/>
			<stop  offset="0.3772" style="stop-color:#E1E4FE"/>
			<stop  offset="0.7883" style="stop-color:#EEF0FF"/>
			<stop  offset="1" style="stop-color:#F8F9FF"/>
		</linearGradient>
		<rect x="81.1" y="89.6" class="st17" width="12" height="13.5"/>
		<linearGradient id="SVGID_9_" gradientUnits="userSpaceOnUse" x1="97.3854" y1="84.9162" x2="76.8854" y2="102.7495">
			<stop  offset="5.282353e-03" style="stop-color:#F99747"/>
			<stop  offset="0.3696" style="stop-color:#F77D62"/>
			<stop  offset="1" style="stop-color:#F3538C"/>
		</linearGradient>
		<path class="st18" d="M87.3,90.5c-1.7,0-3.1,1.4-3.1,3.2c0,1.7,1.4,3.2,3.1,3.2s3.1-1.4,3.1-3.2h-3.1V90.5z"/>
		<rect x="83.1" y="97.5" class="st19" width="8.4" height="0.8"/>
		<rect x="83.1" y="99.2" class="st19" width="8.4" height="0.8"/>
		<rect x="83.1" y="100.9" class="st19" width="5.4" height="0.8"/>
	</g>
	<g>
		<polygon class="st16" points="93.2,119.8 80.9,119.4 81.3,106.3 92.8,105.9 		"/>
		<linearGradient id="SVGID_10_" gradientUnits="userSpaceOnUse" x1="95.2386" y1="104.3301" x2="72.1553" y2="127.2467">
			<stop  offset="0" style="stop-color:#DDE0FE"/>
			<stop  offset="0.3772" style="stop-color:#E1E4FE"/>
			<stop  offset="0.7883" style="stop-color:#EEF0FF"/>
			<stop  offset="1" style="stop-color:#F8F9FF"/>
		</linearGradient>
		<rect x="80.9" y="105.9" class="st20" width="12" height="13.5"/>
		<rect x="81.6" y="117.2" class="st19" width="10.9" height="0.8"/>
		<rect x="82.1" y="113.8" class="st19" width="1.4" height="2.8"/>
		<rect x="84.2" y="111.5" class="st19" width="1.4" height="5.1"/>
		<rect x="86.3" y="108.3" class="st19" width="1.4" height="8.4"/>
		<rect x="88.4" y="110.3" class="st19" width="1.4" height="6.3"/>
		<rect x="90.6" y="108.3" class="st19" width="1.4" height="8.4"/>
	</g>
	<g>
		<g id="XMLID_41_">
			<linearGradient id="XMLID_2_" gradientUnits="userSpaceOnUse" x1="65.4707" y1="88.9324" x2="36.9707" y2="118.1824">
				<stop  offset="5.282353e-03" style="stop-color:#F99747"/>
				<stop  offset="0.3696" style="stop-color:#F77D62"/>
				<stop  offset="1" style="stop-color:#F3538C"/>
			</linearGradient>
			<path id="XMLID_43_" class="st21" d="M52.1,117.1l2.9-4.2c1.9-0.7,3.6-2,4.9-3.9c2.3-3.5,2.2-8.1-0.2-11.5
				c-4.1-5.7-12.5-5.6-16.6,0.1c-2.4,3.4-2.5,8.1-0.1,11.5c1.6,2.3,3.8,3.7,6.2,4.2l2.6,3.8C51.9,117.2,52.1,117.2,52.1,117.1z"/>
			<circle id="XMLID_42_" class="st22" cx="51.5" cy="103.4" r="7.2"/>
		</g>
		<g>
			<path id="XMLID_38_" class="st8" d="M54.6,104.3l0.9,0c0.2,0,0.3-0.2,0.3-0.3l0-1.2c0-0.2-0.2-0.3-0.3-0.3l-0.7,0
				c-0.1,0-0.2-0.1-0.3-0.2c0-0.1-0.1-0.1-0.1-0.2c-0.1-0.1,0-0.2,0.1-0.3l0.5-0.5c0.1-0.1,0.1-0.4,0-0.5l-0.8-0.8
				c-0.1-0.1-0.4-0.1-0.5,0l-0.5,0.5c-0.1,0.1-0.2,0.1-0.3,0.1c-0.1,0-0.2-0.1-0.2-0.1c-0.1,0-0.2-0.1-0.2-0.3v-0.7
				c0-0.2-0.2-0.3-0.3-0.3h-1.2c-0.2,0-0.3,0.2-0.3,0.3v0.7c0,0.1-0.1,0.2-0.2,0.3c-0.1,0-0.1,0.1-0.2,0.1c-0.1,0.1-0.2,0-0.3-0.1
				l-0.5-0.5c-0.1-0.1-0.4-0.1-0.5,0l-0.8,0.9c-0.1,0.1-0.1,0.4,0,0.5l0.5,0.5c0.1,0.1,0.1,0.2,0.1,0.3c0,0.1-0.1,0.2-0.1,0.2
				c0,0.1-0.1,0.2-0.3,0.2l-0.7,0c-0.2,0-0.3,0.2-0.3,0.3l0,1.2c0,0.2,0.2,0.3,0.3,0.3l0.7,0c0.1,0,0.2,0.1,0.3,0.2
				c0,0.1,0.1,0.1,0.1,0.2c0.1,0.1,0,0.2-0.1,0.3l-0.5,0.5c-0.1,0.1-0.1,0.4,0,0.5l0.8,0.8c0.1,0.1,0.4,0.1,0.5,0l0.5-0.5
				c0.1-0.1,0.2-0.1,0.3-0.1c0.1,0,0.2,0.1,0.2,0.1c0.1,0,0.2,0.1,0.2,0.3l0,0.7c0,0.2,0.2,0.3,0.3,0.3l1.2,0c0.2,0,0.3-0.2,0.3-0.3
				l0-0.7c0-0.1,0.1-0.2,0.2-0.3c0.1,0,0.1-0.1,0.2-0.1c0.1-0.1,0.2,0,0.3,0.1l0.5,0.5c0.1,0.1,0.4,0.1,0.5,0l0.8-0.8
				c0.1-0.1,0.1-0.4,0-0.5l-0.5-0.5c-0.1-0.1-0.1-0.2-0.1-0.3C54.5,104.5,54.6,104.3,54.6,104.3z M49.8,103.1
				c0.2-1.1,1.3-1.7,2.3-1.3c0.8,0.3,1.2,1.1,1.1,1.9c-0.2,1.1-1.3,1.7-2.3,1.3C50.1,104.7,49.6,103.9,49.8,103.1z"/>
		</g>
	</g>
	<g>
		<polygon class="st23" points="174,133.9 189.2,130.2 186.1,123.4 186.2,117.3 181.3,106.9 176.9,115.4 175.4,125.1 		"/>
		<path class="st23" d="M157.6,138.7h-0.4l-10.9-14.5l-1.2-3.2c-0.3-0.8-1.1-1.4-2-1.4h-1.8l-0.8,0.5l-8.3-0.5l0,0
			c0,0.9,0.7,1.6,1.6,1.6l4.2,0.2l0.1,3.1c0,1.1,0.7,2.1,1.8,2.5l2.8,1.1l1.1,1l10.6,17.4c0.3,0.5,0.9,0.7,1.5,0.5l4-1.4l-1.7-7
			L157.6,138.7z"/>
		
			<rect x="157.5" y="237.9" transform="matrix(-1 -1.224647e-16 1.224647e-16 -1 321.7784 481.0341)" class="st23" width="6.8" height="5.3"/>
		<path class="st24" d="M166.9,166.2l-9.4,41.8v31.3h6.8c0,0,5.6-21.7,2.8-30.8l11.3-26.1L166.9,166.2z"/>
		<polygon class="st25" points="166.1,239.4 166.1,247.3 143.8,247.3 143.8,244.5 150.2,243.3 154.9,237.8 155.9,237.8 157.5,240.4 
			164.3,240.6 165.3,239.4 		"/>
		<g>
			
				<rect x="154.2" y="238.6" transform="matrix(0.6903 -0.7236 0.7236 0.6903 -125.4441 186.0944)" class="st26" width="0.8" height="1.9"/>
		</g>
		<g>
			
				<rect x="153.1" y="240" transform="matrix(0.7667 -0.642 0.642 0.7667 -118.7364 154.7109)" class="st26" width="0.9" height="1.4"/>
		</g>
		<g>
			<polygon class="st26" points="152.5,242.4 153.1,241.8 152.2,241 151.7,241.6 			"/>
		</g>
		
			<rect x="180.1" y="239.4" transform="matrix(-1 -1.224647e-16 1.224647e-16 -1 365.1729 484.0318)" class="st23" width="5" height="5.3"/>
		<polygon class="st27" points="166.2,169.6 169.4,169.8 178.3,182.5 173.6,193.5 171,181.1 165.3,173.2 		"/>
		<path class="st24" d="M188.1,170.8l-0.4,36c3.8,7.9-2.5,32.5-2.5,32.5h-5.5l-0.7-29.1l-6.2-29.2l-8.4-11.8L188.1,170.8z"/>
		<polygon class="st8" points="172.3,247.2 181.1,247.2 186.2,244.8 185.8,240.6 185.1,241.6 183.8,241.7 182.3,239.4 178,239.4 		
			"/>
		<polygon class="st26" points="186.2,244.8 186.2,246.4 181.5,249.1 172.3,249.1 172.3,247.2 181.1,247.2 		"/>
		<g>
			<rect x="177.2" y="240.8" class="st26" width="2.9" height="0.8"/>
		</g>
		<g>
			<rect x="176.6" y="242.3" class="st26" width="2.9" height="0.8"/>
		</g>
		<g>
			<rect x="175.6" y="243.8" class="st26" width="2.9" height="0.8"/>
		</g>
		
			<rect x="143.8" y="247.2" transform="matrix(-1 -1.224647e-16 1.224647e-16 -1 309.8807 496.2347)" class="st26" width="22.2" height="1.9"/>
		<linearGradient id="SVGID_11_" gradientUnits="userSpaceOnUse" x1="187.0952" y1="116.7515" x2="142.2619" y2="163.5848">
			<stop  offset="5.282353e-03" style="stop-color:#F99747"/>
			<stop  offset="0.3696" style="stop-color:#F77D62"/>
			<stop  offset="1" style="stop-color:#F3538C"/>
		</linearGradient>
		<path class="st28" d="M175.4,125.1l-9.9,5.8c-0.2,0.1-0.4,0.2-0.5,0.4l-7.4,6.7l1.5,9.5l18.7-11.1L175.4,125.1z"/>
		<linearGradient id="SVGID_12_" gradientUnits="userSpaceOnUse" x1="199.9497" y1="129.057" x2="155.1164" y2="175.8904">
			<stop  offset="5.282353e-03" style="stop-color:#F99747"/>
			<stop  offset="0.3696" style="stop-color:#F77D62"/>
			<stop  offset="1" style="stop-color:#F3538C"/>
		</linearGradient>
		<polygon class="st29" points="193.1,135.4 189.2,171.9 162.4,171.9 169.5,129.3 175.4,125.1 178.6,130.8 186.1,123.4 		"/>
		<g>
			<path class="st9" d="M182.9,112.3c0.4,0.7,0.4,1.7,0.4,2.4c0.1,1.3,0.1,2.7,0.4,4c0.2,0.6,0.5,1.2,0.8,1.8
				c0.1,0.1,0.1,0.2,0.2,0.3c0.1,0,0.2,0.1,0.3,0.1c0.6,0,1.1-0.5,1.3-1.1c0.2-0.6,0.2-1.2,0.2-1.8c0.1-1,0.7-2,0.8-3.1
				c0-0.4,0-0.7,0.1-1.1c0.1-0.9,0.4-1.7,0.6-2.6c0.4-1.7-0.3-3.1-1.1-4.6c-0.4-0.7-0.8-1.5-1.3-2.2c-0.6-0.9-1.5-0.9-2.3-1.4
				c-0.6-0.4-1.1-1.2-1.8-1.3c-0.9-0.2-1.9,0.8-2.8,0.4c-0.9-0.4-1.8-0.9-2.8-0.3c-0.3,0.2-0.6,0.5-1,0.5c-0.3,0-0.5,0-0.8-0.1
				c-0.5-0.1-1,0.1-1.5,0.3c-0.5,0.1-1,0.4-1.2,0.8c-0.1,0.3,0,0.6-0.2,0.9c-0.2,0.3-0.6,0.5-0.9,0.5c-0.4,0-0.8,0-1.1,0.2
				c-0.5,0.3-0.7,1.8-0.4,2.3c0.3,0.6,1,0.8,1.6,0.7c0.6,0,1.2-0.2,1.8-0.3c0.6,0,1.3,0.1,1.6,0.7c0.1,0.2,0.1,0.4,0.2,0.5
				c0.3,1,0.5,2,0.8,3.1c0.2,1,0.5,2,1.2,2.6c0.7,0.7,1.9,0.9,2.8,0.6c1-0.3,1.7-1.1,2.1-2c0.2-0.4,0.3-0.8,0.5-1.1
				c0.3-0.3,0.8-0.5,1.1-0.2C182.7,112.1,182.8,112.2,182.9,112.3z"/>
		</g>
		<path class="st23" d="M170.5,108.2v4.9l0.6,0.6c0,0-1.4,1.9-1.3,3.9h1.3v2.4c0,2.1,1.7,3.7,3.7,3.7h0.5c2.9,0,5.2-2.3,5.2-5.2
			v-2.1c0,0,2-1,2-2.8c0,0,0.3-2.8-1.4-2.7c0,0-2.2-0.1-2.3,1.7l-2.4,0.2v-1.4c0-1-0.7-1.8-1.7-1.8l0,0l-0.1-2.9
			C174.7,106.9,171.8,106.4,170.5,108.2z"/>
		<g>
			<path class="st9" d="M171.4,121.2c0.4-0.2,0.5,0.4,0.6,0.6c0,0.3,0.1,0.6,0.4,0.6c0.1,0,0.2,0,0.3,0c0.2,0,0.3-0.1,0.5-0.2
				c0.1-0.1,0.2-0.1,0.4-0.2c0.4-0.3,0.8-0.6,0.7-1.1c0-0.6-0.2-1-0.7-1.3c-0.4-0.2-0.9-0.2-1.4-0.1c-0.4,0-0.9,0.2-1.1-0.2
				c-0.1-0.2-0.1-0.4,0-0.7c0-0.1,0.1-0.3,0.2-0.4c0.2-0.3,1.3-0.2,1.7-0.2c0.4,0,0.9-0.1,1.3,0c0.4,0.1,0.8,0.2,1.1,0.5
				c0.2,0.3,0.3,0.7,0.7,0.8c0.1,0.1,0.3,0,0.4,0c0.3,0,0.7-0.2,0.8-0.5c0.3-0.4,0.1-0.9,0-1.4c-0.3-1-0.2-2.1-0.5-3.2
				c-0.2-0.6-0.4-1.9,0-2.4h2.5c-0.3,1.1-0.6,3.2-0.1,4.3c0.8,1.9,2.4,4.6,0.5,6.4c-0.5,0.5-1.1,0.8-1.8,1c-0.4,0.2-0.8,0.4-1.3,0.4
				c-0.5,0.1-1,0-1.5,0c-0.6,0-1.3,0.3-1.9,0.1c-0.4-0.1-0.8-0.3-1.1-0.5c-0.1,0-0.2-0.1-0.2-0.2c-0.1-0.1-0.1-0.2-0.1-0.4
				c0-0.1-0.1-0.2-0.1-0.2c-0.2-0.3-0.3-0.8-0.3-1.2C171.2,121.4,171.2,121.3,171.4,121.2z"/>
		</g>
		<g class="st30">
			<g>
				<path class="st26" d="M166.3,218.6c0.3-0.4,0.6-0.8,0.6-1.3c0-0.3-0.8-1.6-0.7-1.7c0.1-0.2,0.4-0.3,0.6-0.3
					c-0.1-0.3-0.4-0.5-0.7-0.7c-0.3-0.2-0.5-0.6-0.2-0.8c0.3-0.2,0.7-0.2,1.1-0.2c-0.1-0.9-0.3-1.7-0.5-2.6
					c-0.1-0.8-0.4-1.6-0.8-2.2c-0.4-0.6-1.2-0.6-1.5-1.3c0-0.1,0-0.1,0-0.2c0-0.2,0.2-0.2,0.4-0.2c0.6,0,1.3,0,1.9-0.1
					c0.4-0.1,1.2-0.6,1.4-0.3c0.1,0.3-0.6,1.5-0.8,1.8c0.9,2.9,0.9,6.1,0.8,9.1c-0.1,1.8-0.3,3.6-0.5,5.4c-0.2,1.6-0.2,3.5-0.8,5
					c0-0.8,0-1.4-0.4-2.1c-0.3-0.7-0.8-1.3-1.3-1.9c-0.1-0.1-0.2-0.2-0.2-0.3c0-0.1,0-0.2-0.1-0.4c0-0.3,0-0.6,0.1-0.9
					c0.7,0.4,1.4,0.7,2.2,1c-0.1-1-0.2-2.3-0.9-3.1c-0.2-0.2-0.4-0.4-0.4-0.7c0-0.1,0-0.2,0.1-0.3
					C165.9,219.2,166.1,218.9,166.3,218.6z M173.4,193.8c0.2-0.6-1.1-0.1-1.2,0c-0.5,0.3-0.8,0.8-1,1.3c-0.3,0.8-0.3,1.7-0.6,2.5
					c-0.3,1.2-0.9,2.3-1.8,3.2c0.4,0,0.6,0.5,0.5,0.9c-0.1,0.4-0.4,0.7-0.6,1c-0.4,0.5-0.6,1.5-1.1,2c-0.2,0.2-0.6,0.2-0.8,0.3
					c0.1,0.2,1.2,1.2,1.2,1.3C168,206.3,173.4,193.9,173.4,193.8z"/>
			</g>
		</g>
		<g class="st31">
			<path class="st32" d="M189.9,165.2l-0.1,1.4c-0.1-0.1-0.2-0.3-0.1-0.5C189.7,165.8,189.8,165.5,189.9,165.2z"/>
			<path class="st32" d="M190,149.5c0.8-0.2-0.8-0.9-1.4-1.5c-0.1-0.2,1.8-0.3,1.9-0.4c-0.1-0.8,0-1.5-0.1-2.3
				c-0.4-0.2-2-0.4-1.6-0.5c2-0.7,0.4-9.4-0.2-10.8c-0.3-0.6,2.1,3.2,2.3,3.8c0.7,1.6,0.9,3.2,1.3,4.8l-0.2,2.2
				c-0.1,0-0.2,0-0.3,0.1c0.1,0.1,0.2,0.2,0.3,0.2l-0.6,5.3c-0.2,0,0,0.5-0.2,0.5c0.2,0.2,0,0,0.1,0.2l-1.3,12.3
				c-0.9,5.2-1-3.4-0.9-4.8c0.3-3,1.8-6.5-0.3-7C188.4,151.5,189.6,149.6,190,149.5z"/>
		</g>
		<polygon class="st23" points="200.1,147.5 200.6,153.5 195.2,179 195.8,182.3 195.2,186.7 193.6,188.1 191.5,188.7 189.2,189.5 
			188.2,189.5 186.1,188.7 187.4,187 188,184.3 187.1,185.7 185.5,186.1 187.6,181.1 190.9,177.7 193.1,155.6 192.2,147.5 		"/>
		<polygon class="st27" points="200.2,149.2 192.4,149.2 192.2,147.5 200.1,147.5 		"/>
		<linearGradient id="SVGID_13_" gradientUnits="userSpaceOnUse" x1="199.8306" y1="128.943" x2="154.9973" y2="175.7764">
			<stop  offset="5.282353e-03" style="stop-color:#F99747"/>
			<stop  offset="0.3696" style="stop-color:#F77D62"/>
			<stop  offset="1" style="stop-color:#F3538C"/>
		</linearGradient>
		<path class="st33" d="M186.1,123.4l12.1,6.9c1.3,0.8,2.2,2.2,2.3,3.7l0.6,13.4h-9.7l-0.6-9.2L186.1,123.4z"/>
	</g>
	<g>
		
			<rect x="112.5" y="230.9" transform="matrix(0.6993 -0.7148 0.7148 0.6993 -133.8994 153.5132)" class="st23" width="6" height="10"/>
		<rect x="78.5" y="231.8" transform="matrix(0.956 0.2934 -0.2934 0.956 73.0594 -13.5017)" class="st23" width="6" height="10"/>
		<g>
			<polygon class="st9" points="47.2,208.3 41.7,247.5 43.6,247.6 53.9,207.1 47.3,207.1 			"/>
			<polygon class="st9" points="87.8,208.3 93.3,247.5 91.4,247.6 81.1,207.1 87.7,207.1 			"/>
			<path class="st34" d="M92.3,208.3H42.6v-1c0-2.6,2.1-4.8,4.8-4.8h40.1c2.6,0,4.8,2.1,4.8,4.8V208.3z"/>
		</g>
		<polygon class="st24" points="44.7,193.3 81.9,210.4 113.8,239.1 119.8,233.2 92.3,202.5 64.7,182.9 		"/>
		<path class="st35" d="M42.5,184.9v7c0,6.1,4.9,11,11,11h34.7c-6.2,7.5-9.8,31.8-9.8,31.8l7.8,2.1l13.8-35.3
			c2.5-6.5-2.3-13.5-9.3-13.5H65.8l0.2-3.1H42.5z"/>
		<path class="st8" d="M57.3,151.3l6.5,1.2c4,0.7,7.4,3.3,9.1,6.9l5.3,10.8l-5.3,11.9l-0.5,5.4c0,0-25.7,11.4-32,6.2l-0.3-27.4
			l9.7-14.2L57.3,151.3z"/>
		<path class="st23" d="M48.3,143.3c0,0,2.1,9.2,1.6,14.6h7.5c0,0-0.8-9.1,0.8-10.7L48.3,143.3z"/>
		<g>
			<path class="st23" d="M61.5,135.7c-0.1-1.7-0.8-3.3-1.5-4.8l-0.3,0.1c-1.7-1.6-4.2-2.1-6.5-1.5c-2.2,0.6-4.1,2.2-5.3,4.2
				c-1.7,2.8-2,6.4-0.8,9.5c1.2,3.1,3.9,5.5,7,6.4c1.3,0.3,2.7,0.4,3.8-0.4c0.4-0.3,0.7-0.8,1-1.2c0.8-1.1,1.5-2.3,1.8-3.6
				c0.2-1.1,0.1-2.1,0.1-3.2C61,139.3,61.6,137.6,61.5,135.7z"/>
		</g>
		<g>
			<path class="st9" d="M58.3,128.7c-0.9-0.7-1.8-1.5-2.8-2c-0.8-0.4-1.7-0.7-2.5-0.9c-2.2-0.5-3.7-0.4-5.4,1.3
				c-1.3,1.2-2.1,3-2.2,4.7c0,0.4,0,0.8-0.1,1.2c-0.1,0.5-0.5,0.8-0.8,1.2c-1.6,2.1-1.8,5-0.9,7.4c0.4,1.1,1,2.3,2,2.9
				c0.8,0.5,3,0.8,3.4,1.8c-0.6-1.5-0.9-3.2-0.7-4.8c0-0.4,0.1-0.9,0.3-1.2c0.2-0.4,0.7-0.6,1.1-0.5c0.3,0.1,0.5,0.3,0.7,0.5
				c0.4,0.3,1,0.5,1.5,0.5c0.2,0,0.4,0,0.6-0.1c0.2-0.2,0.3-0.5,0.4-0.7c0.3-1.4-0.2-3-0.6-4.2c-0.4-1.1-0.4-2.5,1-2.4
				c1.3,0.1,2.6,0.9,4,1c2.8,0.2,5.8-0.7,8-2.5C62.8,131.4,60.4,130.3,58.3,128.7z"/>
		</g>
		<polygon class="st19" points="55.1,157.9 57.3,150.8 58.6,151 60,162.5 		"/>
		<path class="st23" d="M49.7,151.3l-6.9,1.3c-3.4,0.6-6.2,2.9-7.5,6.1l-7.7,18.3c-1.1,2.6,0.8,5.5,3.6,5.5l27.5-1.4l1.3-3.9l-3,1
			l-17.2-1.5c-1.4-0.1-2.1-1.7-1.3-2.9l11.5-15.9C49.9,157.9,52,152.2,49.7,151.3z"/>
		<path class="st8" d="M49.7,151.3l-6.9,1.3c-3.4,0.6-6.2,2.9-7.5,6.1L30,169.9c4.2-0.4,8.5,3.9,11.4,1.6l8.6-13.6
			C49.9,157.9,52,152.2,49.7,151.3z"/>
		<polygon class="st19" points="49.6,150.8 55.1,157.9 51.2,163 47.7,151.3 		"/>
		<g>
			<path class="st9" d="M76.1,238.9l-1.9,4.9v3.8h23.5v-1.1c0-1-0.7-1.8-1.6-2l-3.8-0.9l-7.9-4.7H83l-0.6,1.4h-4.1l-0.4-1.4H76.1z"
				/>
			<path class="st8" d="M74.2,245.6v2h23.5v-1.1c0-0.4-0.1-0.7-0.3-1H74.2z"/>
		</g>
		<g>
			<path class="st9" d="M115,240.8l2.7,4.4l3.1,2.3l14.6-18.8l-0.8-0.6c-0.8-0.6-1.8-0.5-2.5,0.1l-3,2.5l-9.1,3.5l-0.8,1.1l0.7,1.4
				l-2.4,3.3l-1.4-0.5L115,240.8z"/>
			<path class="st8" d="M119.2,246.3l1.6,1.2l14.6-18.8l-0.8-0.6c-0.3-0.2-0.6-0.3-0.9-0.4L119.2,246.3z"/>
		</g>
	</g>
	<g>
		<polygon class="st9" points="24.8,184.6 12.8,252.2 14.9,252.2 31.8,184.2 		"/>
		<polygon class="st9" points="155.5,184.2 167.4,251.7 165.3,251.7 148.4,183.7 		"/>
		<polygon class="st36" points="180.3,191.2 0,191.7 0,188.5 180.3,188 		"/>
		<polygon class="st25" points="0,188.5 13.1,181.5 185.1,181 180.4,188 		"/>
		<polygon class="st25" points="180.3,191.2 185.1,184.5 185.1,181 180.4,188 		"/>
	</g>
	<g>
		<rect x="45.2" y="181.1" class="st9" width="18.2" height="2.4"/>
		<path class="st9" d="M94.6,183.4l-37.5,0l8.8-22.9c0.2-0.6,0.7-0.9,1.3-0.9l34.5,0c1,0,1.7,1,1.3,1.9L94.6,183.4z"/>
		<path class="st37" d="M82.8,171.5c0,1.3-1,2.3-2.3,2.3c-1.3,0-2.3-1-2.3-2.3c0-1.3,1-2.3,2.3-2.3
			C81.7,169.2,82.8,170.2,82.8,171.5z"/>
	</g>
	<g id="XMLID_24_">
		<g id="XMLID_32_">
			<g id="XMLID_33_">
				<g id="XMLID_34_">
					<linearGradient id="XMLID_3_" gradientUnits="userSpaceOnUse" x1="119.5459" y1="168.5427" x2="91.9209" y2="188.0427">
						<stop  offset="5.282353e-03" style="stop-color:#F99747"/>
						<stop  offset="0.3696" style="stop-color:#F77D62"/>
						<stop  offset="1" style="stop-color:#F3538C"/>
					</linearGradient>
					<path id="XMLID_35_" class="st38" d="M106.9,180.3h-1.3c-1.2,0-2.1-1-2.1-2.1c0-1.2,1-2.1,2.1-2.1h0.8v0.9h-0.8
						c-0.7,0-1.2,0.5-1.2,1.2c0,0.7,0.5,1.2,1.2,1.2h1.3V180.3z"/>
				</g>
			</g>
		</g>
		<g id="XMLID_29_">
			<g id="XMLID_30_">
				<linearGradient id="XMLID_4_" gradientUnits="userSpaceOnUse" x1="121.1759" y1="170.8519" x2="93.5509" y2="190.3519">
					<stop  offset="5.282353e-03" style="stop-color:#F99747"/>
					<stop  offset="0.3696" style="stop-color:#F77D62"/>
					<stop  offset="1" style="stop-color:#F3538C"/>
				</linearGradient>
				<path id="XMLID_31_" class="st39" d="M113.9,175.3h-7.8v2.4c0,1.7,0.6,3.3,1.8,4.6l0,0v1.2h4.3v-1.2l0,0
					c1.1-1.2,1.8-2.9,1.8-4.6V175.3z"/>
			</g>
		</g>
		<g id="XMLID_26_" class="st40">
			<g id="XMLID_27_">
				<path id="XMLID_28_" class="st8" d="M112.3,175.3v2.4c0,1.7-0.6,3.3-1.8,4.6v0v1.2h0.9v-1.2v0c1.1-1.2,1.8-2.9,1.8-4.6v-2.4
					H112.3z"/>
			</g>
		</g>
	</g>
	<g id="XMLID_17_">
		<path id="XMLID_23_" class="st19" d="M203.3,204.5c0,0,0.2,0,0.5,0.1c0.2,0.1,0.3,0.1,0.6,0.2c0.2,0.1,0.5,0.2,0.7,0.4
			c0.2,0.2,0.5,0.3,0.8,0.5c0.3,0.2,0.5,0.5,0.8,0.7c0.5,0.5,1.2,1.2,1.6,1.9c0.6,0.7,1,1.6,1.5,2.5c0.4,0.9,0.8,1.9,1.1,2.9
			c0.3,1,0.7,2.1,0.8,3.2c0.2,1.1,0.5,2.2,0.6,3.4c0.1,1.1,0.3,2.3,0.4,3.4c0.1,1.1,0.1,2.2,0.2,3.3c0.1,1.1,0,2.1,0,3.1
			c0,1,0,1.9,0,2.8c-0.2,3.4-0.3,5.7-0.3,5.7l-2.9-0.2c0,0,0.3-2.2,0.8-5.6c0.1-0.8,0.2-1.7,0.2-2.7c0.1-1,0.2-2,0.2-3
			c0-1,0.1-2.1,0.1-3.2c0-1.1-0.1-2.2-0.1-3.3c0-1.1-0.2-2.2-0.3-3.3c-0.1-1.1-0.4-2.2-0.6-3.2c-0.2-1-0.6-2-0.9-2.9
			c-0.4-0.9-0.7-1.8-1.2-2.5c-0.4-0.8-1-1.4-1.5-2c-0.3-0.3-0.5-0.5-0.8-0.7c-0.3-0.2-0.5-0.4-0.8-0.6c-0.3-0.1-0.5-0.3-0.7-0.4
			c-0.2-0.1-0.4-0.2-0.5-0.2C203.5,204.5,203.3,204.5,203.3,204.5z"/>
		<path id="XMLID_22_" class="st19" d="M210,235.2c0,0-0.3-1.4-0.8-3.4c-0.5-2-1.3-4.8-2.2-7.5c-0.5-1.3-1-2.7-1.5-3.9
			c-0.3-0.6-0.5-1.2-0.8-1.8c-0.3-0.5-0.6-1.1-0.9-1.5c-0.3-0.5-0.6-0.9-0.9-1.3c-0.3-0.3-0.5-0.7-0.8-0.9c-0.5-0.4-0.8-0.7-0.8-0.7
			s0.3,0.2,0.9,0.6c0.3,0.2,0.6,0.5,0.9,0.9c0.4,0.3,0.7,0.8,1,1.2c0.4,0.4,0.7,1,1.1,1.5c0.4,0.5,0.7,1.1,1.1,1.7
			c0.7,1.2,1.4,2.5,2.1,3.8c2.6,5.3,4.5,10.7,4.5,10.7L210,235.2z"/>
		<path id="XMLID_21_" class="st19" d="M211,236.1c0,0,0.1-1,0.4-2.4c0.3-1.4,0.8-3.3,1.5-5.2c0.4-0.9,0.8-1.8,1.3-2.7
			c0.3-0.4,0.5-0.8,0.8-1.2c0.3-0.4,0.5-0.7,0.9-1c0.3-0.3,0.6-0.5,0.9-0.7c0.3-0.2,0.5-0.4,0.8-0.4c0.5-0.2,0.8-0.3,0.8-0.3
			s-0.2,0.1-0.7,0.4c-0.2,0.1-0.4,0.3-0.7,0.5c-0.3,0.2-0.5,0.5-0.7,0.8c-0.2,0.3-0.4,0.6-0.6,1c-0.2,0.4-0.3,0.8-0.5,1.2
			c-0.3,0.8-0.5,1.7-0.6,2.7c-0.2,1.8-0.3,3.7-0.2,5.1c0,1.4,0.2,2.3,0.2,2.3L211,236.1z"/>
		<path id="XMLID_20_" class="st41" d="M202.9,234.1l2.3,14c0.2,1.2,1.3,2.1,2.5,2.1h7.7c1.3,0,2.3-0.9,2.5-2.1l2.3-14H202.9z"/>
		<polygon id="XMLID_19_" class="st42" points="202.9,234.1 220.3,234.1 218.5,245.3 203.4,237.1 		"/>
		<path id="XMLID_18_" class="st41" d="M222.1,234.4h-21c-0.2,0-0.3-0.1-0.3-0.3v-3.4c0-0.2,0.1-0.3,0.3-0.3h21
			c0.2,0,0.3,0.1,0.3,0.3v3.4C222.4,234.2,222.3,234.4,222.1,234.4z"/>
	</g>
	
		<linearGradient id="SVGID_14_" gradientUnits="userSpaceOnUse" x1="95.2945" y1="32.7654" x2="71.0843" y2="52.0479" gradientTransform="matrix(0.9996 2.919298e-02 -2.919298e-02 0.9996 0.1906 -1.937)">
		<stop  offset="5.282353e-03" style="stop-color:#F99747"/>
		<stop  offset="0.3696" style="stop-color:#F77D62"/>
		<stop  offset="1" style="stop-color:#F3538C"/>
	</linearGradient>
	<circle class="st43" cx="82.1" cy="42.9" r="6.4"/>
	<circle class="st22" cx="81.5" cy="42.3" r="5.8"/>
	<polygon class="st8" points="77.9,42.3 79.1,41.5 80.9,43.5 84.4,40.3 85.3,41.5 80.7,45.4 	"/>
	<polygon class="st24" points="165.6,103.3 166.5,103.9 166.5,100.4 164.6,100.4 164.6,103.9 	"/>
	<linearGradient id="SVGID_15_" gradientUnits="userSpaceOnUse" x1="162.4711" y1="95.0078" x2="170.8272" y2="105.7934">
		<stop  offset="0" style="stop-color:#FFC655"/>
		<stop  offset="1" style="stop-color:#FF5617"/>
	</linearGradient>
	<path class="st44" d="M165.7,95.2l1,2c0,0.1,0.1,0.1,0.1,0.1l2.3,0.3c0.1,0,0.2,0.2,0.1,0.3l-1.6,1.6c0,0-0.1,0.1-0.1,0.2l0.4,2.2
		c0,0.1-0.1,0.3-0.3,0.2l-2-1.1c-0.1,0-0.1,0-0.2,0l-2,1.1c-0.1,0.1-0.3,0-0.3-0.2l0.4-2.2c0-0.1,0-0.1-0.1-0.2l-1.6-1.6
		c-0.1-0.1,0-0.3,0.1-0.3l2.2-0.3c0.1,0,0.1,0,0.1-0.1l1-2C165.5,95,165.7,95,165.7,95.2z"/>
	<g>
		<defs>
			<path id="SVGID_16_" d="M165.7,95.2l1,2c0,0.1,0.1,0.1,0.1,0.1l2.3,0.3c0.1,0,0.2,0.2,0.1,0.3l-1.6,1.6c0,0-0.1,0.1-0.1,0.2
				l0.4,2.2c0,0.1-0.1,0.3-0.3,0.2l-2-1.1c-0.1,0-0.1,0-0.2,0l-2,1.1c-0.1,0.1-0.3,0-0.3-0.2l0.4-2.2c0-0.1,0-0.1-0.1-0.2l-1.6-1.6
				c-0.1-0.1,0-0.3,0.1-0.3l2.2-0.3c0.1,0,0.1,0,0.1-0.1l1-2C165.5,95,165.7,95,165.7,95.2z"/>
		</defs>
		<clipPath id="SVGID_17_">
			<use xlink:href="#SVGID_16_"  style="overflow:visible;"/>
		</clipPath>
		<path class="st45" d="M165.4,95.3l0.9,1.9c0,0,0.1,0.1,0.1,0.1l2.1,0.3c0.1,0,0.2,0.2,0.1,0.3l-1.5,1.5c0,0-0.1,0.1,0,0.1l0.4,2.1
			c0,0.1-0.1,0.2-0.2,0.2l-1.8-1c0,0-0.1,0-0.2,0l-1.8,1c-0.1,0.1-0.3,0-0.2-0.2l0.4-2.1c0-0.1,0-0.1,0-0.1l-1.5-1.5
			c-0.1-0.1,0-0.3,0.1-0.3l2.1-0.3c0.1,0,0.1,0,0.1-0.1l0.9-1.9C165.2,95.2,165.4,95.2,165.4,95.3z"/>
	</g>
	<g id="XMLID_209_">
		<g id="XMLID_218_">
			<rect id="XMLID_221_" x="115.8" y="49.3" class="st5" width="15.9" height="19.5"/>
			<rect id="XMLID_220_" x="119" y="53.2" class="st46" width="9.5" height="11.7"/>
			<rect id="XMLID_219_" x="120.7" y="55.3" class="st47" width="6.1" height="7.5"/>
		</g>
		<g id="XMLID_214_">
			<rect id="XMLID_217_" x="154.3" y="49.3" class="st4" width="15.9" height="19.5"/>
			<rect id="XMLID_216_" x="157.6" y="53.2" class="st46" width="9.5" height="11.7"/>
			<rect id="XMLID_215_" x="159.3" y="55.3" class="st47" width="6.1" height="7.5"/>
		</g>
		<g id="XMLID_210_">
			<rect id="XMLID_213_" x="135.1" y="49.3" class="st47" width="15.9" height="19.5"/>
			<rect id="XMLID_212_" x="138.3" y="53.2" class="st0" width="9.5" height="11.7"/>
			<rect id="XMLID_211_" x="140" y="55.3" class="st48" width="6.1" height="7.5"/>
		</g>
	</g>
	<g>
		<defs>
			<rect id="SVGID_18_" x="51.5" width="178.9" height="186.1"/>
		</defs>
		<clipPath id="SVGID_19_">
			<use xlink:href="#SVGID_18_"  style="overflow:visible;"/>
		</clipPath>
		<path class="st49" d="M287.7,37.4c-2.5,0.3-9.1-0.2-16,0.4c0.8-3,0.9-5.7,0.8-6.8c-0.1-1.6-6.4-6.6-8.1-8.1
			c-1.6-1.5,0.8-2.5,2.1-1.4c1.3,1.1,6,4.5,6,4.5l-2.6-21.6c0,0-8.4,8.9-14.2,18c-5.8,9.1-7.5,6.4-10.7,12.1s-7.1,19.2-7.1,27.4
			c0,4.8,0.9,12.2,1.8,17.7l-0.6,0.4c0,0-1.3-20.3-3.8-30.1c-2.4-9.8-10.9-24.7-16.4-30.5c-5.5-5.8-6.8-2.2-16.3-11.3
			c-9.5-9.1-22.1-17.2-22.1-17.2l3.2,26.4c0,0,4.6-5.4,5.8-7.1c1.2-1.7,4.4-1.2,2.9,1c-1.5,2.3-7.6,10-7.3,11.9
			c0.4,1.9,2.2,7.8,5.7,12c3.6,4.3,4.7,6.1,5.6,5.5c0.9-0.5,4.9-10.7,6.1-13.6c1.2-2.9,5.1-2.3,2.8,2.7c-2.3,5-6.5,12.8-5.8,14
			c0.7,1.2,11.2,10.4,19.5,12.6c8.3,2.2,11.8-0.6,14,2.9c1.2,1.9,2.6,13.2,3.6,22.7c-1.2-3.8-3-10-3.9-12.4
			c-1.2-3.5-2.5-3.8-10.7-8.9c-8.2-5.1-24.2,0.9-28.3,1.4c-4.1,0.5-11.7-0.8-11.7-0.8s0.7,2.7,1.8,5.9c1.2,3.1,4.7,7.1,6,7.4
			c1.3,0.3,0.6-0.3,2-1.6c1.3-1.3,2.4-2.9,2.6-4.5c0.3-1.6,2.1-2.3,2.2-0.7c0.1,1.6-0.6,4.6-1.1,6c-0.5,1.4-0.7,1.8,2.3,2.5
			c3,0.8,13.5,2.9,20.3,1.4c6.8-1.5,7.7-0.9,10.6-0.4c2.9,0.6,6.1,5.6,4.2,4.9c-0.8-0.3-2.8,0.5-5.1,1.6c-4.5,1.5-14.9,5.3-18.2,5.4
			c-3.4,0.1-6.8-2.1-5.3,5.1c1.5,7.2,7.7,10.1,9.1,10.5c1.4,0.4,3.1,0.2,3.7-0.5c0.5-0.7,0.1-5.2-0.2-7.3c-0.4-2.1,1.2-2.1,1.4-0.5
			c0.2,1.6,0.4,2.3,0.6,4.7c0.1,2.4,0.8,1.8,1.6,1.7c0.8-0.1,7.6-7.7,9.8-10.2c1.9-2.2,4.1-4.4,7.1-3.6c0.4,3.9,0.6,6.6,0.6,6.6
			l1.5-0.2l-0.2-5.4c3.4,3.4,6.6,18.1,6.6,18.1l4.3-0.5c0,0-3-5.6-5.8-11.4c-0.5-3.3-1.4-9.4-2.1-15.1c0.2,0,0.4,0,0.6,0
			c3.1,0.3,11.8,7.6,13.3,9.2c1.4,1.6,1.6,3,1.6,3l16.9-2c0,0-4.7-11.7-8.6-14c-3.9-2.3-16.9-6-18.9-4.6c-2,1.4,0.3-5.6,3.6-7.1
			c3.3-1.5,4.1-2.4,12.7-2.6c8.5-0.2,20.3-5.8,23.7-7.6c3.4-1.8,3.1-2.2,2-3.7c-1-1.5-2.7-4.9-3-6.8c-0.4-1.9,2-1.6,2.8,0.2
			c0.8,1.8,2.5,3.4,4.4,4.6c1.9,1.1,1.4,2,2.8,1.3c1.4-0.7,4.5-6.5,4.9-10.5c0.5-4.1,0.5-7.5,0.5-7.5S292.7,36.8,287.7,37.4z
			 M239.1,85.1c0,0,0.2-1.4,1-2.5c0.4,2.4,0.6,3.9,0.6,3.9l-1.6-0.7L239.1,85.1z M242.4,77.6l-0.6,0.4c-0.5-4.4-0.7-8-0.4-9.1
			c0.3-0.9,0.8-1.4,1.5-1.8C242.6,72.4,242.4,77.6,242.4,77.6z M258.2,40.8c-0.2-0.2-0.3-0.4-0.5-0.6c-2.8-3.5,0.2-4.8,1.7-2.7
			c0.4,0.5,0.9,1.3,1.6,2.2C260.1,40,259.1,40.4,258.2,40.8z"/>
		<g class="st50">
			<path class="st8" d="M182.3,61.7c1.3,0.2,7.8,1.2,11.5,0.8c4.1-0.5,20.1-6.5,28.3-1.4c8.2,5.1,9.5,5.4,10.7,8.9
				c0.2,0.5,0.4,1.1,0.6,1.8c-3.4-3.3-8.2-6.4-14.4-7c-13.9-1.4-16.7-0.1-25.5,0.5C188.2,65.6,184.4,63.5,182.3,61.7z"/>
			<path class="st8" d="M239.6,80c-0.8-5.5-1.8-13-1.8-17.7c0-8.2,3.8-21.7,7.1-27.4s4.9-3.1,10.7-12.1s14.2-18,14.2-18l1,8.6
				c-2.3,0.5-8.2,2.3-11.1,9c-3.6,8.3-7.5,19-12.1,23.6c-4.5,4.6-8.7,12.1-8.8,18.2C238.9,70.3,239.6,80,239.6,80z"/>
		</g>
		<g class="st50">
			<path class="st8" d="M301.1,33.5c-1.5,0.7-8.9,3.8-13.4,4.3c-5,0.6-25.8-1.9-34,6.6s-9.7,9.2-10.1,13.7c-0.1,0.6-0.1,1.4-0.2,2.3
				c3.1-4.9,7.9-9.9,15.1-12.5c16.2-5.7,19.8-5,30.4-6.8C295.2,39.8,299.1,36.2,301.1,33.5z"/>
			<path class="st8" d="M238.3,71.9c-0.6-6.7-1.7-15.9-3.1-21.6c-2.4-9.8-10.9-24.7-16.4-30.5c-5.5-5.8-6.8-2.2-16.3-11.3
				C193-0.6,180.5-8.7,180.5-8.7l1.3,10.5c2.8-0.1,10.4,0.4,15.8,7.4c6.7,8.9,14.5,20.4,21.2,24.5c6.7,4.2,13.9,11.9,15.7,19.1
				C236.3,60.2,238.3,71.9,238.3,71.9z"/>
		</g>
	</g>
	<g>
		<defs>
			<path id="SVGID_20_" d="M230.4,0.1L230.3,265c0,0-33,25-50.2,2.2c-19.8-26.3-1.8-53.4-23-69.8c-29-22.5-71.9,21-112.4-23.5
				S34.5,60.2,78.5,42.2s85.3,14.9,104.5-1.4c19.2-16.4,21.8-40.8,21.8-40.8H230.4z"/>
		</defs>
		<clipPath id="SVGID_21_">
			<use xlink:href="#SVGID_20_"  style="overflow:visible;"/>
		</clipPath>
	</g>
	<circle class="st51" cx="214.7" cy="277.7" r="5.1"/>
	<circle class="st51" cx="212.9" cy="179.6" r="2.5"/>
	<g id="XMLID_222_">
		<g id="XMLID_235_">
			<g id="XMLID_236_">
				<polygon id="XMLID_237_" class="st52" points="155.2,183.3 157,183.3 155.2,175.5 148.4,183.3 				"/>
			</g>
		</g>
		<g id="XMLID_232_">
			<g id="XMLID_233_">
				<polygon id="XMLID_234_" class="st53" points="153.1,183.3 142.5,183.3 147,168.7 157.6,168.7 				"/>
			</g>
		</g>
		<g id="XMLID_229_">
			<g id="XMLID_230_">
				<polygon id="XMLID_231_" class="st9" points="152,183.3 141.4,183.3 145.9,168.7 156.5,168.7 				"/>
			</g>
		</g>
		<g id="XMLID_226_">
			<g id="XMLID_227_">
				<linearGradient id="XMLID_5_" gradientUnits="userSpaceOnUse" x1="143.3873" y1="176.0269" x2="154.4942" y2="176.0269">
					<stop  offset="0" style="stop-color:#FF3EFF"/>
					<stop  offset="5.086005e-02" style="stop-color:#FF40F2"/>
					<stop  offset="0.3993" style="stop-color:#FF4C9D"/>
					<stop  offset="0.6843" style="stop-color:#FF565F"/>
					<stop  offset="0.8916" style="stop-color:#FF5C38"/>
					<stop  offset="1" style="stop-color:#FF5E2A"/>
				</linearGradient>
				<polygon id="XMLID_228_" class="st54" points="151.2,181.4 143.4,181.4 146.7,170.6 154.5,170.6 				"/>
			</g>
		</g>
		<g id="XMLID_223_" class="st55">
			<g id="XMLID_224_">
				<polygon id="XMLID_225_" class="st8" points="144,181.1 147.2,170.6 146.7,170.6 143.4,181.4 151.2,181.4 151.3,181.1 				"/>
			</g>
		</g>
	</g>
</g>
</svg>
