<?xml version="1.0" encoding="utf-8"?>
<!-- Generator: Adobe Illustrator 23.0.2, SVG Export Plug-In . SVG Version: 6.00 Build 0)  -->
<!DOCTYPE svg PUBLIC "-//W3C//DTD SVG 1.1//EN" "http://www.w3.org/Graphics/SVG/1.1/DTD/svg11.dtd" [
	<!ENTITY ns_extend "http://ns.adobe.com/Extensibility/1.0/">
	<!ENTITY ns_ai "http://ns.adobe.com/AdobeIllustrator/10.0/">
	<!ENTITY ns_graphs "http://ns.adobe.com/Graphs/1.0/">
	<!ENTITY ns_vars "http://ns.adobe.com/Variables/1.0/">
	<!ENTITY ns_imrep "http://ns.adobe.com/ImageReplacement/1.0/">
	<!ENTITY ns_sfw "http://ns.adobe.com/SaveForWeb/1.0/">
	<!ENTITY ns_custom "http://ns.adobe.com/GenericCustomNamespace/1.0/">
	<!ENTITY ns_adobe_xpath "http://ns.adobe.com/XPath/1.0/">
]>
<svg version="1.1" id="text" xmlns:x="&ns_extend;" xmlns:i="&ns_ai;" xmlns:graph="&ns_graphs;"
	 xmlns="http://www.w3.org/2000/svg" xmlns:xlink="http://www.w3.org/1999/xlink" x="0px" y="0px" viewBox="0 0 235.8 263.2"
	 style="enable-background:new 0 0 235.8 263.2;" xml:space="preserve">
<style type="text/css">
	.st0{fill:#B1B9FC;}
	.st1{clip-path:url(#SVGID_5_);fill:#4B61F4;}
	.st2{opacity:0.1;clip-path:url(#SVGID_5_);}
	.st3{fill:#FFFFFF;}
	.st4{fill:#4A4F69;}
	.st5{fill:#FFC655;}
	.st6{fill:#FFCFBE;}
	.st7{opacity:0.2;fill:#231F20;}
	.st8{fill:#FF5617;}
	.st9{fill:#545671;}
	.st10{fill:#404155;}
	.st11{fill:#F5F7F9;}
	.st12{fill:url(#XMLID_2_);}
	.st13{opacity:0.3;fill:#10163A;}
	.st14{fill:url(#SVGID_6_);}
	.st15{opacity:0.22;fill:#10163A;}
	.st16{opacity:0.1;fill:#10163A;}
	.st17{fill:url(#SVGID_7_);}
	.st18{fill:url(#SVGID_8_);}
	.st19{fill:url(#XMLID_8_);}
	.st20{fill:#E0E3FE;}
	.st21{fill:#EFF1FE;}
	.st22{fill:#D0D5FD;}
	.st23{fill:url(#SVGID_9_);}
	.st24{fill:#446DFF;}
	.st25{fill:#FF5E2A;}
</style>
<metadata>
	<sfw  xmlns="&ns_sfw;">
		<slices></slices>
		<sliceSourceBounds  bottomLeftOrigin="true" height="275.6" width="314.9" x="1817.2" y="-342"></sliceSourceBounds>
	</sfw>
</metadata>
<g>
	<defs>
		<path id="SVGID_1_" d="M235.7,0.1l-0.1,228.1c0,0,0.8,31.9-62.4,31.9c-45.9,0-82.6-41.8-123.1-86.3S39.8,60.2,83.8,42.2
			s85.3,14.9,104.5-1.4c19.2-16.4,21.8-40.8,21.8-40.8H235.7z"/>
	</defs>
	<linearGradient id="SVGID_2_" gradientUnits="userSpaceOnUse" x1="31.0369" y1="130.0897" x2="235.6596" y2="130.0897">
		<stop  offset="0" style="stop-color:#DEE2FE"/>
		<stop  offset="0.4286" style="stop-color:#E9EBFD"/>
		<stop  offset="1" style="stop-color:#F2F3FC"/>
	</linearGradient>
	<use xlink:href="#SVGID_1_"  style="overflow:visible;fill:url(#SVGID_2_);"/>
	<clipPath id="SVGID_3_">
		<use xlink:href="#SVGID_1_"  style="overflow:visible;"/>
	</clipPath>
</g>
<path class="st0" d="M235.8,173.8c0,0-9.3,12.5-24.2,2.8c-20.4-13.4-38.6-5.6-53.7-30.6c-13.6-22.4-33.9-2.2-46.6-12.1
	c-16.8-13.1,23.3-14.2,0.3-31c-36.7-26.8-17.4-59.8,3.6-62.3c19.4-2.3,31,3.3,45.9-14.1c13.6-15.9,29.2-19.4,46.9-14.1
	c23.2,7,27.6,31.4,27.6,31.4L235.8,173.8z"/>
<g>
	<defs>
		<rect id="SVGID_4_" x="56.7" width="178.9" height="186.1"/>
	</defs>
	<clipPath id="SVGID_5_">
		<use xlink:href="#SVGID_4_"  style="overflow:visible;"/>
	</clipPath>
	<path class="st1" d="M292.9,37.4c-2.5,0.3-9.1-0.2-16,0.4c0.8-3,0.9-5.7,0.8-6.8c-0.1-1.6-6.4-6.6-8.1-8.1
		c-1.6-1.5,0.8-2.5,2.1-1.4c1.3,1.1,6,4.5,6,4.5l-2.6-21.6c0,0-8.4,8.9-14.2,18c-5.8,9.1-7.5,6.4-10.7,12.1s-7.1,19.2-7.1,27.4
		c0,4.8,0.9,12.2,1.8,17.7l-0.6,0.4c0,0-1.3-20.3-3.8-30.1c-2.4-9.8-10.9-24.7-16.4-30.5c-5.5-5.8-6.8-2.2-16.3-11.3
		c-9.5-9.1-22.1-17.2-22.1-17.2l3.2,26.4c0,0,4.6-5.4,5.8-7.1c1.2-1.7,4.4-1.2,2.9,1c-1.5,2.3-7.6,10-7.3,11.9
		c0.4,1.9,2.2,7.8,5.7,12c3.6,4.3,4.7,6.1,5.6,5.5c0.9-0.5,4.9-10.7,6.1-13.6c1.2-2.9,5.1-2.3,2.8,2.7c-2.3,5-6.5,12.8-5.8,14
		c0.7,1.2,11.2,10.4,19.5,12.6c8.3,2.2,11.8-0.6,14,2.9c1.2,1.9,2.6,13.2,3.6,22.7c-1.2-3.8-3-10-3.9-12.4
		c-1.2-3.5-2.5-3.8-10.7-8.9c-8.2-5.1-24.2,0.9-28.3,1.4c-4.1,0.5-11.7-0.8-11.7-0.8s0.7,2.7,1.8,5.9c1.2,3.1,4.7,7.1,6,7.4
		c1.3,0.3,0.6-0.3,2-1.6c1.3-1.3,2.4-2.9,2.6-4.5c0.3-1.6,2.1-2.3,2.2-0.7c0.1,1.6-0.6,4.6-1.1,6c-0.5,1.4-0.7,1.8,2.3,2.5
		c3,0.8,13.5,2.9,20.3,1.4c6.8-1.5,7.7-0.9,10.6-0.4c2.9,0.6,6.1,5.6,4.2,4.9c-0.8-0.3-2.8,0.5-5.1,1.6c-4.5,1.5-14.9,5.3-18.2,5.4
		c-3.4,0.1-6.8-2.1-5.3,5.1c1.5,7.2,7.7,10.1,9.1,10.5c1.4,0.4,3.1,0.2,3.7-0.5s0.1-5.2-0.2-7.3c-0.4-2.1,1.2-2.1,1.4-0.5
		c0.2,1.6,0.4,2.3,0.6,4.7c0.1,2.4,0.8,1.8,1.6,1.7c0.8-0.1,7.6-7.7,9.8-10.2c1.9-2.2,4.1-4.4,7.1-3.6c0.4,3.9,0.6,6.6,0.6,6.6
		l1.5-0.2l-0.2-5.4c3.4,3.4,6.6,18.1,6.6,18.1l4.3-0.5c0,0-3-5.6-5.8-11.4c-0.5-3.3-1.4-9.4-2.1-15.1c0.2,0,0.4,0,0.6,0
		c3.1,0.3,11.8,7.6,13.3,9.2c1.4,1.6,1.6,3,1.6,3l16.9-2c0,0-4.7-11.7-8.6-14c-3.9-2.3-16.9-6-18.9-4.6c-2,1.4,0.3-5.6,3.6-7.1
		c3.3-1.5,4.1-2.4,12.7-2.6c8.5-0.2,20.3-5.8,23.7-7.6c3.4-1.8,3.1-2.2,2-3.7c-1-1.5-2.7-4.9-3-6.8c-0.4-1.9,2-1.6,2.8,0.2
		c0.8,1.8,2.5,3.4,4.4,4.6c1.9,1.1,1.4,2,2.8,1.3c1.4-0.7,4.5-6.5,4.9-10.5c0.5-4.1,0.5-7.5,0.5-7.5S298,36.8,292.9,37.4z
		 M244.4,85.1c0,0,0.2-1.4,1-2.5c0.4,2.4,0.6,3.9,0.6,3.9l-1.6-0.7L244.4,85.1z M247.6,77.6l-0.6,0.4c-0.5-4.4-0.7-8-0.4-9.1
		c0.3-0.9,0.8-1.4,1.5-1.8C247.9,72.4,247.6,77.6,247.6,77.6z M263.5,40.8c-0.2-0.2-0.3-0.4-0.5-0.6c-2.8-3.5,0.2-4.8,1.7-2.7
		c0.4,0.5,0.9,1.3,1.6,2.2C265.3,40,264.4,40.4,263.5,40.8z"/>
	<g class="st2">
		<path class="st3" d="M187.6,61.7c1.3,0.2,7.8,1.2,11.5,0.8c4.1-0.5,20.1-6.5,28.3-1.4s9.5,5.4,10.7,8.9c0.2,0.5,0.4,1.1,0.6,1.8
			c-3.4-3.3-8.2-6.4-14.4-7c-13.9-1.4-16.7-0.1-25.5,0.5C193.4,65.6,189.7,63.5,187.6,61.7z"/>
		<path class="st3" d="M244.9,80c-0.8-5.5-1.8-13-1.8-17.7c0-8.2,3.8-21.7,7.1-27.4c3.3-5.7,4.9-3.1,10.7-12.1s14.2-18,14.2-18
			l1,8.6c-2.3,0.5-8.2,2.3-11.1,9c-3.6,8.3-7.5,19-12.1,23.6c-4.5,4.6-8.7,12.1-8.8,18.2C244.2,70.3,244.9,80,244.9,80z"/>
	</g>
	<g class="st2">
		<path class="st3" d="M306.3,33.5c-1.5,0.7-8.9,3.8-13.4,4.3c-5,0.6-25.8-1.9-34,6.6c-8.2,8.5-9.7,9.2-10.1,13.7
			c-0.1,0.6-0.1,1.4-0.2,2.3c3.1-4.9,7.9-9.9,15.1-12.5c16.2-5.7,19.8-5,30.4-6.8C300.5,39.8,304.3,36.2,306.3,33.5z"/>
		<path class="st3" d="M243.6,71.9c-0.6-6.7-1.7-15.9-3.1-21.6c-2.4-9.8-10.9-24.7-16.4-30.5c-5.5-5.8-6.8-2.2-16.3-11.3
			S185.7-8.7,185.7-8.7L187,1.8c2.8-0.1,10.4,0.4,15.8,7.4c6.7,8.9,14.5,20.4,21.2,24.5s13.9,11.9,15.7,19.1
			C241.5,60.2,243.6,71.9,243.6,71.9z"/>
	</g>
</g>
<g>
	<g>
		<polygon class="st4" points="112.7,216.4 109.4,266.5 111,266.5 118.4,215.3 112.8,215.3 		"/>
		<polygon class="st4" points="147.2,216.4 153.2,266.5 151.5,266.5 141.5,215.3 147.1,215.3 		"/>
		<path class="st5" d="M151,216.4h-42.1v-0.1c0-2.6,2.1-4.8,4.8-4.8h32.6c2.6,0,4.8,2.1,4.8,4.8V216.4z"/>
	</g>
	<g>
		<path class="st6" d="M102.1,184.2l-3.4-0.8l-8.3,1.4l-4.6,4.2l1.1,3.6l0,0c1.3-0.4,2.1-1.7,1.7-3l-0.1-0.3l1.5-1.2l-0.4,1.7
			l1.1,3.3l0,0c1.3-0.4,2.1-1.8,1.7-3.1l-0.3-0.8l0.6-0.9l1-0.3l7.8,1.9l1.5-0.4l0.5-0.9L102.1,184.2z"/>
		<polygon class="st6" points="61.7,254.4 52.6,250.9 55.9,242.7 65,246.2 		"/>
		<path class="st4" d="M50.7,242.2L38.3,245l-5.5-0.4c-1.2-0.1-2.3,0.6-2.8,1.7l-0.6,1.5l30.5,11.6l2.3-1.6l3.5-8.8l-1.5-0.3
			l-3.4,2.1l-4.2-1.6L50.7,242.2z"/>
		<path class="st3" d="M30.8,245.2c-0.4,0.3-0.7,0.7-0.9,1.1l-0.6,1.5l30.5,11.6l2.3-1.6l1.1-2.7l-2.3,1.6L30.8,245.2z"/>
		<g>
			<polygon class="st3" points="48.2,245.6 48.5,245 44.8,243.5 43.5,243.8 			"/>
			<polygon class="st3" points="50.9,244.2 47.5,242.9 46.2,243.2 50.6,244.9 			"/>
			<polygon class="st3" points="45.8,246.3 46.1,245.6 42.1,244.1 40.9,244.4 			"/>
		</g>
		<polygon class="st4" points="76.6,203.5 53.7,243.6 66.1,248.1 87.1,219.6 		"/>
		<polygon class="st6" points="112,248.4 102.8,251.6 99.7,243.3 108.9,240.1 		"/>
		<path class="st4" d="M95.4,246.2L88,256.3l-4.5,3.2c-1,0.7-1.4,2-0.9,3.1l0.6,1.5l30.8-10.8l0.6-2.7l-3.3-8.9l-1.3,0.7l-1.1,3.8
			l-4.2,1.5L95.4,246.2z"/>
		<path class="st3" d="M82.5,261.3c-0.1,0.5-0.1,0.9,0.1,1.4l0.6,1.5l30.8-10.8l0.6-2.7l-1-2.8l-0.6,2.7L82.5,261.3z"/>
		<g>
			<polygon class="st3" points="95.9,250.4 95.7,249.7 91.9,251 91.1,252.1 			"/>
			<polygon class="st3" points="96.9,247.6 93.5,248.8 92.7,249.9 97.2,248.3 			"/>
			<polygon class="st3" points="94.6,252.5 94.3,251.8 90.3,253.2 89.5,254.2 			"/>
		</g>
		<polygon class="st7" points="74.3,207.5 84,223.8 87.1,219.6 76.6,203.5 		"/>
		<path class="st4" d="M141.7,190.3v7.5c0,7.5-6.3,13.6-14,13.6H98.8c-1.8,0-2.9,1.8-2.1,3.4l13.7,25.9l-11.9,3.8l-21.9-37.1
			c-3-5.1,0.8-11.5,6.9-11.5l31.1-4.2l1.7-2.7v-3L141.7,190.3z"/>
		<g>
			<path class="st8" d="M123.2,125.6c-0.1-1-0.1-2-0.5-3c-0.2-0.4-0.4-0.8-0.6-1.2c-0.5-1.3-0.2-2.9-0.9-4.1c-0.8-1.6-2.3-3.9-4.4-4
				c-0.3,0-0.6,0-0.8-0.1c-0.2-0.1-0.3-0.2-0.4-0.3c-1-0.9-3.5-2.6-4.8-1.7c-0.2,0.1-0.4,0.3-0.6,0.4c-0.7,0.4-1.6,0-2.4-0.1
				c-1-0.1-2,0.5-2.5,1.3c-0.3,0.5-0.2,0.7-0.9,0.8c-0.5,0.1-1.1,0-1.6,0c-0.9,0-1.7,0.4-2.3,1c-0.5,0.4-0.8,1-1.1,1.5
				c-0.2,0.4-0.4,0.9-0.9,1.1c-0.3,0.1-0.7,0.1-1,0.2c-0.4,0.1-0.7,0.4-1,0.8c-1.2,1.7-3.2,3-3.4,5.2c-0.1,0.8,0.2,1.6,0.9,1.9
				c0.5,0.2,1.2,0.1,1.7-0.1c-0.3,0.3-0.7,0.6-0.7,1c0,0.6,0.9,1,1.4,1.3c0.8,0.3,1.7,0.2,2.4,0c1-0.3,2.1-0.9,3.2-0.9
				c0.3,0,0.6,0.1,0.9,0.1c2.2,0.4,4.1,1.5,6.2,2.4c2.2,0.8,4.4,1.6,6.7,2.3c0.9,0.3,1.8,0.6,2.7,0.6c0.5,0,1.1,0,1.6,0
				c0.7,0.1,1.7,0.7,2.4,0.6c0.6,0,1.1-1,1.3-1.6c0.3-0.8,0.2-1.7,0.2-2.5c0-0.5-0.1-1.1-0.3-1.6
				C123.6,126.4,123.2,126.2,123.2,125.6z"/>
		</g>
		<path class="st6" d="M127.6,135.6l-10,11.6c0,0,0-8.9-4.2-9.1l8-8.4L127.6,135.6z"/>
		<path class="st6" d="M97.7,125.1c0.6,1.9,1.2,3.6,1.9,5.2c0.5,1.1,0.6,5.4,2.4,6.8c0.1,0.1,2.2-1.5,2.3-1.4
			c0.2,0.2,1.5,1.5,2.8,2.7c1.4,1.3,3.6,1.5,5.3,0.5c4-2.5,10.8-6.8,10.9-6.6c0,0-9.9-14.9-9.9-14.9L97.7,125.1z"/>
		<g>
			<path class="st8" d="M123.5,132c0.2-0.4,0.1-0.8,0-1.2c-0.2-1.2-0.7-2.5-1-3.7c-0.4-1.4-0.9-2.7-1.5-4c-0.9-1.9-2.1-3.6-3.7-4.9
				c-1-0.8-2.1-1.4-3.3-2c-0.5-0.2-1-0.5-1.5-0.6c-1.1-0.3-2.3,0-3.5,0.3c-0.9,0.2-1.8,0.5-2.6,0.9c-1.2,0.7-2,1.9-3.3,2.3
				c-1.6,0.6-3.3,0.8-5,1.2c-1.5,0.4-1.6,2.2-1.5,3.5c0.1,0.7,0.2,1.3,0.6,1.9c0.3,0.5,0.7,1.1,1.2,1.4c0-0.1,0.1-0.2,0.1-0.3
				l0.4-0.2c1.6-0.3,2.9-1.5,4.4-2c1.8-0.5,3.7,0.2,5,1.5c0.7,0.7,1.2,1.6,1.6,2.5c0.2,0.5,0.3,1,0.5,1.4c0,0.1,0.1,0.7,0.2,0.7
				c0.1,0.1,0.6,0,0.8,0c0.2,0,0.5-0.1,0.7-0.3c0.2-0.2,0.1-0.6,0.1-0.9c-0.2-1.5-0.6-3.2-0.2-4.7c0.4-1.2,1.9-1.6,3-1.3
				c0.5,0.1,1,0.5,1.2,0.9c0.3,0.5,0.1,1.2-0.1,1.7c-0.4,1.1-0.9,2.1-1.3,3.2c-0.1,0.2-0.1,0.4-0.1,0.6c0.1,0.1,0.2,0.2,0.4,0.3
				c0.4,0.2,0.8,0.4,1.2,0.5c0.7,0.2,1.6,0.2,2.3,0.1c0.3,0,0.6-0.1,0.9-0.1c0.2,0,0.3-0.1,0.5-0.1c0.3-0.1,0.4-0.3,0.7,0
				c0.2,0.2,0.4,0.5,0.4,0.8c0,0.3-0.1,0.5-0.1,0.8c0,0,0,0.1,0,0.1c0,0,0.1,0,0.1,0c0.4,0,0.8,0.1,1.1,0.1
				C122.8,132.7,123.2,132.5,123.5,132C123.5,132.1,123.5,132.1,123.5,132z"/>
		</g>
		<path class="st3" d="M127.6,135.6l9.5,5c1.1,0.6,2,1.5,2.5,2.5l3.5,7c1.5,3,2.2,6.4,2,9.7c-0.4,6.3-0.7,12.5-1,18.8
			c-0.2,4.6-0.5,9.2-0.7,13.9c-0.1,1.7-0.2,3.4-0.3,5.2c0,0.6,0.2,2.4-0.2,2.9c0,0.1,0,0.3,0,0.4c-9.7,7.6-20.1-11.1-29.6-9.2
			c-0.1,0,0-4.4,0-5c0-0.8,0-1.6,0.1-2.4c0.1-1.2,0.3-2.5,0.3-3.7c0.1-2.6,0.2-5.1,0.3-7.7c0-0.7-0.2-1.4-0.2-2.1
			c-0.1-0.6,0-1-0.1-1.6c-0.4-1.2-0.2-2.5-0.1-3.7c0.1-0.7,0.3-1.5,0.2-2.2c-0.1-0.6-0.2-1.2-0.2-1.8c0-1.4,0.3-2.8,0.4-4.3
			c0.1-1.1,0.1-2.1,0.2-3.2c0.1-1,0.5-2.1,0.8-3.1c0.7-2.1,1.6-4.2,3.2-5.8C118.3,145.1,127.6,135.6,127.6,135.6z"/>
		<path class="st7" d="M136.7,184c2.6-0.3,4.5-2.6,4.3-5.1l-2.6-31.6h-13.6l2.8,29.1l-13.9,4.8c-0.1,1-0.2,2.1-0.3,3.1
			c-0.1,0.8,0,1.6-0.1,2.4c0,0.3,0,1.3,0,2.4L136.7,184z"/>
		<path class="st3" d="M124.8,145.9l2.8,29.1l-25.5,8.8l0.7,6.1l33.9-7.3c2.6-0.3,4.5-2.6,4.3-5.1l-2.6-31.6H124.8z"/>
		<g>
			<path class="st9" d="M79.1,194.3L79.1,194.3c-0.5,0.3-1.1,0.2-1.5-0.2l-15.3-20.2c-0.3-0.5-0.2-1.1,0.2-1.4l0,0
				c0.5-0.3,1.1-0.2,1.5,0.2l15.3,20.2C79.7,193.4,79.6,194,79.1,194.3z"/>
			<path class="st9" d="M111.9,192.6l-34.8,4.1c-0.8,0.1-1.6-0.5-1.7-1.3l0,0c-0.1-0.8,0.5-1.5,1.3-1.6l34.8-4.1
				c0.8-0.1,1.6,0.5,1.7,1.3l0,0C113.3,191.8,112.7,192.5,111.9,192.6z"/>
			<g>
				<path class="st10" d="M113.1,190.5c-0.2,0.4-0.7,0.8-1.3,0.8l-34.8,4.1c-0.7,0.1-1.2-0.2-1.5-0.6c-0.1,0.2-0.1,0.4-0.1,0.6
					c0.1,0.8,0.8,1.4,1.7,1.3l34.8-4.1c0.8-0.1,1.4-0.8,1.3-1.6C113.2,190.8,113.1,190.6,113.1,190.5z"/>
			</g>
			<g>
				<polygon class="st11" points="103.5,192.5 100.8,192.8 100.6,191.8 103.4,191.4 				"/>
			</g>
			<g>
				<polygon class="st11" points="106.8,192.1 104,192.4 103.9,191.4 106.6,191 				"/>
			</g>
			<g>
				<polygon class="st11" points="83.7,194.8 80.9,195.1 80.8,194.1 83.6,193.8 				"/>
			</g>
		</g>
		<polygon class="st4" points="118.3,145.1 120.2,149.6 127.6,135.6 		"/>
		<polygon class="st4" points="118.3,145.1 117.1,148.6 117,142.6 		"/>
	</g>
</g>
<linearGradient id="XMLID_2_" gradientUnits="userSpaceOnUse" x1="-5.1681" y1="89.9644" x2="20.4303" y2="89.9644" gradientTransform="matrix(-1 0 0 1 153.8047 0)">
	<stop  offset="0" style="stop-color:#FF3EFF"/>
	<stop  offset="5.086005e-02" style="stop-color:#FF40F2"/>
	<stop  offset="0.3993" style="stop-color:#FF4C9D"/>
	<stop  offset="0.6843" style="stop-color:#FF565F"/>
	<stop  offset="0.8916" style="stop-color:#FF5C38"/>
	<stop  offset="1" style="stop-color:#FF5E2A"/>
</linearGradient>
<path id="XMLID_1117_" class="st12" d="M133.4,81.5v10.7c0,1.4,1.1,2.5,2.5,2.5h1.1v2.5v3.3c0,0.3,0.3,0.4,0.5,0.2l6.2-6h12.8
	c1.4,0,2.5-1.1,2.5-2.5V81.5c0-1.4-1.1-2.5-2.5-2.5h-20.7C134.5,79.1,133.4,80.2,133.4,81.5z"/>
<g>
	<path class="st3" d="M143.5,87.8v1.3l-3.9-1.8v-1.2l3.9-1.8v1.3l-2.6,1.1L143.5,87.8z"/>
	<path class="st3" d="M146.4,82.8h1.5l-2.7,8h-1.5L146.4,82.8z"/>
	<path class="st3" d="M150.8,86.7l-2.6-1.1v-1.3l3.9,1.8v1.2l-3.9,1.8v-1.3L150.8,86.7z"/>
</g>
<g>
	<rect x="184.6" y="251.8" class="st6" width="8.3" height="8.3"/>
	<rect x="194.6" y="251.8" class="st6" width="8.3" height="8.3"/>
	<polygon class="st3" points="182,167.1 182,213.4 184.2,257.3 193.2,257.3 193.2,170 	"/>
	<polygon class="st13" points="182,167.1 182,167.7 188.3,177.7 190,222.6 192.8,257.3 193.2,257.3 193.2,170 	"/>
	<path class="st3" d="M210.1,164.7v10.4c0,4.5-1,5.9-2.9,10l-0.5,1.1l-1.5,36.5l-1.1,34.6h-9.5l-2.8-34.6l-2.9-46.1l-6.9-9.4v-5
		L210.1,164.7z"/>
	<polygon class="st3" points="158.7,118.7 162.6,112.7 184.2,137.2 175.4,136.8 	"/>
	<g>
		<linearGradient id="SVGID_6_" gradientUnits="userSpaceOnUse" x1="206.3809" y1="97.8356" x2="217.0591" y2="97.8356">
			<stop  offset="0" style="stop-color:#FF5617"/>
			<stop  offset="0.2237" style="stop-color:#FF7628"/>
			<stop  offset="0.5704" style="stop-color:#FFA141"/>
			<stop  offset="0.8409" style="stop-color:#FFBC50"/>
			<stop  offset="1" style="stop-color:#FFC655"/>
		</linearGradient>
		<path class="st14" d="M211.9,98.7c-1.5-3.4-1.6-7.4-0.4-11l0-0.3c-0.5,1.7-1,3.3-1.5,5c-0.2,0.8-0.5,1.7-0.9,2.4
			c-0.4,0.7-1,1.3-1.4,2c-1,1.6-1.4,3.5-1.1,5.3c0.1,0.6,0.3,1.3,0.7,1.8c0.6,0.9,1.6,1.4,2.6,1.8c2.4,1.1,4.8,1.9,7.4,2.5
			C215.9,104.8,213.3,102,211.9,98.7z"/>
	</g>
	<path class="st6" d="M168.3,130.3l-2.6-1.3c-0.7-0.3-1-1.2-0.6-1.8l0.2-0.5l3.8,1.9L168.3,130.3z"/>
	<path class="st4" d="M184.2,137.2l9.9-33.1l-6.3,2.1c-0.8,0.4-1.4,1.1-1.7,2l-8,22L184.2,137.2z"/>
	<path class="st6" d="M170.8,127.8l-2.4,1.1l-1.5,1.8c-0.3,0.4-0.4,1-0.1,1.5l0.5,0.8l1,1.8l1.1,1.2l1.3,0.9l2.8,0.8l3.4-3.4
		l-2.5-2.3l-2.4-3.8C171.8,127.7,171.3,127.6,170.8,127.8z"/>
	<path class="st4" d="M194.1,105.1l-10.4,17.3c-1.9,2.9-2.6,6.3-2.1,9.7l1.7,10.9l-3.3,24.2h32.7l-2.6-26l1.6-37.4l-14.9,1.8
		L194.1,105.1z"/>
	<g>
		<path class="st4" d="M167.7,265.6h27.8v-4.6l-2.5-3.2h-13l-9.3,1.9c-1.7,0.4-3,1.9-3,3.7V265.6z"/>
		
			<rect x="166.9" y="263.6" transform="matrix(-1 -1.224647e-16 1.224647e-16 -1 363.2859 529.2413)" class="st4" width="29.5" height="2"/>
		<path class="st13" d="M203.1,263.6v-2.5l-2.5-3.2h-13l-9.3,1.9c-1.7,0.4-3,1.9-3,3.7v0.2h-0.8v2h0.8h27.8h1v-2H203.1z"/>
		<path class="st4" d="M177.7,265.6h27.8v-4.6l-2.5-3.2h-13l-9.3,1.9c-1.7,0.4-3,1.9-3,3.7V265.6z"/>
		
			<rect x="176.9" y="263.6" transform="matrix(-1 -1.224647e-16 1.224647e-16 -1 383.3688 529.2413)" class="st4" width="29.5" height="2"/>
	</g>
	<path class="st15" d="M194.1,135.4C194.1,135.4,194.1,135.4,194.1,135.4C194,135.4,193.9,135.4,194.1,135.4z M206.3,143.7
		c0.7-0.2,0.7-1.2,0-1.4c-1-0.8,0.4-1.5-0.5-2.3c0.6-0.1,0.7-1.1,0.2-1.3c-0.4-0.2-0.7-0.4-0.8-0.5c3.3-0.5,0.2-1.4,0.8-6.8
		c0-0.4-0.7-1.1-0.6-1.4c0-0.1,0.5,0.6,0.8-0.4c1-3.2,3.1-6.2,4.1-9.6c0.3-0.9-1.1-1.3-1.4-0.4c-0.9,3.2-1.8,8.3-5.2,9.9
		c-0.5,0.2-1.6,1.7-1.1,2c-0.2-0.1,2.2,3.6,1.6,4.3c-0.9,1.2-2.2,1.1-3.5,1.3c-0.6,0.1-5.5-1.3-6.3-1.5c0.5,0.3,4.6,3.9,7.1,3.5
		c-0.4,0.1-1.8,0.8-0.4,1c1.6,0.3,1.9,2.3,3.1,2.9c-0.4,0.2-0.5,0.8-0.1,1.1c1.1,0.9,1,2.5,2,3.4
		C206.8,148.4,204.9,144.1,206.3,143.7z"/>
	<path class="st15" d="M185.8,141.6c0.5-1.7-0.5-2-0.8-3.8c0-0.1-0.1-0.3-0.1-0.4c1.4-0.4-0.5-0.8,2-1.2c0.9-0.1,3.1-1.3,2.1-1.3
		c-2.2,0.1-4.3-0.3-6.3-1.2c0,0,0,0-0.1,0c-0.2-0.3-0.4-0.7-0.5-1c-0.1-0.3-0.3-0.4-0.5-0.5l0.6,3.8c0,0,0,0,0.1,0
		c0,0.1,0,0.1,0,0.2l0.1,0.7c0.1,0.2,0.2,0.3,0.3,0.4c0.2,0.2,0.4,0.3,0.6,0.3c0.6,1.6,0.4,3.5,0,5.1l0,0.1
		C183.3,142.9,185.6,142.4,185.8,141.6z"/>
	<path class="st16" d="M205.4,134.2l-1.3,5.5l-18.8-0.7l-2.9-1.5l0.8,5.4l-0.2,1.3l0.2-0.1l21.5,4.6c2.2,0.5,4.3-0.1,6-1.3l-0.6-6.2
		l0.2-5.3L205.4,134.2z"/>
	<path class="st6" d="M205.4,133l-1.3,5.5l-18.8-0.7l-6.3-3.3l-3.7-2.6v0.7c0,1,0.5,2,1.3,2.7l0.3,0.3l-1.6,1.3l-0.9,0.7
		c-0.8,0.6-1.1,1.8-0.7,2.7l0.6,1.3c0.7,1.4,2.1,2.3,3.6,2.3h3.4l1.9-0.9l21.5,4.6c3.5,0.8,7.1-1.2,8.4-4.5l2.5-6.5L205.4,133z"/>
	<polygon class="st13" points="205,134.7 215.1,138 215.7,136.4 205.4,133 	"/>
	<path class="st4" d="M210.5,102.6l7.6,7c2.7,2.5,3.8,6.1,3,9.7l-4,17.5l-13-4.3l3.1-12.9l-0.8-12.8L210.5,102.6z"/>
	<g>
		<linearGradient id="SVGID_7_" gradientUnits="userSpaceOnUse" x1="185.3512" y1="93.9095" x2="198.2284" y2="93.9095">
			<stop  offset="0" style="stop-color:#FF5617"/>
			<stop  offset="0.2237" style="stop-color:#FF7628"/>
			<stop  offset="0.5704" style="stop-color:#FFA141"/>
			<stop  offset="0.8409" style="stop-color:#FFBC50"/>
			<stop  offset="1" style="stop-color:#FFC655"/>
		</linearGradient>
		<path class="st17" d="M198.2,94.5c0-1.6-0.2-3.1-0.2-4.6c-0.1-1.6,0.3-3.2,0.2-4.9c-0.1-3.1-0.8-6.2-1.9-9.1
			c-0.1-0.2-0.2-0.5-0.4-0.6c-0.2-0.1-0.5-0.2-0.8-0.2c-1.2,0-2.5,0-3.4,0.7c-0.8,0.6-1.2,1.7-1.5,2.7c-0.7,2-2,4.7-2.1,6.9
			c0,2,1,4.2,1.4,6.1c0.7,3.1,0.3,6.3,0.7,9.5c0.2,1.6,0.5,3.2,0.2,4.8c-0.3,1.4-1.5,2.6-2.4,3.6c-0.1,0.1-0.1,0.1-0.2,0.2
			c-0.1,0.1-0.3,0.1-0.4,0.1c-0.9,0.1-1.7,0.6-2.1,1.4c0.3,0.5,1.1,0.5,1.7,0.3c0.6-0.2,1.2-0.5,1.8-0.3c0,0.4-0.6,0.7-0.5,1.2
			c0.1,0.3,0.4,0.4,0.7,0.4c1.8,0.2,2-0.6,2.6-1.9c0.9-1.9,0.6,1.4,0.5,2c0.5-0.1,0.9-0.5,1.2-0.9c0.3-0.4,0.5-0.9,0.7-1.3
			c0.6-1,1.5-1.9,2.1-2.9c1.4-2.5,2-4.8,2.1-7.6C198.1,98.2,198.2,96.3,198.2,94.5z"/>
	</g>
	<path class="st6" d="M202.1,110.7h-1.4c-2.2,0-3.9-1.7-3.9-3.9v-13h9.2v13C206,108.9,204.3,110.7,202.1,110.7z"/>
	<polygon class="st13" points="206,100.5 196.8,103.5 196.8,93.7 206,93.7 	"/>
	<path class="st6" d="M190.5,85.7v5.4c0,0.7,0.2,1.4,0.5,2l4.2,7.5c0.4,0.7,1.1,1.1,1.8,1.1h2.2c0.5,0,1-0.2,1.4-0.6l4.8-4.4
		c0.8-0.7,1.2-1.7,1.2-2.8V81.9c0,0-4.5-4.7-10.8-3.1C192.7,79.6,190.5,82.4,190.5,85.7z"/>
	<path class="st3" d="M194.1,95.9h6.4C200.5,95.9,197.6,101.6,194.1,95.9z"/>
	<g>
		<linearGradient id="SVGID_8_" gradientUnits="userSpaceOnUse" x1="191.6686" y1="93.1931" x2="212.1889" y2="93.1931">
			<stop  offset="0" style="stop-color:#FF5617"/>
			<stop  offset="0.2237" style="stop-color:#FF7628"/>
			<stop  offset="0.5704" style="stop-color:#FFA141"/>
			<stop  offset="0.8409" style="stop-color:#FFBC50"/>
			<stop  offset="1" style="stop-color:#FFC655"/>
		</linearGradient>
		<path class="st18" d="M194.1,74.4c0.9-0.4,1.9-0.4,2.9-0.6c1.1-0.2,2.1-0.7,3.2-1c2.6-0.5,5.3,0.7,7.2,2.6
			c1.8,1.9,2.9,4.5,3.5,7.1c1.3,4.7,1.5,9.6,0.8,14.3c-0.3,2.1-1.2,4.2-1.4,6.4c-0.2,2-0.7,3-2,4.5c-0.8,0.9-1.6,1.9-2.4,2.8
			c-0.6,0.7-1.2,1.5-2,2c-0.6,0.4-1.4,0.5-1.9,1c-0.5-0.5-0.4-1.3-0.3-1.9c0.2-0.6,0.5-1.3,0.5-1.9c-0.4,0.7-1.2,1.3-2,1.3
			c-0.3,0-1,0.1-1.1-0.3c-0.1-0.5,0.4-0.4,0.6-0.6c0.1-0.1,0.1-0.2,0.1-0.2c0-0.3,0-0.6,0-0.8c-0.7,0.3-1.6,0.4-2.4,0.2
			c1.4-1.1,2.8-2.2,4.2-3.3c2-1.5,3-4.6,3.6-7c0.5-2.3,0.9-4.6,1-6.9c0.1-1.1,0-2.1-0.2-3.2c-0.2-1.1-0.1-2.3-0.3-3.4
			c-0.1-0.3-0.2-0.7-0.4-1c-0.4-0.5-1-0.8-1.6-1c-2-0.7-4-1.5-6.2-1.7c-1-0.1-2-0.2-3-0.4c-1-0.2-1.9-0.7-2.5-1.6
			C190.9,78.1,192.4,75.3,194.1,74.4z"/>
	</g>
</g>
<g>
	
		<image style="overflow:visible;opacity:0.15;" width="422" height="434" xlink:href="F74E36C58DE267DD.png"  transform="matrix(0.24 0 0 0.24 -8.215 80.6016)">
	</image>
	<g>
		<g>
			<path id="XMLID_65_" class="st3" d="M68,162.7H2.9c-1.6,0-2.9-1.3-2.9-2.9V91.7c0-1.6,1.3-2.9,2.9-2.9H68c1.6,0,2.9,1.3,2.9,2.9
				v68.2C70.9,161.5,69.6,162.7,68,162.7z"/>
			<linearGradient id="XMLID_8_" gradientUnits="userSpaceOnUse" x1="0" y1="93.3021" x2="70.8535" y2="93.3021">
				<stop  offset="0" style="stop-color:#FF3EFF"/>
				<stop  offset="5.086005e-02" style="stop-color:#FF40F2"/>
				<stop  offset="0.3993" style="stop-color:#FF4C9D"/>
				<stop  offset="0.6843" style="stop-color:#FF565F"/>
				<stop  offset="0.8916" style="stop-color:#FF5C38"/>
				<stop  offset="1" style="stop-color:#FF5E2A"/>
			</linearGradient>
			<path id="XMLID_64_" class="st19" d="M70.9,97.8v-6.6c0-1.4-1.1-2.5-2.5-2.5H2.5c-1.4,0-2.5,1.1-2.5,2.5v6.6H70.9z"/>
			<path id="XMLID_63_" class="st3" d="M6.1,93.3c0,0.4-0.3,0.8-0.8,0.8c-0.4,0-0.8-0.3-0.8-0.8c0-0.4,0.3-0.8,0.8-0.8
				C5.8,92.5,6.1,92.9,6.1,93.3z"/>
			<path id="XMLID_62_" class="st3" d="M9.6,93.3c0,0.4-0.3,0.8-0.8,0.8c-0.4,0-0.8-0.3-0.8-0.8c0-0.4,0.3-0.8,0.8-0.8
				C9.3,92.5,9.6,92.9,9.6,93.3z"/>
			<path id="XMLID_61_" class="st3" d="M13.1,93.3c0,0.4-0.3,0.8-0.8,0.8c-0.4,0-0.8-0.3-0.8-0.8c0-0.4,0.3-0.8,0.8-0.8
				C12.7,92.5,13.1,92.9,13.1,93.3z"/>
			<path class="st20" d="M20.4,131.4c0,3.5-2.8,6.3-6.3,6.3c-3.5,0-6.3-2.8-6.3-6.3c0-3.5,2.8-6.3,6.3-6.3
				C17.6,125.1,20.4,127.9,20.4,131.4z"/>
			<circle class="st20" cx="14.1" cy="148.6" r="6.3"/>
			<rect x="27.8" y="127.3" class="st21" width="35.2" height="1.3"/>
			<rect x="27.8" y="132.5" class="st21" width="19.4" height="1.3"/>
			<path class="st20" d="M20.4,114.4c0,3.5-2.8,6.3-6.3,6.3c-3.5,0-6.3-2.8-6.3-6.3c0-3.5,2.8-6.3,6.3-6.3
				C17.6,108.1,20.4,110.9,20.4,114.4z"/>
			<rect x="27.8" y="110.4" class="st21" width="35.2" height="1.3"/>
			<rect x="27.8" y="115.5" class="st21" width="19.4" height="1.3"/>
			<rect x="27.8" y="144.7" class="st21" width="35.2" height="1.3"/>
			<rect x="27.8" y="149.9" class="st21" width="19.4" height="1.3"/>
		</g>
	</g>
</g>
<g>
	
		<image style="overflow:visible;opacity:0.15;" width="193" height="158" xlink:href="F74E36C58DE267DF.png"  transform="matrix(0.24 0 0 0.24 51.305 96.6816)">
	</image>
	<g>
		<g>
			<g>
				<path class="st3" d="M82.4,121.4H58.3c-1.1,0-2-0.9-2-2v-15.5c0-1.1,0.9-2,2-2h24.1c1.1,0,2,0.9,2,2v15.5
					C84.4,120.5,83.5,121.4,82.4,121.4z"/>
				<g>
					<rect x="58.4" y="103.8" class="st20" width="23.9" height="14.9"/>
				</g>
				<g>
					<polygon class="st0" points="62.1,109.3 58.4,114.6 58.4,118.7 67.9,118.7 					"/>
				</g>
				<g>
					<polygon class="st3" points="62.7,112 63,112.6 63.6,111.7 62.1,109.3 60.4,111.7 61,112.6 61.4,112 62,113.1 					"/>
				</g>
				<g>
					<polygon class="st0" points="66.6,116.6 69.4,112.5 73.3,118.7 67.9,118.7 					"/>
				</g>
				<path class="st22" d="M77.9,108.8c0,1.5-1.2,2.6-2.6,2.6s-2.6-1.2-2.6-2.6s1.2-2.6,2.6-2.6S77.9,107.4,77.9,108.8z"/>
				<g>
					<polygon class="st3" points="70,115.2 70.4,115.8 70.9,114.9 69.4,112.5 67.8,114.9 68.3,115.8 68.7,115.2 69.3,116.3 					"/>
				</g>
			</g>
		</g>
	</g>
</g>
<g>
	
		<image style="overflow:visible;opacity:0.15;" width="205" height="187" xlink:href="F74E36C58DE267DA.png"  transform="matrix(0.24 0 0 0.24 14.825 152.8416)">
	</image>
	<g>
		<g>
			<path class="st3" d="M47.1,184.7H23.7c-2,0-3.7-1.6-3.7-3.7v-19.5c0-2,1.6-3.7,3.7-3.7h23.4c2,0,3.7,1.6,3.7,3.7V181
				C50.8,183,49.2,184.7,47.1,184.7z"/>
			<linearGradient id="SVGID_9_" gradientUnits="userSpaceOnUse" x1="20.0475" y1="160.5899" x2="50.8061" y2="160.5899">
				<stop  offset="0" style="stop-color:#FF3EFF"/>
				<stop  offset="5.086005e-02" style="stop-color:#FF40F2"/>
				<stop  offset="0.3993" style="stop-color:#FF4C9D"/>
				<stop  offset="0.6843" style="stop-color:#FF565F"/>
				<stop  offset="0.8916" style="stop-color:#FF5C38"/>
				<stop  offset="1" style="stop-color:#FF5E2A"/>
			</linearGradient>
			<path class="st23" d="M48.2,157.9H22.6c-1.4,0-2.6,1.1-2.6,2.6v2.9h30.8v-2.9C50.8,159,49.7,157.9,48.2,157.9z"/>
			<circle class="st3" cx="23.5" cy="160.6" r="0.5"/>
			<circle class="st3" cx="25.5" cy="160.6" r="0.5"/>
			<circle class="st3" cx="25.5" cy="160.6" r="0.5"/>
			<path class="st3" d="M28.1,160.6c0,0.3-0.2,0.5-0.5,0.5c-0.3,0-0.5-0.2-0.5-0.5s0.2-0.5,0.5-0.5
				C27.8,160.1,28.1,160.3,28.1,160.6z"/>
			<g>
				<polygon class="st24" points="33.6,173 30,175 30.8,183.7 39.4,183.7 40.7,175.2 36.7,173 				"/>
				<polygon class="st6" points="36.7,173.1 35.1,176 33.6,173.1 33.6,171.1 36.7,171.1 				"/>
				<g>
					<path class="st4" d="M38.1,166.8c0-0.1-0.1-0.3-0.2-0.4c-0.1-0.3-0.3-0.5-0.4-0.8c-0.2-0.5-0.5-0.4-0.9-0.5
						c-0.4-0.1-0.7-0.4-1.1-0.4c-0.3,0-0.5,0.1-0.7,0.2c-0.1,0-0.2,0.1-0.3,0.1c-0.2,0-0.4,0-0.5,0c-0.4,0-0.8,0.3-0.9,0.7
						c0,0.1,0,0.1-0.1,0.2c0,0.1-0.1,0.1-0.1,0.1c-0.5,0.5-0.2,1.4-0.1,2c0,0.4,0,0.7,0.3,1l-0.1,0c0.4,0.4,0.8,0.6,1.3,0.6
						c0.5,0.1,1,0.1,1.5,0.1c0.6,0,1.2,0,1.8,0c0.1,0,0.2,0,0.3-0.1c0.1-0.1,0.1-0.2,0.1-0.4c0.1-0.7,0-1.4,0.1-2.1
						C38.1,167.2,38.1,167,38.1,166.8z"/>
				</g>
				<path class="st13" d="M33.6,172.2L34,173c0.3,0.5,0.8,0.8,1.4,0.8c0.5,0,1-0.2,1.3-0.7v-2.1h-3.2V172.2z"/>
				<path class="st6" d="M33.3,167.9v2.4c0,0.5,0.1,1.1,0.4,1.5l0.5,0.8c0.3,0.5,0.8,0.8,1.4,0.8l0,0c0.6,0,1.1-0.3,1.4-0.8l0.1-0.2
					c0.3-0.5,0.4-1,0.4-1.6v-2.3v-2.1h-4.2L33.3,167.9z"/>
				<path class="st6" d="M33.3,170.6l-0.5-0.3c0,0-0.5-0.7-0.3-1.3c0,0,0.2-0.4,0.5-0.2l0.5,0.5L33.3,170.6z"/>
				<path class="st6" d="M37.4,170.6l0.5-0.3c0,0,0.5-0.7,0.3-1.3c0,0-0.2-0.4-0.5-0.2l-0.5,0.5L37.4,170.6z"/>
				<g>
					<path class="st4" d="M33.2,168.3c0,0.4,0.1,0.8,0.1,1.1c0,0.1-0.1,0.6,0.3,0.5c0.1,0,0.1-0.1,0.1-0.2c0-0.4-0.3-0.7-0.1-1
						c0.1-0.2,0.4-0.4,0.5-0.7c0-0.2-0.1-0.4-0.1-0.6c0-0.2,0-0.3,0.1-0.4c0.1-0.1,0.3-0.2,0.4-0.1c0.1,0.1,0.2,0.2,0.3,0.3
						c0.3,0.2,0.7,0.3,1,0.2c0.2-0.1,0.4-0.2,0.6-0.3c0.2-0.1,0.4-0.2,0.6-0.1c0.3,0.1,0.4,0.4,0.5,0.7c0.1,0.3,0.1,0.7,0.1,1
						c0,0.3-0.2,0.5-0.2,0.8c0,0.1,0,0.1,0,0.2c0,0.1,0.1,0.2,0.1,0.3c0,0,0,0,0,0c0,0,0.1,0,0.1,0c0.2-0.2,0.2-0.4,0.3-0.6
						c0.1-0.3,0.2-0.5,0.1-0.8c-0.1-0.6,0-1.3-0.1-1.9c0-0.1,0-0.1-0.1-0.2c0-0.1-0.1-0.1-0.2-0.1c-0.9-0.3-1.9-0.3-2.9-0.2
						c-0.3,0-0.7,0-1,0.2c-0.3,0.2-0.5,0.6-0.6,1C33.1,167.5,33.1,167.9,33.2,168.3z"/>
				</g>
				<path class="st6" d="M24.9,180.1l-0.1-0.4l-4.2-2.7l0,0c0.2-0.2,0.6-0.3,0.9-0.1l0.8,0.5l0.3-0.1c0.2-0.1,0.5,0,0.7,0.1l0.4,0.3
					l1.4,0.4c0.4,0.1,0.7,0.4,0.8,0.8l0.3,0.8L24.9,180.1z"/>
				<path class="st6" d="M45.4,180.1l0.1-0.4l4.2-2.7l0,0c-0.2-0.2-0.6-0.3-0.9-0.1l-0.8,0.5l-0.3-0.1c-0.2-0.1-0.5,0-0.7,0.1
					l-0.4,0.3l-1.4,0.4c-0.4,0.1-0.7,0.4-0.8,0.8l-0.3,0.8L45.4,180.1z"/>
				<path class="st24" d="M33.6,173l-4.2,2.3c-0.7,0.4-1.2,1.2-1.3,2l-0.3,4.5l-1.3-2.2l-1.8,0.5l1.6,3.5l3.5-0.1l1-4.8l2.9-4.3V173
					z"/>
				<path class="st24" d="M36.7,173l4.2,2.3c0.7,0.4,1.2,1.2,1.3,2l0.3,4.5l1.3-2.2l1.8,0.5l-1.6,3.5l-3.5-0.1l-1-4.9l-2.9-4.3V173z
					"/>
				<polygon class="st3" points="33.6,173 32.6,173.5 33.7,177.4 35.1,176 				"/>
				<polygon class="st3" points="36.7,173 37.7,173.5 36.6,177.4 35.1,176 				"/>
				<g>
					<path class="st4" d="M34.5,171.3c-0.1,0.1-0.1,0.2-0.1,0.4c-0.1,0.1-0.2,0.2-0.3,0.2c-0.1,0-0.2-0.2-0.2-0.4
						c-0.1-0.4,0.1-0.8-0.1-1.2c0-0.1-0.1-0.2-0.1-0.3c0-0.1,0-0.2,0-0.3c0-0.1-0.1-0.2-0.2-0.2c-0.1,0-0.2,0.1-0.2,0.2
						c0,0.1,0,0.2,0,0.3c0.1,0.4,0.1,0.9,0.1,1.3c0,0.4,0.1,0.9,0.3,1.3c0,0.1,0.1,0.3,0.2,0.4c0.2,0.3,0.6,0.5,0.9,0.6
						c0.4,0.1,0.8,0.1,1.1,0.1c0.3,0,0.5,0,0.7-0.1c0.7-0.3,0.9-1.6,1-2.2c0-0.3,0-0.5,0-0.8c0-0.3,0.1-0.7,0.1-1c0,0,0-0.1,0-0.1
						c0,0-0.1,0-0.1-0.1c-0.1,0.1-0.2,0.2-0.3,0.4c0,0.1,0,0.1,0,0.2c0,0.3,0,0.5-0.1,0.8c-0.1,0.3-0.2,0.6-0.2,0.9
						c0,0.1-0.1,0.3-0.2,0.4c-0.1,0-0.2-0.1-0.3-0.2c0-0.1,0-0.2,0-0.3c0-0.1,0-0.2-0.1-0.3c-0.1-0.1-0.3-0.1-0.4-0.2
						C35.5,170.9,34.8,170.7,34.5,171.3z"/>
				</g>
				<path class="st6" d="M34.6,171.6h0.3c0.1,0,0.2,0,0.3-0.1l0.2-0.2l0.2,0.2c0.1,0.1,0.2,0.1,0.3,0.1h0.3c0,0,0,0.9-0.9,0.9
					C34.7,172.5,34.8,172.1,34.6,171.6z"/>
				<polygon class="st3" points="24.6,180.2 26.4,179.7 26.9,180.4 25,181 				"/>
				<polygon class="st3" points="45.7,180.2 43.9,179.7 43.5,180.4 45.4,181 				"/>
			</g>
			<g>
				<circle class="st25" cx="24.4" cy="167.4" r="1.7"/>
				<polygon class="st3" points="24.8,167.4 23.9,168 23.9,166.9 				"/>
			</g>
		</g>
	</g>
</g>
</svg>
