<svg xmlns="http://www.w3.org/2000/svg" width="100.062" height="67.97" viewBox="0 0 100.062 67.97">
  <metadata><?xpacket begin="﻿" id="W5M0MpCehiHzreSzNTczkc9d"?>
<x:xmpmeta xmlns:x="adobe:ns:meta/" x:xmptk="Adobe XMP Core 5.6-c140 79.160451, 2017/05/06-01:08:21        ">
   <rdf:RDF xmlns:rdf="http://www.w3.org/1999/02/22-rdf-syntax-ns#">
      <rdf:Description rdf:about=""/>
   </rdf:RDF>
</x:xmpmeta>
                                                                                                    
                                                                                                    
                                                                                                    
                                                                                                    
                                                                                                    
                                                                                                    
                                                                                                    
                                                                                                    
                                                                                                    
                                                                                                    
                                                                                                    
                                                                                                    
                                                                                                    
                                                                                                    
                                                                                                    
                                                                                                    
                                                                                                    
                                                                                                    
                                                                                                    
                                                                                                    
                           
<?xpacket end="w"?></metadata>
<defs>
    <style>
      .cls-1 {
        fill: #f8f9ff;
        fill-rule: evenodd;
      }
    </style>
  </defs>
  <path id="_копия_2" data-name=",, копия 2" class="cls-1" d="M498.44,2697.15q0,18.825,18.3,18.83,10.842,0,18.071-6.89a23.061,23.061,0,0,0,7.228-17.45q0-7.35-4.518-11.25t-13.1-3.91a20.743,20.743,0,0,0-15.811,7.12,31.516,31.516,0,0,1,7.792-18.71,46.8,46.8,0,0,1,17.055-12.75l-1.13-4.13a57.073,57.073,0,0,0-24.847,19.98,50.162,50.162,0,0,0-9.035,29.16h0Zm-56.47,0q0,18.825,18.3,18.83,10.842,0,18.071-6.89a23.061,23.061,0,0,0,7.228-17.45q0-7.35-4.518-11.25t-13.1-3.91a20.747,20.747,0,0,0-15.812,7.12,31.524,31.524,0,0,1,7.793-18.71,46.8,46.8,0,0,1,17.054-12.75l-1.129-4.13a57.073,57.073,0,0,0-24.847,19.98,50.162,50.162,0,0,0-9.035,29.16h0Z" transform="translate(-441.969 -2648)"/>
</svg>
