<?xml version="1.0" encoding="utf-8"?>
<!-- Generator: Adobe Illustrator 23.0.2, SVG Export Plug-In . SVG Version: 6.00 Build 0)  -->
<!DOCTYPE svg PUBLIC "-//W3C//DTD SVG 1.1//EN" "http://www.w3.org/Graphics/SVG/1.1/DTD/svg11.dtd" [
	<!ENTITY ns_extend "http://ns.adobe.com/Extensibility/1.0/">
	<!ENTITY ns_ai "http://ns.adobe.com/AdobeIllustrator/10.0/">
	<!ENTITY ns_graphs "http://ns.adobe.com/Graphs/1.0/">
	<!ENTITY ns_vars "http://ns.adobe.com/Variables/1.0/">
	<!ENTITY ns_imrep "http://ns.adobe.com/ImageReplacement/1.0/">
	<!ENTITY ns_sfw "http://ns.adobe.com/SaveForWeb/1.0/">
	<!ENTITY ns_custom "http://ns.adobe.com/GenericCustomNamespace/1.0/">
	<!ENTITY ns_adobe_xpath "http://ns.adobe.com/XPath/1.0/">
]>
<svg version="1.1" id="text" xmlns:x="&ns_extend;" xmlns:i="&ns_ai;" xmlns:graph="&ns_graphs;"
	 xmlns="http://www.w3.org/2000/svg" xmlns:xlink="http://www.w3.org/1999/xlink" x="0px" y="0px" viewBox="0 0 211.9 204.6"
	 style="enable-background:new 0 0 211.9 204.6;" xml:space="preserve">
<style type="text/css">
	.st0{fill:#E5E7FF;}
	.st1{fill:#FFFFFF;}
	.st2{fill:url(#XMLID_2_);}
	.st3{fill:#E0E2FF;}
	.st4{fill:#F0F0FF;}
	.st5{opacity:0;fill:#FFFFFF;}
	.st6{opacity:2.439000e-02;fill:#FDFDFF;}
	.st7{opacity:4.878000e-02;fill:#FBFBFF;}
	.st8{opacity:7.317100e-02;fill:#F9FAFF;}
	.st9{opacity:9.756100e-02;fill:#F7F8FF;}
	.st10{opacity:0.122;fill:#F6F6FF;}
	.st11{opacity:0.1463;fill:#F4F4FF;}
	.st12{opacity:0.1707;fill:#F2F3FF;}
	.st13{opacity:0.1951;fill:#F0F1FF;}
	.st14{opacity:0.2195;fill:#EEEFFF;}
	.st15{opacity:0.2439;fill:#ECEDFF;}
	.st16{opacity:0.2683;fill:#EAECFF;}
	.st17{opacity:0.2927;fill:#E8EAFF;}
	.st18{opacity:0.3171;fill:#E7E8FF;}
	.st19{opacity:0.3415;fill:#E5E6FF;}
	.st20{opacity:0.3659;fill:#E3E4FF;}
	.st21{opacity:0.3902;fill:#E1E3FF;}
	.st22{opacity:0.4146;fill:#DFE1FF;}
	.st23{opacity:0.439;fill:#DDDFFF;}
	.st24{opacity:0.4634;fill:#DBDDFF;}
	.st25{opacity:0.4878;fill:#D9DCFF;}
	.st26{opacity:0.5122;fill:#D8DAFF;}
	.st27{opacity:0.5366;fill:#D6D8FF;}
	.st28{opacity:0.561;fill:#D4D6FF;}
	.st29{opacity:0.5854;fill:#D2D4FF;}
	.st30{opacity:0.6098;fill:#D0D3FF;}
	.st31{opacity:0.6341;fill:#CED1FF;}
	.st32{opacity:0.6585;fill:#CCCFFF;}
	.st33{opacity:0.6829;fill:#CACDFF;}
	.st34{opacity:0.7073;fill:#C8CCFF;}
	.st35{opacity:0.7317;fill:#C7CAFF;}
	.st36{opacity:0.7561;fill:#C5C8FF;}
	.st37{opacity:0.7805;fill:#C3C6FF;}
	.st38{opacity:0.8049;fill:#C1C5FF;}
	.st39{opacity:0.8293;fill:#BFC3FF;}
	.st40{opacity:0.8537;fill:#BDC1FF;}
	.st41{opacity:0.878;fill:#BBBFFF;}
	.st42{opacity:0.9024;fill:#B9BDFF;}
	.st43{opacity:0.9268;fill:#B8BCFF;}
	.st44{opacity:0.9512;fill:#B6BAFF;}
	.st45{opacity:0.9756;fill:#B4B8FF;}
	.st46{fill:#B2B6FF;}
	.st47{fill:url(#SVGID_1_);}
	.st48{fill:#D1D3FF;}
	.st49{fill:#FFDCCF;}
	.st50{fill:#FF4500;}
	.st51{fill:#5267FF;}
	.st52{opacity:0;}
	.st53{opacity:2.439000e-02;}
	.st54{fill:#FDFDFF;}
	.st55{opacity:4.878000e-02;}
	.st56{fill:#FBFBFF;}
	.st57{opacity:7.317100e-02;}
	.st58{fill:#F9FAFF;}
	.st59{opacity:9.756100e-02;}
	.st60{fill:#F7F8FF;}
	.st61{opacity:0.122;}
	.st62{fill:#F6F6FF;}
	.st63{opacity:0.1463;}
	.st64{fill:#F4F4FF;}
	.st65{opacity:0.1707;}
	.st66{fill:#F2F3FF;}
	.st67{opacity:0.1951;}
	.st68{fill:#F0F1FF;}
	.st69{opacity:0.2195;}
	.st70{fill:#EEEFFF;}
	.st71{opacity:0.2439;}
	.st72{fill:#ECEDFF;}
	.st73{opacity:0.2683;}
	.st74{fill:#EAECFF;}
	.st75{opacity:0.2927;}
	.st76{fill:#E8EAFF;}
	.st77{opacity:0.3171;}
	.st78{fill:#E7E8FF;}
	.st79{opacity:0.3415;}
	.st80{fill:#E5E6FF;}
	.st81{opacity:0.3659;}
	.st82{fill:#E3E4FF;}
	.st83{opacity:0.3902;}
	.st84{fill:#E1E3FF;}
	.st85{opacity:0.4146;}
	.st86{fill:#DFE1FF;}
	.st87{opacity:0.439;}
	.st88{fill:#DDDFFF;}
	.st89{opacity:0.4634;}
	.st90{fill:#DBDDFF;}
	.st91{opacity:0.4878;}
	.st92{fill:#D9DCFF;}
	.st93{opacity:0.5122;}
	.st94{fill:#D8DAFF;}
	.st95{opacity:0.5366;}
	.st96{fill:#D6D8FF;}
	.st97{opacity:0.561;}
	.st98{fill:#D4D6FF;}
	.st99{opacity:0.5854;}
	.st100{fill:#D2D4FF;}
	.st101{opacity:0.6098;}
	.st102{fill:#D0D3FF;}
	.st103{opacity:0.6341;}
	.st104{fill:#CED1FF;}
	.st105{opacity:0.6585;}
	.st106{fill:#CCCFFF;}
	.st107{opacity:0.6829;}
	.st108{fill:#CACDFF;}
	.st109{opacity:0.7073;}
	.st110{fill:#C8CCFF;}
	.st111{opacity:0.7317;}
	.st112{fill:#C7CAFF;}
	.st113{opacity:0.7561;}
	.st114{fill:#C5C8FF;}
	.st115{opacity:0.7805;}
	.st116{fill:#C3C6FF;}
	.st117{opacity:0.8049;}
	.st118{fill:#C1C5FF;}
	.st119{opacity:0.8293;}
	.st120{fill:#BFC3FF;}
	.st121{opacity:0.8537;}
	.st122{fill:#BDC1FF;}
	.st123{opacity:0.878;}
	.st124{fill:#BBBFFF;}
	.st125{opacity:0.9024;}
	.st126{fill:#B9BDFF;}
	.st127{opacity:0.9268;}
	.st128{fill:#B8BCFF;}
	.st129{opacity:0.9512;}
	.st130{fill:#B6BAFF;}
	.st131{opacity:0.9756;}
	.st132{fill:#B4B8FF;}
	.st133{fill:url(#SVGID_2_);}
	.st134{fill:#FFCCBA;}
	.st135{fill:#191B3E;}
	.st136{fill:#4D4F6A;}
	.st137{opacity:0.15;fill:#231F20;}
</style>
<metadata>
	<sfw  xmlns="&ns_sfw;">
		<slices></slices>
		<sliceSourceBounds  bottomLeftOrigin="true" height="204.6" width="212.9" x="2661" y="-384.5"></sliceSourceBounds>
	</sfw>
</metadata>
<path class="st0" d="M157,36.3c34.6,33.6,64.8,96,43.3,128.8c-30.7,46.7-169.4,37.8-195.6-28.7C-14.8,86.7,29.2,6.2,82.6,0.3
	C116.2-3.4,143.9,23.6,157,36.3z"/>
<g>
	<path id="XMLID_108_" class="st1" d="M117.1,141.5H46.2c-1.6,0-2.9-1.3-2.9-2.9V52.1c0-1.6,1.3-2.9,2.9-2.9h70.9
		c1.6,0,2.9,1.3,2.9,2.9v86.5C119.9,140.2,118.6,141.5,117.1,141.5z"/>
	<linearGradient id="XMLID_2_" gradientUnits="userSpaceOnUse" x1="43.3167" y1="54.1063" x2="119.9237" y2="54.1063">
		<stop  offset="0" style="stop-color:#F407FF"/>
		<stop  offset="0.1346" style="stop-color:#F612D9"/>
		<stop  offset="0.4521" style="stop-color:#FA2C84"/>
		<stop  offset="0.712" style="stop-color:#FD3F46"/>
		<stop  offset="0.9012" style="stop-color:#FE4A1F"/>
		<stop  offset="1" style="stop-color:#FF4F11"/>
	</linearGradient>
	<path id="XMLID_101_" class="st2" d="M119.9,59v-7.1c0-1.5-1.2-2.7-2.7-2.7H46c-1.5,0-2.7,1.2-2.7,2.7V59H119.9z"/>
	<path id="XMLID_100_" class="st1" d="M50,54.1c0,0.5-0.4,0.8-0.8,0.8c-0.5,0-0.8-0.4-0.8-0.8c0-0.5,0.4-0.8,0.8-0.8
		C49.6,53.3,50,53.6,50,54.1z"/>
	<path id="XMLID_99_" class="st1" d="M53.7,54.1c0,0.5-0.4,0.8-0.8,0.8c-0.5,0-0.8-0.4-0.8-0.8c0-0.5,0.4-0.8,0.8-0.8
		C53.3,53.3,53.7,53.6,53.7,54.1z"/>
	<path id="XMLID_78_" class="st1" d="M57.5,54.1c0,0.5-0.4,0.8-0.8,0.8c-0.5,0-0.8-0.4-0.8-0.8c0-0.5,0.4-0.8,0.8-0.8
		C57.1,53.3,57.5,53.6,57.5,54.1z"/>
	<path class="st3" d="M65.4,103.7c0,3.8-3.1,6.8-6.8,6.8c-3.8,0-6.8-3.1-6.8-6.8c0-3.8,3.1-6.8,6.8-6.8
		C62.3,96.9,65.4,100,65.4,103.7z"/>
	<circle class="st3" cx="58.6" cy="122.4" r="6.8"/>
	<rect x="73.4" y="99.3" class="st4" width="38" height="1.4"/>
	<rect x="73.4" y="104.9" class="st4" width="21" height="1.4"/>
	<rect x="73.4" y="118.1" class="st4" width="38" height="1.4"/>
	<rect x="73.4" y="123.7" class="st4" width="21" height="1.4"/>
</g>
<g>
	<g>
		<path class="st5" d="M117.4,49.2h-0.2h-18v33.4c0,2.7,2.2,4.9,4.9,4.9h15.8v-29v-6.6v-0.2C119.9,50.3,118.8,49.2,117.4,49.2z"/>
		<path class="st6" d="M117.4,49.2h-0.2H99.3v33.3c0,2.7,2.2,4.9,4.9,4.9h15.7v-29v-6.6v-0.2C119.9,50.3,118.8,49.2,117.4,49.2z"/>
		<path class="st7" d="M117.4,49.2h-0.2H99.5v33.3c0,2.7,2.2,4.9,4.9,4.9h15.6V58.4v-6.5v-0.2C119.9,50.3,118.8,49.2,117.4,49.2z"/>
		<path class="st8" d="M117.4,49.2h-0.2H99.6v33.2c0,2.7,2.2,4.8,4.8,4.8h15.5V58.3v-6.5v-0.2C119.9,50.3,118.8,49.2,117.4,49.2z"/>
		<path class="st9" d="M117.4,49.2h-0.2H99.8v33.1c0,2.7,2.2,4.8,4.8,4.8h15.4V58.3v-6.4v-0.2C119.9,50.3,118.8,49.2,117.4,49.2z"/>
		<path class="st10" d="M117.5,49.2h-0.2H99.9v33c0,2.6,2.1,4.8,4.8,4.8h15.3V58.2v-6.4v-0.2C119.9,50.3,118.8,49.2,117.5,49.2z"/>
		<path class="st11" d="M117.5,49.2h-0.2H100v32.9c0,2.6,2.1,4.7,4.7,4.7h15.1V58.1v-6.3v-0.2C119.9,50.3,118.8,49.2,117.5,49.2z"/>
		<path class="st12" d="M117.5,49.2h-0.2h-17.1V82c0,2.6,2.1,4.7,4.7,4.7h15V58.1v-6.3v-0.2C119.9,50.2,118.8,49.2,117.5,49.2z"/>
		<path class="st13" d="M117.5,49.2h-0.2h-17v32.7c0,2.6,2.1,4.7,4.7,4.7h14.9V58v-6.3v-0.2C119.9,50.2,118.8,49.2,117.5,49.2z"/>
		<path class="st14" d="M117.5,49.2h-0.2h-16.9v32.7c0,2.6,2.1,4.6,4.6,4.6h14.8V57.9v-6.2v-0.2C119.9,50.2,118.9,49.2,117.5,49.2z"
			/>
		<path class="st15" d="M117.5,49.2h-0.2h-16.8v32.6c0,2.5,2.1,4.6,4.6,4.6h14.7V57.9v-6.2v-0.2C119.9,50.2,118.9,49.2,117.5,49.2z"
			/>
		<path class="st16" d="M117.6,49.2h-0.2h-16.6v32.5c0,2.5,2,4.6,4.6,4.6h14.6V57.8v-6.1v-0.2C119.9,50.2,118.9,49.2,117.6,49.2z"/>
		<path class="st17" d="M117.6,49.2h-0.2h-16.5v32.4c0,2.5,2,4.5,4.5,4.5h14.5V57.8v-6.1v-0.2C119.9,50.2,118.9,49.2,117.6,49.2z"/>
		<path class="st18" d="M117.6,49.2h-0.2H101v32.3c0,2.5,2,4.5,4.5,4.5h14.4V57.7v-6v-0.2C119.9,50.2,118.9,49.2,117.6,49.2z"/>
		<path class="st19" d="M117.6,49.2h-0.2h-16.3v32.2c0,2.5,2,4.5,4.5,4.5h14.3V57.6v-6v-0.2C119.9,50.2,118.9,49.2,117.6,49.2z"/>
		<path class="st20" d="M117.6,49.2h-0.2h-16.2v32.2c0,2.4,2,4.4,4.4,4.4h14.2V57.6v-5.9v-0.2C119.9,50.2,118.9,49.2,117.6,49.2z"/>
		<path class="st21" d="M117.7,49.2h-0.2h-16v32.1c0,2.4,2,4.4,4.4,4.4h14.1V57.5v-5.9v-0.2C119.9,50.2,118.9,49.2,117.7,49.2z"/>
		<path class="st22" d="M117.7,49.2h-0.2h-15.9v32c0,2.4,2,4.4,4.4,4.4h14V57.4v-5.8v-0.2C119.9,50.2,118.9,49.2,117.7,49.2z"/>
		<path class="st23" d="M117.7,49.2h-0.2h-15.8v31.9c0,2.4,1.9,4.3,4.3,4.3h13.9v-28v-5.8v-0.2C119.9,50.2,118.9,49.2,117.7,49.2z"
			/>
		<path class="st24" d="M117.7,49.2h-0.2h-15.7V81c0,2.4,1.9,4.3,4.3,4.3h13.8v-28v-5.8v-0.2C119.9,50.2,118.9,49.2,117.7,49.2z"/>
		<path class="st25" d="M117.7,49.2h-0.2H102v31.7c0,2.4,1.9,4.3,4.3,4.3h13.6V57.2v-5.7v-0.2C119.9,50.1,118.9,49.2,117.7,49.2z"/>
		<path class="st26" d="M117.7,49.2h-0.2h-15.4v31.6c0,2.3,1.9,4.2,4.2,4.2h13.5V57.2v-5.7v-0.2C119.9,50.1,118.9,49.2,117.7,49.2z"
			/>
		<path class="st27" d="M117.8,49.2h-0.2h-15.3v31.6c0,2.3,1.9,4.2,4.2,4.2h13.4V57.1v-5.6v-0.2C119.9,50.1,119,49.2,117.8,49.2z"/>
		<path class="st28" d="M117.8,49.2h-0.2h-15.2v31.5c0,2.3,1.9,4.2,4.2,4.2h13.3V57.1v-5.6v-0.2C119.9,50.1,119,49.2,117.8,49.2z"/>
		<path class="st29" d="M117.8,49.2h-0.2h-15.1v31.4c0,2.3,1.9,4.1,4.1,4.1h13.2V57v-5.5v-0.2C119.9,50.1,119,49.2,117.8,49.2z"/>
		<path class="st30" d="M117.8,49.2h-0.2h-14.9v31.3c0,2.3,1.8,4.1,4.1,4.1h13.1V56.9v-5.5v-0.2C119.9,50.1,119,49.2,117.8,49.2z"/>
		<path class="st31" d="M117.8,49.2h-0.2h-14.8v31.2c0,2.2,1.8,4.1,4.1,4.1h13V56.9v-5.4v-0.2C119.9,50.1,119,49.2,117.8,49.2z"/>
		<path class="st32" d="M117.8,49.2h-0.2H103v31.1c0,2.2,1.8,4,4,4h12.9V56.8v-5.4v-0.2C119.9,50.1,119,49.2,117.8,49.2z"/>
		<path class="st33" d="M117.9,49.2h-0.2h-14.6v31c0,2.2,1.8,4,4,4h12.8V56.7v-5.4v-0.2C119.9,50.1,119,49.2,117.9,49.2z"/>
		<path class="st34" d="M117.9,49.2h-0.2h-14.4v31c0,2.2,1.8,4,4,4h12.7V56.7v-5.3v-0.2C119.9,50.1,119,49.2,117.9,49.2z"/>
		<path class="st35" d="M117.9,49.2h-0.2h-14.3V80c0,2.2,1.8,3.9,3.9,3.9h12.6V56.6v-5.3v-0.2C119.9,50.1,119,49.2,117.9,49.2z"/>
		<path class="st36" d="M117.9,49.2h-0.2h-14.2V80c0,2.2,1.7,3.9,3.9,3.9h12.5V56.5v-5.2v-0.2C119.9,50.1,119,49.2,117.9,49.2z"/>
		<path class="st37" d="M117.9,49.2h-0.2h-14.1v30.7c0,2.1,1.7,3.9,3.9,3.9h12.4V56.5v-5.2v-0.2C119.9,50.1,119,49.2,117.9,49.2z"/>
		<path class="st38" d="M117.9,49.2h-0.2h-14v30.6c0,2.1,1.7,3.8,3.8,3.8h12.3V56.4v-5.1v-0.2C119.9,50,119,49.2,117.9,49.2z"/>
		<path class="st39" d="M118,49.2h-0.2H104v30.5c0,2.1,1.7,3.8,3.8,3.8h12.1V56.4v-5.1v-0.2C119.9,50,119,49.2,118,49.2z"/>
		<path class="st40" d="M118,49.2h-0.1h-13.7v30.5c0,2.1,1.7,3.8,3.8,3.8h12V56.3v-5v-0.1C119.9,50,119.1,49.2,118,49.2z"/>
		<path class="st41" d="M118,49.2h-0.1h-13.6v30.4c0,2.1,1.7,3.7,3.7,3.7h11.9v-27v-5v-0.1C119.9,50,119.1,49.2,118,49.2z"/>
		<path class="st42" d="M118,49.2h-0.1h-13.5v30.3c0,2,1.7,3.7,3.7,3.7h11.8v-27v-5v-0.1C119.9,50,119.1,49.2,118,49.2z"/>
		<path class="st43" d="M118,49.2h-0.1h-13.4v30.2c0,2,1.6,3.7,3.7,3.7h11.7V56.1v-4.9v-0.1C119.9,50,119.1,49.2,118,49.2z"/>
		<path class="st44" d="M118,49.2h-0.1h-13.2v30.1c0,2,1.6,3.6,3.6,3.6h11.6V56v-4.9V51C119.9,50,119.1,49.2,118,49.2z"/>
		<path class="st45" d="M118.1,49.2h-0.1h-13.1v30c0,2,1.6,3.6,3.6,3.6h11.5V56v-4.8V51C119.9,50,119.1,49.2,118.1,49.2z"/>
		<path class="st46" d="M118.1,49.2h-0.1h-13v29.9c0,2,1.6,3.6,3.6,3.6h11.4V55.9v-4.8V51C119.9,50,119.1,49.2,118.1,49.2z"/>
	</g>
	<g>
		<path class="st1" d="M154.5,83.7h-45c-2.8,0-5.1-2.3-5.1-5.1v-38c0-2.8,2.3-5.1,5.1-5.1h45c2.8,0,5.1,2.3,5.1,5.1v38
			C159.6,81.4,157.3,83.7,154.5,83.7z"/>
		<linearGradient id="SVGID_1_" gradientUnits="userSpaceOnUse" x1="104.3221" y1="40.3843" x2="159.6218" y2="40.3843">
			<stop  offset="0" style="stop-color:#F407FF"/>
			<stop  offset="0.1346" style="stop-color:#F612D9"/>
			<stop  offset="0.4521" style="stop-color:#FA2C84"/>
			<stop  offset="0.712" style="stop-color:#FD3F46"/>
			<stop  offset="0.9012" style="stop-color:#FE4A1F"/>
			<stop  offset="1" style="stop-color:#FF4F11"/>
		</linearGradient>
		<path class="st47" d="M155,35.5h-46.1c-2.5,0-4.6,2.1-4.6,4.6v5.2h55.3v-5.2C159.6,37.5,157.6,35.5,155,35.5z"/>
		<path class="st1" d="M111.4,40.4c0,0.5-0.4,0.8-0.8,0.8c-0.5,0-0.8-0.4-0.8-0.8c0-0.5,0.4-0.8,0.8-0.8
			C111,39.5,111.4,39.9,111.4,40.4z"/>
		<path class="st1" d="M115,40.4c0,0.5-0.4,0.8-0.8,0.8c-0.5,0-0.8-0.4-0.8-0.8c0-0.5,0.4-0.8,0.8-0.8C114.7,39.5,115,39.9,115,40.4
			z"/>
		<path class="st1" d="M115,40.4c0,0.5-0.4,0.8-0.8,0.8c-0.5,0-0.8-0.4-0.8-0.8c0-0.5,0.4-0.8,0.8-0.8C114.7,39.5,115,39.9,115,40.4
			z"/>
		<path class="st1" d="M118.7,40.4c0,0.5-0.4,0.8-0.8,0.8c-0.5,0-0.8-0.4-0.8-0.8c0-0.5,0.4-0.8,0.8-0.8
			C118.3,39.5,118.7,39.9,118.7,40.4z"/>
		<circle class="st48" cx="115" cy="58.2" r="6.6"/>
		<rect x="125.2" y="54.7" class="st4" width="30.2" height="1.8"/>
		<rect x="125.2" y="59.8" class="st4" width="30.2" height="1.8"/>
		<rect x="125.2" y="65" class="st49" width="11.3" height="1.8"/>
	</g>
</g>
<g>
	<g>
		<path class="st5" d="M69.8,67.4H43.3V98h26.5c2,0,3.5-1.6,3.5-3.5V71C73.4,69,71.8,67.4,69.8,67.4z"/>
		<path class="st6" d="M69.7,67.4H43.3v30.4h26.4c2,0,3.5-1.6,3.5-3.5V71C73.2,69,71.6,67.4,69.7,67.4z"/>
		<path class="st7" d="M69.5,67.4H43.3v30.2h26.2c1.9,0,3.5-1.6,3.5-3.5V71C73.1,69,71.5,67.4,69.5,67.4z"/>
		<path class="st8" d="M69.4,67.4H43.3v30h26.1c1.9,0,3.5-1.6,3.5-3.5v-23C72.9,69,71.3,67.4,69.4,67.4z"/>
		<path class="st9" d="M69.3,67.4h-26v29.9h26c1.9,0,3.5-1.6,3.5-3.5V70.9C72.7,69,71.2,67.4,69.3,67.4z"/>
		<path class="st10" d="M69.1,67.4H43.3v29.7h25.8c1.9,0,3.5-1.5,3.5-3.5V70.9C72.6,69,71,67.4,69.1,67.4z"/>
		<path class="st11" d="M69,67.4H43.3V97H69c1.9,0,3.4-1.5,3.4-3.4V70.9C72.4,69,70.9,67.4,69,67.4z"/>
		<path class="st12" d="M68.9,67.4H43.3v29.4h25.5c1.9,0,3.4-1.5,3.4-3.4V70.9C72.3,69,70.7,67.4,68.9,67.4z"/>
		<path class="st13" d="M68.7,67.4H43.3v29.2h25.4c1.9,0,3.4-1.5,3.4-3.4V70.8C72.1,69,70.6,67.4,68.7,67.4z"/>
		<path class="st14" d="M68.6,67.4H43.3v29.1h25.3c1.9,0,3.4-1.5,3.4-3.4V70.8C72,69,70.4,67.4,68.6,67.4z"/>
		<path class="st15" d="M68.4,67.4H43.3v28.9h25.1c1.9,0,3.4-1.5,3.4-3.4V70.8C71.8,68.9,70.3,67.4,68.4,67.4z"/>
		<path class="st16" d="M68.3,67.4h-25v28.8h25c1.8,0,3.3-1.5,3.3-3.3V70.8C71.6,68.9,70.1,67.4,68.3,67.4z"/>
		<path class="st17" d="M68.2,67.4H43.3V96h24.8c1.8,0,3.3-1.5,3.3-3.3V70.8C71.5,68.9,70,67.4,68.2,67.4z"/>
		<path class="st18" d="M68,67.4H43.3v28.4H68c1.8,0,3.3-1.5,3.3-3.3V70.8C71.3,68.9,69.8,67.4,68,67.4z"/>
		<path class="st19" d="M67.9,67.4H43.3v28.3h24.6c1.8,0,3.3-1.5,3.3-3.3V70.7C71.2,68.9,69.7,67.4,67.9,67.4z"/>
		<path class="st20" d="M67.7,67.4H43.3v28.1h24.4c1.8,0,3.3-1.5,3.3-3.3V70.7C71,68.9,69.6,67.4,67.7,67.4z"/>
		<path class="st21" d="M67.6,67.4H43.3v28h24.3c1.8,0,3.3-1.5,3.3-3.3V70.7C70.9,68.9,69.4,67.4,67.6,67.4z"/>
		<path class="st22" d="M67.5,67.4H43.3v27.8h24.2c1.8,0,3.2-1.4,3.2-3.2V70.7C70.7,68.9,69.3,67.4,67.5,67.4z"/>
		<path class="st23" d="M67.3,67.4h-24v27.6h24c1.8,0,3.2-1.4,3.2-3.2V70.7C70.5,68.9,69.1,67.4,67.3,67.4z"/>
		<path class="st24" d="M67.2,67.4H43.3v27.5h23.9c1.8,0,3.2-1.4,3.2-3.2V70.6C70.4,68.9,69,67.4,67.2,67.4z"/>
		<path class="st25" d="M67.1,67.4H43.3v27.3h23.7c1.8,0,3.2-1.4,3.2-3.2v-21C70.2,68.9,68.8,67.4,67.1,67.4z"/>
		<path class="st26" d="M66.9,67.4H43.3v27.2h23.6c1.7,0,3.2-1.4,3.2-3.2V70.6C70.1,68.9,68.7,67.4,66.9,67.4z"/>
		<path class="st27" d="M66.8,67.4H43.3v27h23.5c1.7,0,3.1-1.4,3.1-3.1V70.6C69.9,68.8,68.5,67.4,66.8,67.4z"/>
		<path class="st28" d="M66.6,67.4H43.3v26.8h23.3c1.7,0,3.1-1.4,3.1-3.1V70.6C69.8,68.8,68.4,67.4,66.6,67.4z"/>
		<path class="st29" d="M66.5,67.4H43.3v26.7h23.2c1.7,0,3.1-1.4,3.1-3.1V70.5C69.6,68.8,68.2,67.4,66.5,67.4z"/>
		<path class="st30" d="M66.4,67.4h-23V94h23c1.7,0,3.1-1.4,3.1-3.1V70.5C69.4,68.8,68.1,67.4,66.4,67.4z"/>
		<path class="st31" d="M66.2,67.4H43.3v26.4h22.9c1.7,0,3.1-1.4,3.1-3.1V70.5C69.3,68.8,67.9,67.4,66.2,67.4z"/>
		<path class="st32" d="M66.1,67.4H43.3v26.2h22.8c1.7,0,3-1.4,3-3V70.5C69.1,68.8,67.8,67.4,66.1,67.4z"/>
		<path class="st33" d="M65.9,67.4H43.3v26h22.6c1.7,0,3-1.4,3-3v-20C69,68.8,67.6,67.4,65.9,67.4z"/>
		<path class="st34" d="M65.8,67.4H43.3v25.9h22.5c1.7,0,3-1.3,3-3V70.5C68.8,68.8,67.5,67.4,65.8,67.4z"/>
		<path class="st35" d="M65.7,67.4H43.3v25.7h22.4c1.7,0,3-1.3,3-3V70.4C68.7,68.8,67.3,67.4,65.7,67.4z"/>
		<path class="st36" d="M65.5,67.4H43.3V93h22.2c1.6,0,3-1.3,3-3V70.4C68.5,68.8,67.2,67.4,65.5,67.4z"/>
		<path class="st37" d="M65.4,67.4H43.3v25.4h22.1c1.6,0,3-1.3,3-3V70.4C68.3,68.8,67,67.4,65.4,67.4z"/>
		<path class="st38" d="M65.3,67.4H43.3v25.3h21.9c1.6,0,2.9-1.3,2.9-2.9V70.4C68.2,68.8,66.9,67.4,65.3,67.4z"/>
		<path class="st39" d="M65.1,67.4H43.3v25.1h21.8c1.6,0,2.9-1.3,2.9-2.9V70.4C68,68.7,66.7,67.4,65.1,67.4z"/>
		<path class="st40" d="M65,67.4H43.3v24.9H65c1.6,0,2.9-1.3,2.9-2.9V70.3C67.9,68.7,66.6,67.4,65,67.4z"/>
		<path class="st41" d="M64.8,67.4H43.3v24.8h21.5c1.6,0,2.9-1.3,2.9-2.9v-19C67.7,68.7,66.4,67.4,64.8,67.4z"/>
		<path class="st42" d="M64.7,67.4H43.3v24.6h21.4c1.6,0,2.9-1.3,2.9-2.9V70.3C67.6,68.7,66.3,67.4,64.7,67.4z"/>
		<path class="st43" d="M64.6,67.4H43.3v24.5h21.2c1.6,0,2.8-1.3,2.8-2.8V70.3C67.4,68.7,66.1,67.4,64.6,67.4z"/>
		<path class="st44" d="M64.4,67.4H43.3v24.3h21.1c1.6,0,2.8-1.3,2.8-2.8V70.3C67.2,68.7,66,67.4,64.4,67.4z"/>
		<path class="st45" d="M64.3,67.4h-21v24.1h21c1.6,0,2.8-1.3,2.8-2.8V70.2C67.1,68.7,65.8,67.4,64.3,67.4z"/>
		<path class="st46" d="M64.1,67.4H43.3v24h20.8c1.5,0,2.8-1.2,2.8-2.8V70.2C66.9,68.7,65.7,67.4,64.1,67.4z"/>
	</g>
	<g>
		<path class="st1" d="M65.2,92.7H21.5c-1.9,0-3.5-1.6-3.5-3.5V66.4c0-1.9,1.6-3.5,3.5-3.5h43.7c1.9,0,3.5,1.6,3.5,3.5v22.8
			C68.6,91.2,67.1,92.7,65.2,92.7z"/>
		<g>
			<path id="XMLID_77_" class="st50" d="M39.3,77.8c0,4.5-3.7,8.2-8.2,8.2c-4.5,0-8.2-3.7-8.2-8.2c0-4.5,3.7-8.2,8.2-8.2
				C35.6,69.6,39.3,73.3,39.3,77.8z"/>
			<path id="XMLID_76_" class="st1" d="M34.1,78.3l-5.3,3c-0.4,0.2-0.8-0.1-0.8-0.5v-6.1c0-0.4,0.4-0.7,0.8-0.5l5.3,3
				C34.5,77.6,34.5,78.1,34.1,78.3z"/>
		</g>
		<rect x="42.3" y="71.3" class="st4" width="22.5" height="2"/>
		<rect x="42.3" y="76.8" class="st4" width="22.5" height="2"/>
		<rect x="42.3" y="82.4" class="st51" width="11.2" height="2"/>
	</g>
</g>
<g>
	<g>
		<g class="st52">
			<path class="st1" d="M119.9,96.8h-17.9c-1.2,0-2.2,1-2.2,2.2v21c0,1.2,1,2.2,2.2,2.2h17.9V96.8z"/>
		</g>
		<g class="st53">
			<path class="st54" d="M119.9,96.8h-17.7c-1.2,0-2.2,1-2.2,2.2v20.8c0,1.2,1,2.2,2.2,2.2h17.7V96.8z"/>
		</g>
		<g class="st55">
			<path class="st56" d="M119.9,96.8h-17.6c-1.2,0-2.2,1-2.2,2.2v20.7c0,1.2,1,2.2,2.2,2.2h17.6V96.8z"/>
		</g>
		<g class="st57">
			<path class="st58" d="M119.9,96.8h-17.5c-1.2,0-2.1,1-2.1,2.1v20.5c0,1.2,1,2.1,2.1,2.1h17.5V96.8z"/>
		</g>
		<g class="st59">
			<path class="st60" d="M119.9,96.8h-17.4c-1.2,0-2.1,1-2.1,2.1v20.4c0,1.2,1,2.1,2.1,2.1h17.4V96.8z"/>
		</g>
		<g class="st61">
			<path class="st62" d="M119.9,96.8h-17.3c-1.2,0-2.1,0.9-2.1,2.1v20.3c0,1.2,0.9,2.1,2.1,2.1h17.3V96.8z"/>
		</g>
		<g class="st63">
			<path class="st64" d="M119.9,96.8h-17.1c-1.2,0-2.1,0.9-2.1,2.1V119c0,1.2,0.9,2.1,2.1,2.1h17.1V96.8z"/>
		</g>
		<g class="st65">
			<path class="st66" d="M119.9,96.8h-17c-1.2,0-2.1,0.9-2.1,2.1v20c0,1.2,0.9,2.1,2.1,2.1h17V96.8z"/>
		</g>
		<g class="st67">
			<path class="st68" d="M119.9,96.8H103c-1.1,0-2.1,0.9-2.1,2.1v19.8c0,1.1,0.9,2.1,2.1,2.1h16.9V96.8z"/>
		</g>
		<g class="st69">
			<path class="st70" d="M119.9,96.8h-16.8c-1.1,0-2.1,0.9-2.1,2.1v19.7c0,1.1,0.9,2.1,2.1,2.1h16.8V96.8z"/>
		</g>
		<g class="st71">
			<path class="st72" d="M119.9,96.8h-16.7c-1.1,0-2,0.9-2,2v19.6c0,1.1,0.9,2,2,2h16.7V96.8z"/>
		</g>
		<g class="st73">
			<path class="st74" d="M119.9,96.8h-16.6c-1.1,0-2,0.9-2,2v19.4c0,1.1,0.9,2,2,2h16.6V96.8z"/>
		</g>
		<g class="st75">
			<path class="st76" d="M119.9,96.8h-16.4c-1.1,0-2,0.9-2,2v19.3c0,1.1,0.9,2,2,2h16.4V96.8z"/>
		</g>
		<g class="st77">
			<path class="st78" d="M119.9,96.8h-16.3c-1.1,0-2,0.9-2,2V118c0,1.1,0.9,2,2,2h16.3V96.8z"/>
		</g>
		<g class="st79">
			<path class="st80" d="M119.9,96.8h-16.2c-1.1,0-2,0.9-2,2v19c0,1.1,0.9,2,2,2h16.2V96.8z"/>
		</g>
		<g class="st81">
			<path class="st82" d="M119.9,96.8h-16.1c-1.1,0-2,0.9-2,2v18.9c0,1.1,0.9,2,2,2h16.1V96.8z"/>
		</g>
		<g class="st83">
			<path class="st84" d="M119.9,96.8h-16c-1.1,0-2,0.9-2,2v18.7c0,1.1,0.9,2,2,2h16V96.8z"/>
		</g>
		<g class="st85">
			<path class="st86" d="M119.9,96.8h-15.8c-1.1,0-1.9,0.9-1.9,1.9v18.6c0,1.1,0.9,1.9,1.9,1.9h15.8V96.8z"/>
		</g>
		<g class="st87">
			<path class="st88" d="M119.9,96.8h-15.7c-1.1,0-1.9,0.9-1.9,1.9v18.4c0,1.1,0.9,1.9,1.9,1.9h15.7V96.8z"/>
		</g>
		<g class="st89">
			<path class="st90" d="M119.9,96.8h-15.6c-1.1,0-1.9,0.9-1.9,1.9V117c0,1.1,0.9,1.9,1.9,1.9h15.6V96.8z"/>
		</g>
		<g class="st91">
			<path class="st92" d="M119.9,96.8h-15.5c-1,0-1.9,0.8-1.9,1.9v18.2c0,1,0.8,1.9,1.9,1.9h15.5V96.8z"/>
		</g>
		<g class="st93">
			<path class="st94" d="M119.9,96.8h-15.4c-1,0-1.9,0.8-1.9,1.9v18c0,1,0.8,1.9,1.9,1.9h15.4V96.8z"/>
		</g>
		<g class="st95">
			<path class="st96" d="M119.9,96.8h-15.2c-1,0-1.9,0.8-1.9,1.9v17.9c0,1,0.8,1.9,1.9,1.9h15.2V96.8z"/>
		</g>
		<g class="st97">
			<path class="st98" d="M119.9,96.8h-15.1c-1,0-1.9,0.8-1.9,1.9v17.7c0,1,0.8,1.9,1.9,1.9h15.1V96.8z"/>
		</g>
		<g class="st99">
			<path class="st100" d="M119.9,96.8h-15c-1,0-1.8,0.8-1.8,1.8v17.6c0,1,0.8,1.8,1.8,1.8h15V96.8z"/>
		</g>
		<g class="st101">
			<path class="st102" d="M119.9,96.8H105c-1,0-1.8,0.8-1.8,1.8v17.5c0,1,0.8,1.8,1.8,1.8h14.9V96.8z"/>
		</g>
		<g class="st103">
			<path class="st104" d="M119.9,96.8h-14.8c-1,0-1.8,0.8-1.8,1.8v17.3c0,1,0.8,1.8,1.8,1.8h14.8V96.8z"/>
		</g>
		<g class="st105">
			<path class="st106" d="M119.9,96.8h-14.6c-1,0-1.8,0.8-1.8,1.8v17.2c0,1,0.8,1.8,1.8,1.8h14.6V96.8z"/>
		</g>
		<g class="st107">
			<path class="st108" d="M119.9,96.8h-14.5c-1,0-1.8,0.8-1.8,1.8v17c0,1,0.8,1.8,1.8,1.8h14.5V96.8z"/>
		</g>
		<g class="st109">
			<path class="st110" d="M119.9,96.8h-14.4c-1,0-1.8,0.8-1.8,1.8v16.9c0,1,0.8,1.8,1.8,1.8h14.4V96.8z"/>
		</g>
		<g class="st111">
			<path class="st112" d="M119.9,96.8h-14.3c-1,0-1.8,0.8-1.8,1.8v16.8c0,1,0.8,1.7,1.8,1.7h14.3V96.8z"/>
		</g>
		<g class="st113">
			<path class="st114" d="M119.9,96.8h-14.2c-1,0-1.7,0.8-1.7,1.7v16.6c0,1,0.8,1.7,1.7,1.7h14.2V96.8z"/>
		</g>
		<g class="st115">
			<path class="st116" d="M119.9,96.8h-14c-1,0-1.7,0.8-1.7,1.7V115c0,1,0.8,1.7,1.7,1.7h14V96.8z"/>
		</g>
		<g class="st117">
			<path class="st118" d="M119.9,96.8H106c-0.9,0-1.7,0.8-1.7,1.7v16.3c0,0.9,0.8,1.7,1.7,1.7h13.9V96.8z"/>
		</g>
		<g class="st119">
			<path class="st120" d="M119.9,96.8h-13.8c-0.9,0-1.7,0.8-1.7,1.7v16.2c0,0.9,0.8,1.7,1.7,1.7h13.8V96.8z"/>
		</g>
		<g class="st121">
			<path class="st122" d="M119.9,96.8h-13.7c-0.9,0-1.7,0.8-1.7,1.7v16.1c0,0.9,0.8,1.7,1.7,1.7h13.7V96.8z"/>
		</g>
		<g class="st123">
			<path class="st124" d="M119.9,96.8h-13.6c-0.9,0-1.7,0.7-1.7,1.7v15.9c0,0.9,0.7,1.7,1.7,1.7h13.6V96.8z"/>
		</g>
		<g class="st125">
			<path class="st126" d="M119.9,96.8h-13.5c-0.9,0-1.6,0.7-1.6,1.6v15.8c0,0.9,0.7,1.6,1.6,1.6h13.5V96.8z"/>
		</g>
		<g class="st127">
			<path class="st128" d="M119.9,96.8h-13.3c-0.9,0-1.6,0.7-1.6,1.6v15.7c0,0.9,0.7,1.6,1.6,1.6h13.3V96.8z"/>
		</g>
		<g class="st129">
			<path class="st130" d="M119.9,96.8h-13.2c-0.9,0-1.6,0.7-1.6,1.6v15.5c0,0.9,0.7,1.6,1.6,1.6h13.2V96.8z"/>
		</g>
		<g class="st131">
			<path class="st132" d="M119.9,96.8h-13.1c-0.9,0-1.6,0.7-1.6,1.6v15.4c0,0.9,0.7,1.6,1.6,1.6h13.1V96.8z"/>
		</g>
		<path class="st46" d="M119.9,96.8h-13c-0.9,0-1.6,0.7-1.6,1.6v15.2c0,0.9,0.7,1.6,1.6,1.6h13V96.8z"/>
	</g>
	<g>
		<path class="st1" d="M135.8,116.5h-29.5c-1.1,0-2-0.9-2-2V95.3c0-1.1,0.9-2,2-2h29.5c1.1,0,2,0.9,2,2v19.3
			C137.8,115.6,136.9,116.5,135.8,116.5z"/>
		<g>
			<rect x="106.8" y="95.5" class="st3" width="28.5" height="17.8"/>
		</g>
		<g>
			<polygon class="st46" points="111.2,102 106.8,108.4 106.8,113.3 118.1,113.3 			"/>
		</g>
		<g>
			<polygon class="st1" points="111.9,105.3 112.3,106 113,105 111.2,102 109.2,104.9 109.8,106 110.3,105.3 111.1,106.5 			"/>
		</g>
		<g>
			<polygon class="st46" points="116.6,110.8 119.9,105.8 124.5,113.3 118.1,113.3 			"/>
		</g>
		<path class="st48" d="M130,101.5c0,1.7-1.4,3.1-3.1,3.1c-1.7,0-3.1-1.4-3.1-3.1c0-1.7,1.4-3.1,3.1-3.1
			C128.6,98.4,130,99.8,130,101.5z"/>
		<g>
			<polygon class="st1" points="120.7,109.1 121,109.8 121.7,108.8 119.9,105.8 117.9,108.8 118.6,109.8 119,109.1 119.8,110.4 			
				"/>
		</g>
	</g>
</g>
<g>
	<path class="st1" d="M94.8,45.2H16.6c-2.2,0-4.1-1.8-4.1-4.1v-20c0-2.2,1.8-4.1,4.1-4.1h78.2c2.2,0,4.1,1.8,4.1,4.1v20
		C98.9,43.3,97,45.2,94.8,45.2z"/>
	<linearGradient id="SVGID_2_" gradientUnits="userSpaceOnUse" x1="12.4966" y1="20.3277" x2="98.8539" y2="20.3277">
		<stop  offset="0" style="stop-color:#F407FF"/>
		<stop  offset="0.1346" style="stop-color:#F612D9"/>
		<stop  offset="0.4521" style="stop-color:#FA2C84"/>
		<stop  offset="0.712" style="stop-color:#FD3F46"/>
		<stop  offset="0.9012" style="stop-color:#FE4A1F"/>
		<stop  offset="1" style="stop-color:#FF4F11"/>
	</linearGradient>
	<path class="st133" d="M94.8,17H16.6c-2.2,0-4.1,1.8-4.1,4.1v2.6h86.4v-2.6C98.9,18.8,97,17,94.8,17z"/>
	<circle class="st48" cx="25.3" cy="34.8" r="6.6"/>
	<rect x="35.4" y="28.7" class="st4" width="56.2" height="1.8"/>
	<rect x="35.4" y="33.9" class="st4" width="56.2" height="1.8"/>
	<rect x="35.4" y="39" class="st49" width="21.1" height="1.8"/>
	<path class="st1" d="M20.4,20.3c0,0.5-0.4,0.8-0.8,0.8c-0.5,0-0.8-0.4-0.8-0.8s0.4-0.8,0.8-0.8C20,19.5,20.4,19.9,20.4,20.3z"/>
	<path class="st1" d="M24,20.3c0,0.5-0.4,0.8-0.8,0.8c-0.5,0-0.8-0.4-0.8-0.8s0.4-0.8,0.8-0.8C23.6,19.5,24,19.9,24,20.3z"/>
	<path class="st1" d="M27.7,20.3c0,0.5-0.4,0.8-0.8,0.8c-0.5,0-0.8-0.4-0.8-0.8s0.4-0.8,0.8-0.8C27.3,19.5,27.7,19.9,27.7,20.3z"/>
</g>
<g>
	
		<rect x="157.6" y="190.3" transform="matrix(-1 -1.224647e-16 1.224647e-16 -1 319.9424 387.6614)" class="st134" width="4.7" height="7.1"/>
	<g>
		<path class="st50" d="M162.9,195.5c0,0,0.3,3,1.1,5.5c0.1,0.3,0.4,0.6,0.4,0.9v2.6h-11v-1.4c0-0.6,0.2-1.3,0.6-1.8
			c0.9-1.3,3.7-3.9,3.3-5.8H162.9z"/>
		<g>
			<path class="st135" d="M162.9,195.5L162.9,195.5C162.9,195.5,162.9,195.6,162.9,195.5C162.9,195.6,162.9,195.6,162.9,195.5z"/>
			<path class="st135" d="M164.4,202.7v1.9h-11v-1.4c0-0.2,0-0.3,0-0.5H164.4z"/>
		</g>
		<path class="st135" d="M158.3,197.7h2.5c0.1,0,0.3-0.1,0.3-0.3v-0.1c0-0.1-0.1-0.3-0.3-0.3h-2.5c-0.1,0-0.3,0.1-0.3,0.3v0.1
			C158,197.6,158.1,197.7,158.3,197.7z"/>
		<path class="st135" d="M157.9,199.2h2.5c0.1,0,0.3-0.1,0.3-0.3v-0.1c0-0.1-0.1-0.3-0.3-0.3h-2.5c-0.1,0-0.3,0.1-0.3,0.3v0.1
			C157.6,199.1,157.8,199.2,157.9,199.2z"/>
	</g>
	
		<rect x="187.9" y="190.3" transform="matrix(-1 -1.224647e-16 1.224647e-16 -1 380.5349 387.6614)" class="st134" width="4.7" height="7.1"/>
	<path class="st51" d="M179.9,130c-1.3,3.2-9.2,31.1-9.2,31.1l-7.1,33.4h-6.9l3.6-37.9l2.6-40.2l15,1.8l2.7,7.4L179.9,130z"/>
	<polygon class="st51" points="195.6,123.9 195.2,157.5 193.6,194.4 186.9,194.4 184.3,165 177.9,130.4 177.9,118.1 194.4,119.6 	
		"/>
	<path class="st134" d="M178.8,75.8h9.9V62.7h-10.8C180.4,66,178.8,75.8,178.8,75.8z"/>
	<path class="st1" d="M194.4,122.4c-0.3,7.7-25.3-4.7-30.8-1.8l6.6-45.5c0,0,6.1-2.4,8.6-0.5c3.5,2.6,9.9,0,9.9,0l4.5,1.8
		C193.2,76.3,194.7,115.8,194.4,122.4z"/>
	<path class="st50" d="M179.3,67.6c0,0,1.8,30-13.1,49c0,0-4.5,11.2-8.2,11.8c0,0-3.8-9.7,0.8-17.4c2.9-4.7,8.4-15.1,8.8-20.6
		l0.9-15.8L179.3,67.6z"/>
	<path class="st50" d="M188.7,67.6c0,0-4.3,19.7-4.5,29.7c-0.1,8.2,12.6,35.4,12.6,35.4s7.8-8.2,3.7-17.6
		c-2.7-6.2-5.8-11.2-5.4-15.2l-0.1-28.1L188.7,67.6z"/>
	<g>
		<path class="st134" d="M174.5,60.2c0.1-1.3,0.3-2.6,0.7-3.9c0-0.1-0.6-0.2-1.1-0.2c-0.4-0.1-0.6-0.5-0.3-0.9
			c1.2-1.3,3.4-3.5,3.8-4.3c0.5-1.1,0.1-0.3,0.7-1.3c0.2-0.3,0.4-0.6,0.6-1c0.2-0.4,0.7-0.9,1.2-1c0.5-0.1,1,0.1,1.5,0.2
			c2.1,0.5,4,0.9,5.9,1.9c0.7,0.3,1.4,0.7,2.1,1.2c0.9,0.7,1.6,1.7,2,2.8c0.7,1.9,0.4,4,0,6c-0.1,0.5-0.2,1-0.4,1.4
			c-0.4,0.7-1,1.2-1.7,1.6c-1.2,0.7-2.4,1.4-3.6,2c-0.7,0.4-1.5,0.7-2.3,1c-1.3,0.4-2.7,0.4-4,0.3c-1,0-2.1-0.1-3-0.6
			c-0.8-0.5-1.4-1.3-1.7-2.3C174.4,62.2,174.4,61.2,174.5,60.2z"/>
	</g>
	<g>
		<path class="st136" d="M177.5,41.9c1.9,1.6,4.4,2.2,6.9,2.5c2.5,0.3,5,0.4,7.3,1.2c1.5,0.5,3.7,1.4,4.4,2.9c1,2.1,0.8,5.2,0.3,7.4
			c-0.4,1.6-1.2,3.2-2.3,4.5c-1.2,1.4-2.7,2.1-4.3,2.9c-0.1,0.1-0.3,0.1-0.4,0.2c-0.1,0.1-0.3,0.2-0.4,0.2c-0.3,0.1-0.3-0.4-0.3-0.6
			c0-0.4,0.2-0.8,0.4-1.2c0.2-0.3,0.5-0.6,0.7-0.9c0.7-0.8,0.6-1.9,0.7-2.9c0-0.5,0.1-1-0.1-1.5c-0.2-0.5-0.5-0.9-1-1
			c-0.5-0.1-1,0.2-1.4,0.6c-0.8,0.7-1.4,1.5-1.9,2.5c0-0.9-0.1-1.7-0.1-2.6c0-0.6,0-1.2-0.2-1.8c-0.2-0.8-0.8-1.5-0.6-2.3
			c0.1-0.4,0.3-0.7,0.4-1c0.1-0.5-0.3-1-0.8-1.3c-0.5-0.2-1-0.3-1.5-0.4c-0.8-0.1-1.6-0.4-2.4-0.6c-0.7-0.2-1.5-0.5-2-1
			c-0.6-0.5-1-1.3-1.1-2.1c-0.2-0.8-0.2-1.6-0.2-2.4C177.5,42.9,177.5,42.4,177.5,41.9z"/>
	</g>
	<path class="st134" d="M207.3,89l5.3,13.7c0.5,1.4,0.4,3-0.4,4.3l-16.9,21.6l-3-4.5l10.9-17.2c0.7-1.5,0.7-3.2-0.1-4.7l-5.3-9.3
		C197.8,92.9,204.2,95.3,207.3,89z"/>
	<path class="st134" d="M192.3,124.1l-1.9,0.3l-1.3,1.2c-0.5,0.4-0.5,1.2-0.1,1.7l0.4,0.5l-0.6,1c-0.3,0.4-0.2,0.9,0.1,1.3l1.9,2.3
		c0.4,0.4,1,0.5,1.4,0.2l2-1.3c0.4-0.3,0.8-0.7,0.9-1.2l0.3-1.5L192.3,124.1z"/>
	<g>
		<path class="st50" d="M193.2,195.5c0,0-0.7,2.9,1.6,5.5c0.2,0.3,0.4,0.6,0.4,0.9v2.6h-10.5v-1.4c0-0.6,0.2-1.3,0.6-1.8
			c0.9-1.3,2.6-3.9,2.2-5.8H193.2z"/>
		<g>
			<path class="st135" d="M193.2,195.5L193.2,195.5C193.2,195.5,193.2,195.6,193.2,195.5C193.2,195.6,193.2,195.6,193.2,195.5z"/>
			<path class="st135" d="M195.2,202.7v1.9h-10.5v-1.4c0-0.2,0-0.3,0-0.5H195.2z"/>
		</g>
		<path class="st135" d="M188.6,197.7h2.5c0.1,0,0.3-0.1,0.3-0.3v-0.1c0-0.1-0.1-0.3-0.3-0.3h-2.5c-0.1,0-0.3,0.1-0.3,0.3v0.1
			C188.3,197.6,188.4,197.7,188.6,197.7z"/>
		<path class="st135" d="M188.2,199.2h2.5c0.1,0,0.3-0.1,0.3-0.3v-0.1c0-0.1-0.1-0.3-0.3-0.3h-2.5c-0.1,0-0.3,0.1-0.3,0.3v0.1
			C187.9,199.1,188.1,199.2,188.2,199.2z"/>
	</g>
	<path class="st50" d="M188.7,67.6l6.9,4.5l3.1,1.5c2,0.9,3.5,2.6,4.3,4.7l5.5,12.6c-6,1.2-6.2,6.6-10.5,5.6L192,81.8l-3.2-7.3V67.6
		z"/>
	<path class="st50" d="M179.3,67.6l-6.9,3l-3.9,1c-2.4,0.6-4.4,2.3-5.4,4.6l-6.4,12.8c4.1,0,8.4,5.5,9.1,4.5l7.9-13.9L179.3,67.6z"
		/>
	<path class="st137" d="M177.1,64.6c-0.1-0.8,0.3-1.5,1-1.9l0,0c0.2-0.1,0.4-0.3,0.5-0.5l0.6-1.7c0.2-0.4,0.2-0.9,0.1-1.4l-0.2-1.3
		c-0.1-0.7-0.9-1.1-1.5-0.8l-2.2,1l-1.4,1.3c0,0,0,0,0,0c-0.1,1.2-0.1,2.4,0.3,3.5c0.3,1,1,2,1.9,2.5c0.3,0.2,0.7,0.3,1.1,0.4
		L177.1,64.6z"/>
	<path class="st134" d="M157.4,89.4l15-24.2v-4c0-0.5,0.2-1,0.6-1.3l1.7-1.7l2-0.9c0.6-0.3,1.3,0.1,1.4,0.7l0.2,1.2
		c0.1,0.4,0,0.8-0.1,1.2l-0.5,1.5c-0.1,0.2-0.2,0.4-0.4,0.5l0,0c-0.6,0.4-1,1-0.9,1.7l0.1,1.1l2.7,0.5l-3.3,2.6l-10.8,25
		c-1,2.2-3.6,3.2-5.7,2.2l0,0C156.9,94.5,156.1,91.6,157.4,89.4z"/>
</g>
</svg>
