<?xml version="1.0" encoding="utf-8"?>
<!-- Generator: Adobe Illustrator 23.0.2, SVG Export Plug-In . SVG Version: 6.00 Build 0)  -->
<!DOCTYPE svg PUBLIC "-//W3C//DTD SVG 1.1//EN" "http://www.w3.org/Graphics/SVG/1.1/DTD/svg11.dtd" [
	<!ENTITY ns_extend "http://ns.adobe.com/Extensibility/1.0/">
	<!ENTITY ns_ai "http://ns.adobe.com/AdobeIllustrator/10.0/">
	<!ENTITY ns_graphs "http://ns.adobe.com/Graphs/1.0/">
	<!ENTITY ns_vars "http://ns.adobe.com/Variables/1.0/">
	<!ENTITY ns_imrep "http://ns.adobe.com/ImageReplacement/1.0/">
	<!ENTITY ns_sfw "http://ns.adobe.com/SaveForWeb/1.0/">
	<!ENTITY ns_custom "http://ns.adobe.com/GenericCustomNamespace/1.0/">
	<!ENTITY ns_adobe_xpath "http://ns.adobe.com/XPath/1.0/">
]>
<svg version="1.1" id="Режим_изоляции" xmlns:x="&ns_extend;" xmlns:i="&ns_ai;" xmlns:graph="&ns_graphs;"
	 xmlns="http://www.w3.org/2000/svg" xmlns:xlink="http://www.w3.org/1999/xlink" x="0px" y="0px" viewBox="0 0 92.7 96.4"
	 style="enable-background:new 0 0 92.7 96.4;" xml:space="preserve">
<style type="text/css">
	.st0{opacity:0.502;fill-rule:evenodd;clip-rule:evenodd;fill:#DEE2FE;enable-background:new    ;}
	.st1{opacity:0.2;fill-rule:evenodd;clip-rule:evenodd;fill:#DEE2FE;enable-background:new    ;}
	.st2{clip-path:url(#SVGID_2_);}
	.st3{fill:#4B61F4;}
	.st4{opacity:0.1;}
	.st5{fill:#FFFFFF;}
	.st6{clip-path:url(#SVGID_4_);}
</style>
<metadata>
	<sfw  xmlns="&ns_sfw;">
		<slices></slices>
		<sliceSourceBounds  bottomLeftOrigin="true" height="160" width="170.4" x="503.6" y="-299.5"></sliceSourceBounds>
	</sfw>
</metadata>
<path class="st0" d="M31.3,80.4c2.6,0,4.8,2.1,4.8,4.8s-2.1,4.8-4.8,4.8s-4.8-2.1-4.8-4.8S28.6,80.4,31.3,80.4z"/>
<path class="st1" d="M59.6,10.9c18.3,0,33.1,14.8,33.1,33.1S77.8,77.1,59.6,77.1S26.5,62.3,26.5,44S41.3,10.9,59.6,10.9z"/>
<g>
	<defs>
		<rect id="SVGID_1_" y="-6.5" width="61.3" height="66.9"/>
	</defs>
	<clipPath id="SVGID_2_">
		<use xlink:href="#SVGID_1_"  style="overflow:visible;"/>
	</clipPath>
	<g class="st2">
		<path class="st3" d="M46.9,36.4c-2.5-0.3-8.8-2.2-15.6-3.3c1.4-2.7,2.2-5.4,2.3-6.5c0.3-1.5-4.8-7.9-6.1-9.7
			c-1.3-1.8,1.4-2.2,2.4-0.9c1,1.3,4.8,5.7,4.8,5.7l2.3-21.6c0,0-10.2,6.8-17.9,14.3C11.5,22,10.5,19.1,6,23.9S-5.2,40.9-7.1,49
			C-8.2,53.6-9,61.1-9.4,66.6l-0.6,0.3c0,0,3.3-20.1,3.1-30.2c-0.1-10.1-5-26.5-9.1-33.4c-4.1-6.9-6.1-3.7-13.3-14.7
			C-36.5-22.4-47-33.2-47-33.2l-2.9,26.5c0,0,5.7-4.2,7.2-5.6c1.5-1.4,4.6-0.2,2.6,1.7c-2,1.9-9.7,8.1-9.8,10c-0.1,1.9,0.4,8,2.9,13
			c2.5,5,3.2,7,4.2,6.7c1-0.3,7.2-9.3,9-11.9c1.8-2.6,5.5-1.1,2.1,3.3c-3.4,4.3-9.2,11-8.8,12.3c0.4,1.3,8.6,12.7,16.1,16.7
			c7.6,4,11.6,2.1,13,6c0.8,2.2-0.4,13.4-1.7,22.9c-0.3-4-0.7-10.5-1-12.9c-0.4-3.7-1.6-4.2-8.4-11.1c-6.8-6.8-23.8-4.6-27.9-5
			c-4.1-0.4-11.2-3.5-11.2-3.5s0,2.8,0.5,6.1c0.4,3.3,3,8,4.1,8.6c1.2,0.6,0.7-0.2,2.3-1.1c1.6-1,3-2.3,3.6-3.8
			c0.6-1.5,2.5-1.8,2.3-0.2c-0.3,1.5-1.6,4.3-2.4,5.6c-0.8,1.3-1.1,1.6,1.7,3c2.8,1.4,12.4,5.9,19.4,5.9c7,0.1,7.7,0.8,10.4,2
			c2.7,1.2,4.7,6.8,3,5.7c-0.7-0.4-2.9-0.2-5.4,0.4c-4.7,0.4-15.7,1.8-18.9,1.1c-3.3-0.7-6.1-3.6-6.3,3.8
			c-0.2,7.4,5.2,11.6,6.5,12.3c1.3,0.7,3,0.9,3.7,0.3c0.7-0.5,1.3-5.1,1.4-7.2c0.1-2.1,1.6-1.8,1.5-0.1c-0.1,1.6-0.1,2.3-0.5,4.7
			c-0.4,2.4,0.4,1.9,1.2,2c0.8,0.1,9.2-5.7,11.8-7.7c2.3-1.7,5-3.4,7.7-2c-0.5,3.9-0.9,6.6-0.9,6.6l1.5,0.2l1.1-5.3
			c2.5,4.1,2.3,19.1,2.3,19.1l4.3,0.5c0,0-1.7-6.1-3.1-12.5c0.2-3.4,0.7-9.5,1.3-15.1c0.2,0,0.4,0.1,0.6,0.1c2.9,1,9.8,10,10.9,11.9
			c1,1.9,0.9,3.3,0.9,3.3L22,86c0,0-2-12.5-5.2-15.6c-3.3-3.1-15.1-9.6-17.4-8.8c-2.3,0.9,1.5-5.4,5.1-6.1C8,54.8,9,54.1,17.4,55.8
			c8.4,1.7,21.1-1,24.8-2c3.7-1,3.5-1.4,2.8-3.1c-0.6-1.7-1.5-5.4-1.4-7.3c0.1-1.9,2.3-1.1,2.6,0.8c0.4,2,1.7,3.9,3.3,5.5
			c1.6,1.6,0.9,2.3,2.4,1.9c1.6-0.4,5.8-5.3,7.2-9.2c1.4-3.9,2.2-7.2,2.2-7.2S52,36.9,46.9,36.4z M-11.1,71.9c0,0,0.5-1.3,1.5-2.2
			c-0.2,2.4-0.3,4-0.3,4l-1.4-1L-11.1,71.9z M-6.3,65.2l-0.7,0.3c0.5-4.4,1.1-8,1.7-8.9c0.5-0.8,1.1-1.2,1.8-1.4
			C-4.9,60.2-6.3,65.2-6.3,65.2z M17.5,33c-0.1-0.2-0.2-0.5-0.4-0.7c-1.9-4,1.3-4.6,2.3-2.2c0.2,0.6,0.6,1.5,1,2.5
			C19.4,32.7,18.4,32.8,17.5,33z"/>
		<g class="st4">
			<path class="st5" d="M60.9,35.6c-1.6,0.3-9.5,1.6-14,1.2c-5-0.5-24.7-7.6-34.6-1.3s-11.5,6.8-12.9,11c-0.2,0.6-0.4,1.3-0.7,2.2
				c4.1-4,9.9-7.9,17.5-8.8c17-1.9,20.5-0.4,31.2,0.2C53.8,40.5,58.3,37.7,60.9,35.6z"/>
			<path class="st5" d="M-8.9,58.8C-8,52.1-7,42.9-7,37.1C-7.2,27-12,10.6-16.1,3.7S-22.2,0-29.4-11s-17.7-21.8-17.7-21.8l-1.1,10.6
				c2.8,0.5,10.1,2.7,13.7,10.8C-30-1.3-25,11.7-19.4,17.3S-8.6,32-8.4,39.4C-8.3,46.9-8.9,58.8-8.9,58.8z"/>
		</g>
		<g class="st4">
			<path class="st5" d="M-60.9,35.8c1.2,0.5,7.3,3,11,3.4c4.1,0.4,21.1-1.8,27.9,5s8,7.4,8.4,11.1c0.1,0.5,0.1,1.1,0.2,1.8
				c-2.6-3.9-6.5-8-12.5-10.1c-13.3-4.5-16.3-3.9-24.9-5.3C-56.1,40.9-59.2,38-60.9,35.8z"/>
			<path class="st5" d="M-9.2,66.6c0.4-5.5,1.2-13,2.3-17.7c1.9-8,8.6-20.3,13.1-25.1s5.5-1.9,13.2-9.4S37.3,0.1,37.3,0.1l-0.9,8.6
				C34,8.7,27.8,9.1,23.5,15c-5.4,7.3-11.6,16.8-17.1,20.3C1,38.7-4.8,45.1-6.2,51C-7.7,56.9-9.2,66.6-9.2,66.6z"/>
		</g>
	</g>
</g>
<g>
	<defs>
		<rect id="SVGID_3_" y="77.9" width="26.5" height="24"/>
	</defs>
	<clipPath id="SVGID_4_">
		<use xlink:href="#SVGID_3_"  style="overflow:visible;"/>
	</clipPath>
	<g class="st6">
		<path class="st3" d="M-77.7,77.4c0,0,0.6,2.7,1.7,5.8c1.1,3.1,4.6,7.1,5.8,7.4c1.3,0.3,0.6-0.3,2-1.6c1.3-1.3,2.4-2.8,2.7-4.4
			c0.3-1.6,2.1-2.2,2.1-0.7c0.1,1.6-0.6,4.5-1.1,5.9c-0.5,1.4-0.7,1.8,2.3,2.5c3,0.8,13.3,3,20,1.6c6.8-1.4,7.6-0.8,10.5-0.2
			c2.9,0.6,6,5.6,4.1,4.9s-11.4,4.6-14.1,7.1c-2.6,2.5-4.2,12.6-4.2,12.6l13.7-1.5c0,0-0.1-1.1,0.7-2.6c0.8-1.5,6.4-8.8,8.8-9.7
			c0.2-0.1,0.3-0.1,0.5-0.1c0.5,4.6,0.9,9.5,1.1,12.2c-1.1,5.1-2.5,10.1-2.5,10.1l3.5-0.4c0,0-0.2-12.2,1.9-15.5l0.9,4.3l1.2-0.1
			c0,0-0.3-2.2-0.8-5.3c2.2-1.2,4.3,0.2,6.2,1.6c2.1,1.6,8.9,6.3,9.6,6.2c0.7-0.1,1.3,0.3,0.9-1.6c-0.3-1.9-0.3-2.5-0.4-3.8
			c-0.1-1.3,1.1-1.6,1.2,0.1c0.1,1.7,0.6,5.4,1.2,5.8c0.5,0.4,1.9,0.3,3-0.3c1.1-0.6,5.4-4,5.3-9.9c-0.2-6-2.5-3.6-5.1-3.1
			c-2.6,0.5-11.5-0.6-15.3-0.9c-2-0.5-3.8-0.7-4.4-0.3c-1.4,0.9,0.2-3.7,2.4-4.6c2.2-1,2.7-1.6,8.4-1.6c5.6-0.1,13.5-3.6,15.7-4.8
			c2.2-1.2,2-1.4,1.4-2.4c-0.7-1-1.7-3.3-2-4.5c-0.2-1.3,1.3-1.1,1.8,0.2c0.5,1.2,1.6,2.3,2.9,3.1c1.3,0.8,0.9,1.4,1.8,0.9
			c1-0.5,3-4.2,3.4-6.9c0.3-2.7,0.4-5,0.4-5s-5.8,2.4-9.1,2.8C9,81-4.7,79.2-10.2,84.8c-5.5,5.5-6.5,6-6.8,8.9
			c-0.2,2-0.6,7.2-0.8,10.5c-1-7.7-2-16.8-1.3-18.5c1.1-3.1,4.4-1.6,10.5-4.8c6.1-3.2,12.7-12.4,13.1-13.5c0.3-1-4.4-6.4-7.1-9.9
			c-2.7-3.5,0.3-4.7,1.7-2.6c1.5,2.1,6.5,9.3,7.3,9.6C7.2,64.6,7.8,63,9.8,59c2-4,2.4-9,2.3-10.5c-0.1-1.6-6.3-6.6-7.9-8.1
			c-1.6-1.5,0.9-2.4,2.1-1.3c1.2,1.1,5.8,4.5,5.8,4.5L9.8,22.1c0,0-8.4,8.7-14.3,17.6c-5.8,8.9-7.5,6.3-10.8,11.9
			c-3.3,5.6-7.2,18.9-7.3,27C-22.7,86.8-20,103-20,103l-0.5-0.2c-0.4-4.5-1-10.5-1.9-14.3c-1.5-6.5-7-16.4-10.6-20.3
			c-3.6-3.9-4.5-1.5-10.7-7.6c-6.2-6.1-14.5-11.6-14.5-11.6l1.9,17.5c0,0,3.1-3.5,3.9-4.6c0.8-1.1,2.9-0.8,1.9,0.7
			c-1,1.5-5.1,6.6-4.9,7.8c0.2,0.9,0.8,3,1.9,5.2c-5.5,0.8-10.6,2.4-12.6,2.6C-70.2,78.8-77.7,77.4-77.7,77.4z M-19,107.6l-1.1,0.8
			c0,0-0.1-1.3-0.2-3.2c0.8,0.7,1.2,1.8,1.2,1.8L-19,107.6z M-25.4,93.6c0.6,0.2,1.1,0.5,1.5,1.1c0.5,0.8,1,3.7,1.4,7.2l-0.5-0.2
			C-23.1,101.7-24.2,97.7-25.4,93.6z M-44.7,75.3c0.4-0.8,0.7-1.6,0.8-2c0.8-1.9,3.4-1.5,1.8,1.8c-0.1,0.2-0.2,0.4-0.3,0.6
			C-43.1,75.5-43.9,75.4-44.7,75.3z"/>
		<g class="st4">
			<path class="st5" d="M-77.4,77.7c1.3,0.2,7.7,1.3,11.4,0.9c4.1-0.4,20-6.2,28-1s9.3,5.5,10.5,8.9c0.2,0.4,0.3,1,0.6,1.7
				c-3.3-3.3-8-6.4-14.2-7.1c-13.8-1.5-16.6-0.3-25.2,0.2C-71.6,81.7-75.3,79.5-77.4,77.7z"/>
			<path class="st5" d="M-20.9,96.5c-0.7-5.4-1.6-12.8-1.5-17.6c0.1-8.2,4-21.4,7.3-27s4.9-3,10.8-11.9S9.9,22.4,9.9,22.4l0.9,8.5
				c-2.2,0.4-8.1,2.2-11.1,8.7c-3.7,8.2-7.7,18.7-12.2,23.2s-8.8,11.9-8.9,17.9C-21.5,86.9-20.9,96.5-20.9,96.5z"/>
		</g>
		<g class="st4">
			<path class="st5" d="M21.1,77.9c-1,0.4-5.9,2.4-8.9,2.7c-3.3,0.4-17-1.4-22.5,4.1c-5.5,5.5-6.5,6-6.8,8.9c0,0.4-0.1,0.9-0.1,1.5
				C-15.2,92-12,88.6-7.2,87c10.7-3.6,13.2-3.2,20.2-4.3C17.2,82,19.7,79.7,21.1,77.9z"/>
			<path class="st5" d="M-20.7,102.8c-0.4-4.5-1-10.5-1.9-14.3c-1.5-6.5-7-16.4-10.6-20.3c-3.6-3.9-4.5-1.5-10.7-7.6
				C-50,54.5-58.3,49-58.3,49l0.8,7c1.9,0,6.9,0.3,10.4,5c4.4,5.9,9.4,13.6,13.8,16.4c4.4,2.8,9.1,8,10.2,12.8
				C-22,95-20.7,102.8-20.7,102.8z"/>
		</g>
	</g>
</g>
</svg>
