<?xml version="1.0" encoding="utf-8"?>
<!-- Generator: Adobe Illustrator 23.0.2, SVG Export Plug-In . SVG Version: 6.00 Build 0)  -->
<!DOCTYPE svg PUBLIC "-//W3C//DTD SVG 1.1//EN" "http://www.w3.org/Graphics/SVG/1.1/DTD/svg11.dtd" [
	<!ENTITY ns_extend "http://ns.adobe.com/Extensibility/1.0/">
	<!ENTITY ns_ai "http://ns.adobe.com/AdobeIllustrator/10.0/">
	<!ENTITY ns_graphs "http://ns.adobe.com/Graphs/1.0/">
	<!ENTITY ns_vars "http://ns.adobe.com/Variables/1.0/">
	<!ENTITY ns_imrep "http://ns.adobe.com/ImageReplacement/1.0/">
	<!ENTITY ns_sfw "http://ns.adobe.com/SaveForWeb/1.0/">
	<!ENTITY ns_custom "http://ns.adobe.com/GenericCustomNamespace/1.0/">
	<!ENTITY ns_adobe_xpath "http://ns.adobe.com/XPath/1.0/">
]>
<svg version="1.1" id="Layer_1" xmlns:x="&ns_extend;" xmlns:i="&ns_ai;" xmlns:graph="&ns_graphs;"
	 xmlns="http://www.w3.org/2000/svg" xmlns:xlink="http://www.w3.org/1999/xlink" x="0px" y="0px" viewBox="0 0 95.6 197"
	 style="enable-background:new 0 0 95.6 197;" xml:space="preserve">
<style type="text/css">
	.st0{fill:#FFA082;}
	.st1{fill:#FFCCAD;}
	.st2{fill:#4A4F69;}
	.st3{fill:#2B2C3D;}
	.st4{fill:#1F2E3F;}
	.st5{fill:#FAFAFA;}
	.st6{fill:#603989;}
	.st7{fill:#4A60F1;}
	.st8{fill:#3451DF;}
	.st9{fill:#F56977;}
</style>
<metadata>
	<sfw  xmlns="&ns_sfw;">
		<slices></slices>
		<sliceSourceBounds  bottomLeftOrigin="true" height="197" width="95.6" x="-49.8" y="-330.1"></sliceSourceBounds>
	</sfw>
</metadata>
<g id="XMLID_1134_">
	<g id="XMLID_157_">
		<path id="XMLID_1482_" class="st0" d="M66.7,182.5c0,0,0.5,3.2,0.9,5.5c0.3,1.7,6.6,5.1,6.6,5.1l-15.7,1.1l-0.7-2.2l-1.2-10.2
			L66.7,182.5z"/>
	</g>
	<g id="XMLID_332_">
		<path id="XMLID_1480_" class="st1" d="M40.7,182.5c0,0-0.5,6.8-0.1,9.4c0.3,1.9-8.1,3.5-8.1,3.5l-1.7-2.4l-0.2-11.2L40.7,182.5z"
			/>
	</g>
	<g id="XMLID_344_">
		<path id="XMLID_1470_" class="st2" d="M28.4,92.8c0,0-0.1,88.9,1.6,90.5c1.7,1.7,10.8,1.8,11.7,0c0.8-1.8,2-73.3,2-73.3
			s10.2,71.8,11,73.3c0.8,1.5,11.3,1.7,12.2,0c0.8-1.7-7.2-92.5-7.2-92.5L28.4,92.8z"/>
	</g>
	<g id="XMLID_559_">
		<path id="XMLID_1468_" class="st3" d="M43.6,110c0,0,3.9-1.4,5.6-5.8c1.7-4.4-3.6,13.4-2.8,21.7C47.2,134.1,43.6,110,43.6,110z"/>
	</g>
	<g id="XMLID_564_">
		<path id="XMLID_1467_" class="st3" d="M28.4,92.8l31.2-2c0,0-4.5,6.7-28.2,5.2c-2-0.1-2.9,17.7-2.9,17.7L28.4,92.8z"/>
	</g>
	<g id="XMLID_153_">
		<path id="XMLID_1466_" class="st4" d="M57.8,190.2c-0.1-0.1-0.3,0-0.4,0.1c-0.2,0.7-0.6,2.3-0.1,3.8c0.5,1.3,0.7,2.1,0.7,2.4
			c0,0.2,0.2,0.3,0.3,0.3h5.4c0.1,0,0.1,0,0.2-0.1c0.3-0.2,1.4-0.9,3.9-0.2c2.5,0.6,13.4,0.1,14,0c1-0.1,3.5-1.3,1.1-3.5
			c-2.4-2.2-4.4-0.3-8.9-2.8c-4.5-2.5-5.2-3.1-5.7-2.6c-0.6,0.5-0.2,2.1-0.9,2.9C67,191.1,59.2,191.3,57.8,190.2z"/>
	</g>
	<g id="XMLID_558_">
		<path id="XMLID_1465_" class="st1" d="M45.1,29.4c0,0-1.3,2.9-0.2,5.3c1.2,2.6,4,7.3,4.9,12.9c0.9,5.5-7,0.5-7,0.5l-8.2-10.8
			c0,0,1.8-4.7,0.3-12.7C33.4,16.6,45.1,29.4,45.1,29.4z"/>
	</g>
	<g id="XMLID_555_">
		<path id="XMLID_1464_" class="st0" d="M34.9,24.6l3-0.6l7.3,5.4l-0.4,1.3c0,0.2-3.5,2.5-7.5-1.3c-0.3-0.3-0.3,0.9-0.8,3.9
			C36,36,35.5,36,35,35.8C35.6,33.3,35.6,29.9,34.9,24.6z"/>
	</g>
	<g id="XMLID_552_">
		<path id="XMLID_1463_" class="st1" d="M49.9,17.4c0.1,3.7,0,7.4-2.1,10c-1.6,2-3.6,2.8-5.7,2.8c-4.4,0.1-9.9-6.7-10.1-13.7
			C32,9.6,37.3,5,41.7,4.9C46.1,4.8,49.8,10.4,49.9,17.4z"/>
	</g>
	<g id="XMLID_548_">
		<path id="XMLID_1462_" class="st1" d="M31.9,14.8c0,0-1.6-0.7-2.3,0.3c-0.8,1.1,1.6,5.6,4.2,5.5C36.5,20.4,31.9,14.8,31.9,14.8z"
			/>
	</g>
	<g id="XMLID_550_">
		<path id="XMLID_1461_" class="st4" d="M31,14.6c0,0,1.6,0,1.8,1.7c0.1,1.7,1.7,0.1,1.6,0c-0.1-0.1-1.1-5.7,1.1-5.8
			c2.2,0,4.8,0.7,6.4-0.7c1.6-1.4,2.2-1.4,2.7-0.2s3.4,3.1,5.5,1.6c2.1-1.5,2.9-5.5,1.6-8.1c-1.3-2.5-5.3-4.6-8.8-1.3
			c-3.2,3-5.1,1.5-6.7,1.9C33.9,4.1,29.4,5.5,31,14.6z"/>
	</g>
	<g id="XMLID_583_">
		<path id="XMLID_1460_" class="st0" d="M63.4,40.6l17.3,20l-3.8,9.5l-9.4-8.3l-7.9-6.5l2.2-14.2C61.9,40.3,62.9,40,63.4,40.6z"/>
	</g>
	<g id="XMLID_580_">
		<path id="XMLID_1459_" class="st1" d="M75,67.6c0,0-0.3-9.4,6.8-25.1c3.1-6.9,5.8-9,5.8-9l4.1,2.5c0,0-5.5,9.5-5.8,12.7
			c-0.8,8.9,0.2,17.4-2.5,20.7C80.8,72.7,75.9,70.8,75,67.6z"/>
	</g>
	<g id="XMLID_577_">
		<polygon id="XMLID_1458_" class="st4" points="86.5,46.4 93.5,46.4 94.6,33.4 85.4,33.4 		"/>
	</g>
	<g id="XMLID_561_">
		<polygon id="XMLID_1457_" class="st5" points="86.2,42.8 85.7,36.9 94.3,36.9 93.8,42.8 		"/>
	</g>
	<g id="XMLID_556_">
		<polygon id="XMLID_1456_" class="st6" points="84.3,33.3 95.6,33.3 94.5,31.6 85.4,31.6 		"/>
	</g>
	<g id="XMLID_551_">
		<path id="XMLID_1455_" class="st1" d="M85.4,37.9c0,0,2.1-2,3.4-2.2c1.7-0.1-3.1,4.4-3.1,4.4L85.4,37.9z"/>
	</g>
	<g id="XMLID_553_">
		<path id="XMLID_1454_" class="st7" d="M62.2,39.1l9.2,10.1c0.2,0.2,0.2,0.5,0.2,0.7l-5.2,10c-0.2,0.6-0.8,0.8-1.3,0.4l-5-4.1
			C60.1,56.2,57,44.7,62.2,39.1z"/>
	</g>
	<g id="XMLID_557_">
		<path id="XMLID_1453_" class="st1" d="M9.2,50.2c0,0-8,10.2-9.2,16.2s19.2,20.4,19.2,20.4s5.8,8,8.9,6.2s3-6.4,2.3-8.1
			c-0.6-1.8-7.2-4.1-8.2-5.2s-10.5-13-10.5-13s0.4-2.2,5.9-7.8S9.2,50.2,9.2,50.2z"/>
	</g>
	<g id="XMLID_575_">
		<path id="XMLID_1452_" class="st4" d="M29.5,195.8V194c0-0.2,0-0.4,0.1-0.5c0.4-0.7,1.7-2.6,6-2.6c4.2,0,6,1.8,6.6,2.5
			c0.1,0.2,0.2,0.4,0.2,0.7v1.8c0,0.7-0.5,1.2-1.2,1.2H30.7C30.1,197,29.5,196.5,29.5,195.8z"/>
	</g>
	<g id="XMLID_554_">
		<path id="XMLID_1451_" class="st7" d="M35.3,36.1c-0.1-0.4-0.5-0.6-0.9-0.6c-2.7,0.5-12.7,2.6-15.7,4.1c-3,1.6-9.4,8.8-11.2,10.7
			c-0.3,0.3-0.2,0.7,0,1l8.4,8.8c0.3,0.3,0.7,0.3,1,0.1l5-4c0.4-0.3,1-0.1,1.2,0.4c0.8,3,3,11.5,4.1,17.5c1.2,6.3,1.1,15.6,1,18.1
			c0,0.4,0.3,0.7,0.7,0.7c2.7,0.3,12.8,1.3,21,0.3c6.8-0.8,8.9-1.8,9.4-2.3c0.2-0.1,0.2-0.3,0.2-0.5l0.5-33.3c0-0.1,0-1,0.1-1.1
			c0.7-1.5,6.6-14.1,2.1-17.1c-0.9-0.6-12.6-2.8-16-3.5c-0.4-0.1-0.7,0.2-0.7,0.6c-0.1,1-0.8,2.8-3.3,3.4
			C38.7,40.5,36.2,39.4,35.3,36.1z"/>
	</g>
	<g id="XMLID_599_">
		<path id="XMLID_1450_" class="st8" d="M57.7,49.8C57,46.8,60,62.3,59.8,73.2l0.2-15.9c0-0.1,0-1,0.1-1.1l1.4,1.1
			C60.3,55.6,58.1,51.3,57.7,49.8z"/>
	</g>
	<g id="XMLID_570_">
		<path id="XMLID_1449_" class="st8" d="M28.2,69.5C28.2,69.5,28.2,69.5,28.2,69.5c-0.1-0.3-0.1-0.5-0.2-0.8
			c-0.1-0.3-0.1-0.5-0.2-0.7v0c-2.2-9-3-16.8-3.8-15c-0.9,1.8-4.5,5.2-4.5,5.2l2.4-1.9c0.4-0.3,1-0.1,1.2,0.4c0,0.2,0.1,0.3,0.1,0.5
			c0,0.1,0,0.2,0.1,0.2c0,0.1,0.1,0.3,0.1,0.4c0,0.1,0,0.2,0.1,0.3c0,0.2,0.1,0.3,0.1,0.5c0,0.1,0.1,0.3,0.1,0.4
			c0,0.2,0.1,0.4,0.1,0.6c0,0.1,0.1,0.3,0.1,0.4c0,0.1,0.1,0.3,0.1,0.4c0,0.2,0.1,0.3,0.1,0.5c0,0.2,0.1,0.4,0.1,0.5
			c0.1,0.3,0.1,0.6,0.2,0.9c0,0.1,0.1,0.3,0.1,0.4c0.1,0.2,0.1,0.4,0.2,0.6c0,0.1,0.1,0.3,0.1,0.4c0,0.2,0.1,0.4,0.1,0.6
			c0,0.1,0.1,0.3,0.1,0.4c0.1,0.4,0.2,0.7,0.3,1.1c0,0.2,0.1,0.3,0.1,0.5c0,0.2,0.1,0.4,0.1,0.6c0,0.2,0.1,0.3,0.1,0.5
			c0,0.2,0.1,0.4,0.1,0.6c0.5,2.1,0.9,4.1,1.2,6c1.2,6.3,1.1,15.6,1,18.1c0,0.4,0.3,0.7,0.7,0.7c0.7,0.1,1.9,0.2,3.5,0.3
			C32.3,93.4,30.1,78,28.2,69.5z"/>
	</g>
	<g id="XMLID_560_">
		<path id="XMLID_1448_" class="st1" d="M0,66.4c-1.1,6,19.2,20.4,19.2,20.4s5.8,8,8.9,6.2s3-6.4,2.3-8.1c-0.6-1.8-7.2-4.1-8.2-5.2
			s-10.5-13-10.5-13S1.2,60.4,0,66.4z"/>
	</g>
	<g id="XMLID_617_">
		<path id="XMLID_1447_" class="st9" d="M48.6,36.1c-1-0.2-1.8-0.3-2.3-0.4c-0.3,0-0.5,0-0.7,0.2c0,0.3-0.1,1-0.5,1.6
			c-0.4,0.8-1.1,1.7-2.8,2.2c-0.2,0-0.3,0.1-0.5,0.1c-0.1,0-0.1,0-0.2,0c-3.2,0.6-5.4-0.6-6.3-3.7c-0.1-0.4-0.5-0.6-0.9-0.6
			c-0.5,0.1-1.2,0.2-2.2,0.4c0.5,2.6,0.8,5.8,6,5.8c0.3,0,0.6,0,1-0.1C44.9,41.2,48.4,38.4,48.6,36.1z"/>
	</g>
</g>
</svg>
