<?xml version="1.0" encoding="utf-8"?>
<!-- Generator: Adobe Illustrator 23.0.2, SVG Export Plug-In . SVG Version: 6.00 Build 0)  -->
<!DOCTYPE svg PUBLIC "-//W3C//DTD SVG 1.1//EN" "http://www.w3.org/Graphics/SVG/1.1/DTD/svg11.dtd" [
	<!ENTITY ns_extend "http://ns.adobe.com/Extensibility/1.0/">
	<!ENTITY ns_ai "http://ns.adobe.com/AdobeIllustrator/10.0/">
	<!ENTITY ns_graphs "http://ns.adobe.com/Graphs/1.0/">
	<!ENTITY ns_vars "http://ns.adobe.com/Variables/1.0/">
	<!ENTITY ns_imrep "http://ns.adobe.com/ImageReplacement/1.0/">
	<!ENTITY ns_sfw "http://ns.adobe.com/SaveForWeb/1.0/">
	<!ENTITY ns_custom "http://ns.adobe.com/GenericCustomNamespace/1.0/">
	<!ENTITY ns_adobe_xpath "http://ns.adobe.com/XPath/1.0/">
]>
<svg version="1.1" id="text" xmlns:x="&ns_extend;" xmlns:i="&ns_ai;" xmlns:graph="&ns_graphs;"
	 xmlns="http://www.w3.org/2000/svg" xmlns:xlink="http://www.w3.org/1999/xlink" x="0px" y="0px" viewBox="0 0 121.3 114.1"
	 style="enable-background:new 0 0 121.3 114.1;" xml:space="preserve">
<style type="text/css">
	.st0{clip-path:url(#SVGID_2_);}
	.st1{fill:#D0D5FD;}
	.st2{fill:#B1B9FC;}
	.st3{fill:#FFFFFF;}
	.st4{fill:url(#SVGID_3_);}
	.st5{fill:#EFF1FE;}
	.st6{fill:#FFDFD4;}
	.st7{fill:#446DFF;}
	.st8{fill:#FFCFBE;}
	.st9{fill:#FF5617;}
	.st10{fill:#10163A;}
	.st11{fill:url(#SVGID_4_);}
	.st12{fill:url(#SVGID_5_);}
	.st13{fill:#4A4F69;}
	.st14{fill:url(#SVGID_6_);}
	.st15{fill:url(#SVGID_7_);}
	.st16{opacity:0.15;fill:#1F191A;}
	.st17{fill:#E0E3FE;}
	.st18{fill:#C1C7FD;}
</style>
<metadata>
	<sfw  xmlns="&ns_sfw;">
		<slices></slices>
		<sliceSourceBounds  bottomLeftOrigin="true" height="170" width="121.3" x="709.3" y="-325.7"></sliceSourceBounds>
	</sfw>
</metadata>
<g>
	<defs>
		<rect id="SVGID_1_" width="121.3" height="114.1"/>
	</defs>
	<clipPath id="SVGID_2_">
		<use xlink:href="#SVGID_1_"  style="overflow:visible;"/>
	</clipPath>
	<g class="st0">
		<g>
			<g>
				<path class="st1" d="M29.1,15.6c-12.4,7.7-8.6,25.7-8.4,38.1c0.2,13.7,0.4,27.4,0.6,41.1c0,0.8-1.3,0.8-1.3,0
					c-0.2-16.4-0.4-32.8-0.7-49.2c-0.2-11.6-2.1-24.2,9.1-31.2C29.1,14.1,29.8,15.2,29.1,15.6L29.1,15.6z"/>
			</g>
			<path class="st1" d="M22.2,21.9c0.6-1.2,1.2-2.4,2-3.4c1.3-1.5,3.1-2.6,4.9-3.6l0.3,0.1c1,2.6,1.5,5.5,1,8.3
				c-0.5,2.8-2.2,5.4-4.8,6.6c-1.9,0.9-4.1,1-5.8,2.1C19.2,28.6,20.6,25.1,22.2,21.9z"/>
			<g>
				<path class="st1" d="M9.1,0c12.3,4.9,9.7,23.6,10.2,34.2c0.8,17.9,1.3,35.8,1.2,53.7c0,0.8-1.3,0.8-1.3,0
					c0.1-14.9-0.1-29.8-0.8-44.7c-0.3-6.7-0.6-13.4-0.9-20.2c-0.4-7.8,0-18.3-8.7-21.8C8,1,8.4-0.3,9.1,0L9.1,0z"/>
			</g>
			<g>
				<path class="st1" d="M17.6,21.6c0-0.1,0-0.1,0.1-0.2c0.2,0.3,0.4,0.6,0.5,0.9L17.6,21.6z"/>
				<path class="st1" d="M8.4,1.1C8.5,1,8.6,0.8,8.8,0.7c0.2-0.1,0.4,0,0.6,0c4,1.2,7.2,4.6,8.6,8.6c1.4,3.9,1.1,8.2-0.3,12.1
					c-1.5-2.4-4.6-3.6-6.8-5.6C7,12.2,6.4,6,8.4,1.1z"/>
			</g>
			<path class="st2" d="M14.8,109.4h9.6c3.2,0,5.8-2.6,5.8-5.8V87.9H9v15.6C9,106.8,11.6,109.4,14.8,109.4z"/>
			<g>
				<path class="st1" d="M19.1,62.5c0.2-5,0.4-10.8-3.3-14.7c-2.9-3-10.2-5.1-14.4-5.2c-0.8,0-0.8-1.3,0-1.3
					c3.2,0.1,6.4,1.3,9.4,2.3c2.2,0.7,4.3,1.6,5.9,3.3c4,4.1,3.8,10.3,3.6,15.6C20.3,63.3,19.1,63.3,19.1,62.5L19.1,62.5z"/>
			</g>
			<path class="st1" d="M0.1,40.7c0.1-0.1,0.2-0.1,0.3-0.1c1.6,0,3.1,0,4.7,0c1.3,0,2.7,0,4,0.4c2.6,0.7,4.7,2.6,6.4,4.8l0.5,0.1
				c-2.4,0.8-4.8,1.8-7.3,2c-2.5,0.3-5.3-0.4-6.9-2.4c-1-1.3-1.4-2.9-1.7-4.5C0,40.9,0,40.8,0.1,40.7z"/>
		</g>
		<g>
			<g>
				<path class="st3" d="M66,50.5H21c-2.8,0-5.1-2.3-5.1-5.1v-38c0-2.8,2.3-5.1,5.1-5.1h45c2.8,0,5.1,2.3,5.1,5.1v38
					C71.1,48.2,68.8,50.5,66,50.5z"/>
				<linearGradient id="SVGID_3_" gradientUnits="userSpaceOnUse" x1="69.7153" y1="7.209363e-02" x2="11.2153" y2="17.0721">
					<stop  offset="5.282353e-03" style="stop-color:#F99747"/>
					<stop  offset="0.3696" style="stop-color:#F77D62"/>
					<stop  offset="1" style="stop-color:#F3538C"/>
				</linearGradient>
				<path class="st4" d="M66.5,2.2H20.4c-2.5,0-4.6,2.1-4.6,4.6v5.2h55.3V6.8C71.1,4.3,69,2.2,66.5,2.2z"/>
				<path class="st3" d="M22.9,7.1C22.9,7.6,22.5,8,22,8c-0.5,0-0.8-0.4-0.8-0.8c0-0.5,0.4-0.8,0.8-0.8C22.5,6.3,22.9,6.7,22.9,7.1z
					"/>
				<path class="st3" d="M26.5,7.1c0,0.5-0.4,0.8-0.8,0.8c-0.5,0-0.8-0.4-0.8-0.8c0-0.5,0.4-0.8,0.8-0.8C26.2,6.3,26.5,6.7,26.5,7.1
					z"/>
				<path class="st3" d="M26.5,7.1c0,0.5-0.4,0.8-0.8,0.8c-0.5,0-0.8-0.4-0.8-0.8c0-0.5,0.4-0.8,0.8-0.8C26.2,6.3,26.5,6.7,26.5,7.1
					z"/>
				<path class="st3" d="M30.2,7.1c0,0.5-0.4,0.8-0.8,0.8c-0.5,0-0.8-0.4-0.8-0.8c0-0.5,0.4-0.8,0.8-0.8C29.8,6.3,30.2,6.7,30.2,7.1
					z"/>
				<rect x="26.2" y="33.7" class="st5" width="35.4" height="1.8"/>
				<rect x="26.2" y="37.9" class="st5" width="35.4" height="1.8"/>
				<rect x="26.2" y="42" class="st6" width="13.3" height="1.8"/>
				<g>
					<path class="st7" d="M26.2,25.3c0-1,0.5-1.7,1.3-2.1c-0.6-0.4-0.9-1-0.9-1.7c0-1.4,1.2-2.3,2.6-2.3c1.4,0,2.6,0.9,2.6,2.3
						c0,0.7-0.3,1.3-0.9,1.7c0.8,0.4,1.3,1.2,1.3,2.1c0,1.7-1.4,2.7-3,2.7C27.5,28,26.2,26.9,26.2,25.3z M28,25.2
						c0,0.6,0.4,1.2,1.1,1.2c0.7,0,1.1-0.6,1.1-1.2c0-0.8-0.4-1.2-1.1-1.2C28.4,24,28,24.5,28,25.2z M28.3,21.7
						c0,0.5,0.3,0.9,0.9,0.9s0.9-0.4,0.9-0.9c0-0.5-0.3-0.9-0.9-0.9S28.3,21.2,28.3,21.7z"/>
					<path class="st7" d="M32.9,21.2c0-1,0.8-1.9,1.8-1.9s1.8,0.9,1.8,1.9c0,1-0.8,1.9-1.8,1.9S32.9,22.2,32.9,21.2z M35.4,21.2
						c0-0.4-0.2-0.7-0.6-0.7s-0.6,0.3-0.6,0.7s0.2,0.7,0.6,0.7S35.4,21.5,35.4,21.2z M38.3,19.5c0.2-0.3,0.3-0.4,0.6-0.4
						c0.4,0,0.7,0.3,0.7,0.7c0,0.1,0,0.2-0.1,0.4l-4,7.5c-0.2,0.3-0.3,0.4-0.5,0.4c-0.3,0-0.7-0.3-0.7-0.7c0-0.2,0.1-0.3,0.1-0.4
						L38.3,19.5z M37.2,26.1c0-1,0.8-1.9,1.8-1.9s1.8,0.9,1.8,1.9c0,1-0.8,1.9-1.8,1.9S37.2,27.2,37.2,26.1z M39.6,26.1
						c0-0.4-0.2-0.7-0.6-0.7s-0.6,0.3-0.6,0.7s0.2,0.7,0.6,0.7S39.6,26.5,39.6,26.1z"/>
				</g>
				<g>
					<g>
						<path class="st1" d="M45.8,25.8c-0.2,0-0.4-0.2-0.6-0.2c-0.5,0-0.7,0.4-0.7,0.8c0,0.4,0.2,0.8,0.7,0.8c0.2,0,0.5-0.2,0.6-0.2
							c0.2,0,0.3,0.2,0.3,0.4c0,0.4-0.7,0.6-1,0.6c-0.9,0-1.4-0.7-1.4-1.5c0-0.8,0.6-1.6,1.4-1.6c0.3,0,1,0.1,1,0.5
							C46.1,25.5,46,25.8,45.8,25.8z"/>
						<path class="st1" d="M46.4,25.3c0-0.3,0.2-0.4,0.4-0.4c0.2,0,0.4,0.2,0.4,0.4v0.7l0.9-1c0.1-0.1,0.3-0.2,0.4-0.2
							c0.2,0,0.3,0.2,0.3,0.4c0,0.1-0.1,0.2-0.2,0.3l-0.7,0.8l1,0.9c0.1,0.1,0.1,0.2,0.1,0.3c0,0.2-0.2,0.4-0.4,0.4
							c-0.1,0-0.3-0.1-0.4-0.2l-1-1h0v0.8c0,0.3-0.2,0.4-0.4,0.4c-0.2,0-0.4-0.2-0.4-0.4V25.3z"/>
						<path class="st1" d="M51.4,27.9c-0.2,0-0.4-0.2-0.4-0.4v-1.2h0l-1.1,1.4c-0.1,0.1-0.2,0.2-0.3,0.2c-0.2,0-0.4-0.2-0.4-0.4
							v-2.1c0-0.3,0.2-0.4,0.4-0.4c0.2,0,0.4,0.2,0.4,0.4v1.2h0l1-1.4c0.1-0.1,0.3-0.2,0.4-0.2c0.2,0,0.4,0.2,0.4,0.4v2.1
							C51.8,27.8,51.6,27.9,51.4,27.9z"/>
						<path class="st1" d="M55,28.7c-0.2,0-0.4-0.2-0.4-0.4v-0.4h-1.7v0.4c0,0.3-0.2,0.4-0.4,0.4c-0.2,0-0.4-0.2-0.4-0.4v-0.7
							c0-0.3,0.2-0.4,0.4-0.4h0c0.2-0.5,0.2-1.1,0.2-1.8c0-0.3,0.2-0.4,0.4-0.4h1.4c0.2,0,0.4,0.2,0.4,0.4v1.8h0
							c0.2,0,0.4,0.2,0.4,0.4v0.7C55.4,28.6,55.2,28.7,55,28.7z M54.2,25.6h-0.7c0,0.6-0.1,1.2-0.2,1.7h0.9V25.6z"/>
						<path class="st1" d="M55.6,25.3c0-0.3,0.2-0.4,0.4-0.4c0.2,0,0.4,0.2,0.4,0.4v0.7l0.9-1c0.1-0.1,0.3-0.2,0.4-0.2
							c0.2,0,0.3,0.2,0.3,0.4c0,0.1-0.1,0.2-0.2,0.3l-0.7,0.8l1,0.9c0.1,0.1,0.1,0.2,0.1,0.3c0,0.2-0.2,0.4-0.4,0.4
							c-0.1,0-0.3-0.1-0.4-0.2l-1-1h0v0.8c0,0.3-0.2,0.4-0.4,0.4c-0.2,0-0.4-0.2-0.4-0.4V25.3z"/>
						<path class="st1" d="M59.4,28c-0.6,0-1.1-0.3-1.1-1c0-0.9,1.1-1,1.8-1v-0.2c0-0.2-0.1-0.2-0.4-0.2c-0.5,0-0.6,0.3-0.8,0.3
							c-0.2,0-0.4-0.2-0.4-0.3c0-0.3,0.6-0.6,1.1-0.6c0.7,0,1.2,0.3,1.2,0.9v1.7c0,0.2-0.2,0.4-0.4,0.4c-0.2,0-0.3,0-0.4-0.3
							C60,27.9,59.7,28,59.4,28z M59.5,27.3c0.4,0,0.6-0.2,0.6-0.6v-0.1c-0.5,0-1.1,0-1.1,0.4C59.1,27.2,59.3,27.3,59.5,27.3z"/>
					</g>
				</g>
			</g>
		</g>
		<g>
			
				<rect x="66" y="155.7" transform="matrix(-1 -1.224647e-16 1.224647e-16 -1 136.6838 318.5563)" class="st8" width="4.7" height="7.1"/>
			<g>
				<path class="st9" d="M71.3,161c0,0,0.3,3,1.1,5.5c0.1,0.3,0.4,0.6,0.4,0.9v2.6h-11v-1.4c0-0.6,0.2-1.3,0.6-1.8
					c0.9-1.3,3.7-3.9,3.3-5.8H71.3z"/>
				<g>
					<path class="st10" d="M71.3,161L71.3,161C71.3,161,71.3,161,71.3,161C71.3,161,71.3,161,71.3,161z"/>
					<path class="st10" d="M72.7,168.1v1.9h-11v-1.4c0-0.2,0-0.3,0-0.5H72.7z"/>
				</g>
				<path class="st10" d="M66.7,163.2h2.5c0.1,0,0.3-0.1,0.3-0.3v-0.1c0-0.1-0.1-0.3-0.3-0.3h-2.5c-0.1,0-0.3,0.1-0.3,0.3v0.1
					C66.4,163,66.5,163.2,66.7,163.2z"/>
				<path class="st10" d="M66.3,164.7h2.5c0.1,0,0.3-0.1,0.3-0.3v-0.1c0-0.1-0.1-0.3-0.3-0.3h-2.5c-0.1,0-0.3,0.1-0.3,0.3v0.1
					C66,164.6,66.1,164.7,66.3,164.7z"/>
			</g>
			
				<rect x="96.3" y="155.7" transform="matrix(-1 -1.224647e-16 1.224647e-16 -1 197.2763 318.5563)" class="st8" width="4.7" height="7.1"/>
			<path class="st7" d="M88.3,95.4c-1.3,3.2-9.2,31.1-9.2,31.1L72,159.9H65l3.6-37.9l2.6-40.2l15,1.8L89,91L88.3,95.4z"/>
			<polygon class="st7" points="104,89.4 103.6,123 101.9,159.9 95.3,159.9 92.7,130.4 86.3,95.8 86.3,83.6 102.8,85.1 			"/>
			<path class="st8" d="M87.2,41.2h9.9V28.2H86.3C88.8,31.4,87.2,41.2,87.2,41.2z"/>
			<path class="st3" d="M102.8,87.8c-0.3,7.7-25.3-4.7-30.8-1.8l6.6-45.5c0,0,6.1-2.4,8.6-0.5c3.5,2.6,9.9,0,9.9,0l4.5,1.8
				C101.6,41.8,103,81.2,102.8,87.8z"/>
			<linearGradient id="SVGID_4_" gradientUnits="userSpaceOnUse" x1="108.7417" y1="29.1434" x2="48.9084" y2="90.81">
				<stop  offset="5.282353e-03" style="stop-color:#F99747"/>
				<stop  offset="0.3696" style="stop-color:#F77D62"/>
				<stop  offset="1" style="stop-color:#F3538C"/>
			</linearGradient>
			<path class="st11" d="M87.6,33c0,0,1.8,30-13.1,49c0,0-4.5,11.2-8.2,11.8c0,0-3.8-9.7,0.8-17.4c2.9-4.7,8.4-15.1,8.8-20.6
				L76.9,40L87.6,33z"/>
			<linearGradient id="SVGID_5_" gradientUnits="userSpaceOnUse" x1="123.0698" y1="43.0455" x2="63.2365" y2="104.7122">
				<stop  offset="5.282353e-03" style="stop-color:#F99747"/>
				<stop  offset="0.3696" style="stop-color:#F77D62"/>
				<stop  offset="1" style="stop-color:#F3538C"/>
			</linearGradient>
			<path class="st12" d="M97.1,33c0,0-4.3,19.7-4.5,29.7c-0.1,8.2,12.6,35.4,12.6,35.4s7.8-8.2,3.7-17.6c-2.7-6.2-5.8-11.2-5.4-15.2
				l-0.1-28.1L97.1,33z"/>
			<g>
				<path class="st8" d="M82.8,25.7c0.1-1.3,0.3-2.6,0.7-3.9c0-0.1-0.6-0.2-1.1-0.2c-0.4-0.1-0.6-0.5-0.3-0.9
					c1.2-1.3,3.4-3.5,3.8-4.3c0.5-1.1,0.1-0.3,0.7-1.3c0.2-0.3,0.4-0.6,0.6-1c0.2-0.4,0.7-0.9,1.2-1c0.5-0.1,1,0.1,1.5,0.2
					c2.1,0.5,4,0.9,5.9,1.9c0.7,0.3,1.4,0.7,2.1,1.2c0.9,0.7,1.6,1.7,2,2.8c0.7,1.9,0.4,4,0,6c-0.1,0.5-0.2,1-0.4,1.4
					c-0.4,0.7-1,1.2-1.7,1.6c-1.2,0.7-2.4,1.4-3.6,2c-0.7,0.4-1.5,0.7-2.3,1c-1.3,0.4-2.7,0.4-4,0.3c-1,0-2.1-0.1-3-0.6
					c-0.8-0.5-1.4-1.3-1.7-2.3C82.8,27.6,82.8,26.6,82.8,25.7z"/>
			</g>
			<g>
				<path class="st13" d="M85.9,7.4c1.9,1.6,4.4,2.2,6.9,2.5c2.5,0.3,5,0.4,7.3,1.2c1.5,0.5,3.7,1.4,4.4,2.9c1,2.1,0.8,5.2,0.3,7.4
					c-0.4,1.6-1.2,3.2-2.3,4.5c-1.2,1.4-2.7,2.1-4.3,2.9c-0.1,0.1-0.3,0.1-0.4,0.2c-0.1,0.1-0.3,0.2-0.4,0.2
					c-0.3,0.1-0.3-0.4-0.3-0.6c0-0.4,0.2-0.8,0.4-1.2c0.2-0.3,0.5-0.6,0.7-0.9c0.7-0.8,0.6-1.9,0.7-2.9c0-0.5,0.1-1-0.1-1.5
					c-0.2-0.5-0.5-0.9-1-1c-0.5-0.1-1,0.2-1.4,0.6c-0.8,0.7-1.4,1.5-1.9,2.5c0-0.9-0.1-1.7-0.1-2.6c0-0.6,0-1.2-0.2-1.8
					c-0.2-0.8-0.8-1.5-0.6-2.3c0.1-0.4,0.3-0.7,0.4-1c0.1-0.5-0.3-1-0.8-1.3c-0.5-0.2-1-0.3-1.5-0.4c-0.8-0.1-1.6-0.4-2.4-0.6
					c-0.7-0.2-1.5-0.5-2-1c-0.6-0.5-1-1.3-1.1-2.1c-0.2-0.8-0.2-1.6-0.2-2.4C85.8,8.3,85.8,7.9,85.9,7.4z"/>
			</g>
			<path class="st8" d="M115.7,54.4l5.3,13.7c0.5,1.4,0.4,3-0.4,4.3L103.7,94l-3-4.5l10.9-17.2c0.7-1.5,0.7-3.2-0.1-4.7l-5.3-9.3
				C106.2,58.4,112.5,60.8,115.7,54.4z"/>
			<path class="st8" d="M100.7,89.5l-1.9,0.3l-1.3,1.2c-0.5,0.4-0.5,1.2-0.1,1.7l0.4,0.5l-0.6,1c-0.3,0.4-0.2,0.9,0.1,1.3l1.9,2.3
				c0.4,0.4,1,0.5,1.4,0.2l2-1.3c0.4-0.3,0.8-0.7,0.9-1.2l0.3-1.5L100.7,89.5z"/>
			<g>
				<path class="st9" d="M101.6,161c0,0-0.7,2.9,1.6,5.5c0.2,0.3,0.4,0.6,0.4,0.9v2.6H93.1v-1.4c0-0.6,0.2-1.3,0.6-1.8
					c0.9-1.3,2.6-3.9,2.2-5.8H101.6z"/>
				<g>
					<path class="st10" d="M101.6,161L101.6,161C101.6,161,101.6,161,101.6,161C101.6,161,101.6,161,101.6,161z"/>
					<path class="st10" d="M103.6,168.1v1.9H93.1v-1.4c0-0.2,0-0.3,0-0.5H103.6z"/>
				</g>
				<path class="st10" d="M96.9,163.2h2.5c0.1,0,0.3-0.1,0.3-0.3v-0.1c0-0.1-0.1-0.3-0.3-0.3h-2.5c-0.1,0-0.3,0.1-0.3,0.3v0.1
					C96.7,163,96.8,163.2,96.9,163.2z"/>
				<path class="st10" d="M96.6,164.7h2.5c0.1,0,0.3-0.1,0.3-0.3v-0.1c0-0.1-0.1-0.3-0.3-0.3h-2.5c-0.1,0-0.3,0.1-0.3,0.3v0.1
					C96.3,164.6,96.4,164.7,96.6,164.7z"/>
			</g>
			<linearGradient id="SVGID_6_" gradientUnits="userSpaceOnUse" x1="115.6267" y1="35.8237" x2="55.7934" y2="97.4904">
				<stop  offset="5.282353e-03" style="stop-color:#F99747"/>
				<stop  offset="0.3696" style="stop-color:#F77D62"/>
				<stop  offset="1" style="stop-color:#F3538C"/>
			</linearGradient>
			<path class="st14" d="M97.1,33l6.9,4.5l3.1,1.5c2,0.9,3.5,2.6,4.3,4.7l5.5,12.6c-6,1.2-6.2,6.6-10.5,5.6l-6.1-14.6L97.1,40V33z"
				/>
			<linearGradient id="SVGID_7_" gradientUnits="userSpaceOnUse" x1="100.5764" y1="21.2208" x2="40.743" y2="82.8874">
				<stop  offset="5.282353e-03" style="stop-color:#F99747"/>
				<stop  offset="0.3696" style="stop-color:#F77D62"/>
				<stop  offset="1" style="stop-color:#F3538C"/>
			</linearGradient>
			<path class="st15" d="M87.6,33l-6.9,3l-3.9,1c-2.4,0.6-4.4,2.3-5.4,4.6L65,54.4c4.1,0,8.4,5.5,9.1,4.5L82,45L87.6,33z"/>
			<path class="st16" d="M85.5,30c-0.1-0.8,0.3-1.5,1-1.9l0,0c0.2-0.1,0.4-0.3,0.5-0.5l0.6-1.7c0.2-0.4,0.2-0.9,0.1-1.4l-0.2-1.3
				c-0.1-0.7-0.9-1.1-1.5-0.8l-2.2,1l-1.4,1.3c0,0,0,0,0,0c-0.1,1.2-0.1,2.4,0.3,3.5c0.3,1,1,2,1.9,2.5c0.3,0.2,0.7,0.3,1.1,0.4
				L85.5,30z"/>
			<path class="st8" d="M65.8,54.9l15-24.2v-4c0-0.5,0.2-1,0.6-1.3l1.7-1.7l2-0.9c0.6-0.3,1.3,0.1,1.4,0.7l0.2,1.2
				c0.1,0.4,0,0.8-0.1,1.2L86,27.4c-0.1,0.2-0.2,0.4-0.4,0.5l0,0c-0.6,0.4-1,1-0.9,1.7l0.1,1.1l2.7,0.5l-3.3,2.6l-10.8,25
				c-1,2.2-3.6,3.2-5.7,2.2l0,0C65.3,59.9,64.4,57.1,65.8,54.9z"/>
		</g>
		<g>
			<path class="st17" d="M52.7,77.9c-0.1-1-0.1-2-0.6-2.9c-3.1,3.8-4.3,9.1-3,13.8l0.9,0.9c1.5-1.4,2.3-3.5,2.7-5.5
				C52.9,82.1,52.8,80,52.7,77.9z"/>
			<path class="st17" d="M61.1,83.3c-0.1-0.1-0.2-0.1-0.3-0.1c-2-0.5-4.3,0.1-5.9,1.4c-1.6,1.3-2.6,3.4-2.6,5.5l0.6,0.7
				c1.3,0.4,2.7-0.3,3.8-1.1c2-1.5,3.5-3.5,4.4-5.9C61.1,83.6,61.2,83.4,61.1,83.3z"/>
			<path class="st17" d="M40.7,83.2c-1.4-1.1-3-2.2-4.8-2.1c-0.2,0-0.4,0.1-0.5,0.2c-0.2,0.4,0.4,0.6,0.6,1.1c0.1,0.2,0,0.5-0.1,0.7
				c-0.1,0.4,0.1,0.9,0.2,1.3c1.6,4.1,6.3,6.8,10.6,6.2l0.5-0.9C45.3,87.3,43.1,85.1,40.7,83.2z"/>
			<g>
				<path class="st17" d="M45.9,89.9c3.1,3,3.5,7.4,3,11.4c-0.1,0.9,1.3,0.9,1.4,0c0.6-4.4,0-9.2-3.4-12.4
					C46.2,88.3,45.2,89.3,45.9,89.9L45.9,89.9z"/>
			</g>
			<g>
				<path class="st17" d="M48.9,88.5c0.7,3.9-0.2,7.8,0.2,11.8c0.1,0.9,1.5,0.9,1.4,0c-0.4-4,0.4-8.1-0.3-12.1
					C50.1,87.2,48.8,87.6,48.9,88.5L48.9,88.5z"/>
			</g>
			<g>
				<path class="st17" d="M53,88.2c-1.1,1.7-2.3,3.6-2.8,5.6c-0.6,2.2-0.4,4.6-0.5,6.9c0,0.9,1.3,0.9,1.4,0c0.1-2.1-0.1-4.5,0.5-6.5
					c0.5-1.9,1.6-3.7,2.7-5.3C54.7,88.2,53.5,87.5,53,88.2L53,88.2z"/>
			</g>
			<path class="st2" d="M54.6,109.5h-7.8c-0.3,0-0.6-0.2-0.7-0.5l-2.6-10c-0.1-0.4,0.2-0.9,0.7-0.9h13c0.5,0,0.8,0.4,0.7,0.9
				l-2.6,10C55.2,109.2,54.9,109.5,54.6,109.5z"/>
			<g>
				<path class="st18" d="M51.7,76.5c-1,3.9-1,8-2,11.9c0,0.1,0.2,0.2,0.2,0.1c0.9-3.9,0.9-8,2-11.9C52,76.4,51.8,76.4,51.7,76.5
					L51.7,76.5z"/>
			</g>
			<g>
				<path class="st18" d="M53,89.5c1.6-2.6,4-4.4,6.9-5.4c0.1,0,0.1-0.2-0.1-0.2c-2.9,1-5.3,2.9-7,5.5C52.8,89.6,52.9,89.7,53,89.5
					L53,89.5z"/>
			</g>
			<g>
				<path class="st18" d="M36.4,82.3c0.6,1.6,1.7,2.7,3.1,3.6c2,1.4,4.5,2.1,6.3,3.6c0.1,0.1,0.3-0.1,0.2-0.2
					c-1.3-1.1-2.9-1.5-4.3-2.3c-2.1-1.2-4.2-2.5-5.1-4.8C36.6,82.1,36.3,82.1,36.4,82.3L36.4,82.3z"/>
			</g>
		</g>
	</g>
</g>
</svg>
