<?xml version="1.0" encoding="utf-8"?>
<!-- Generator: Adobe Illustrator 23.0.2, SVG Export Plug-In . SVG Version: 6.00 Build 0)  -->
<!DOCTYPE svg PUBLIC "-//W3C//DTD SVG 1.1//EN" "http://www.w3.org/Graphics/SVG/1.1/DTD/svg11.dtd" [
	<!ENTITY ns_extend "http://ns.adobe.com/Extensibility/1.0/">
	<!ENTITY ns_ai "http://ns.adobe.com/AdobeIllustrator/10.0/">
	<!ENTITY ns_graphs "http://ns.adobe.com/Graphs/1.0/">
	<!ENTITY ns_vars "http://ns.adobe.com/Variables/1.0/">
	<!ENTITY ns_imrep "http://ns.adobe.com/ImageReplacement/1.0/">
	<!ENTITY ns_sfw "http://ns.adobe.com/SaveForWeb/1.0/">
	<!ENTITY ns_custom "http://ns.adobe.com/GenericCustomNamespace/1.0/">
	<!ENTITY ns_adobe_xpath "http://ns.adobe.com/XPath/1.0/">
]>
<svg version="1.1" id="Layer_1" xmlns:x="&ns_extend;" xmlns:i="&ns_ai;" xmlns:graph="&ns_graphs;"
	 xmlns="http://www.w3.org/2000/svg" xmlns:xlink="http://www.w3.org/1999/xlink" x="0px" y="0px" viewBox="0 0 88.4 204.1"
	 style="enable-background:new 0 0 88.4 204.1;" xml:space="preserve">
<style type="text/css">
	.st0{fill:#FFFFFF;}
	.st1{fill:#DFE1EC;}
	.st2{fill:#FFCDBB;}
	.st3{fill:#1D2734;}
	.st4{fill:#436DFF;}
	.st5{fill:#273242;}
	.st6{fill:#F87E64;}
	.st7{fill:#FF9A00;}
	.st8{fill:#F5637D;}
</style>
<metadata>
	<sfw  xmlns="&ns_sfw;">
		<slices></slices>
		<sliceSourceBounds  bottomLeftOrigin="true" height="204.1" width="88.4" x="253.4" y="-332.6"></sliceSourceBounds>
	</sfw>
</metadata>
<circle class="st0" cx="74" cy="12.7" r="12.1"/>
<g id="XMLID_1130_">
	<g id="XMLID_938_">
		<path id="XMLID_2559_" class="st1" d="M58,203.1H17.6c-0.4,0-0.7-0.3-0.7-0.7l0,0c0-0.4,0.3-0.7,0.7-0.7H58c0.4,0,0.7,0.3,0.7,0.7
			l0,0C58.7,202.8,58.4,203.1,58,203.1z"/>
	</g>
	<g id="XMLID_543_">
		<path id="XMLID_1269_" class="st2" d="M26.3,189.5c0,0,0.4,3.2,0.7,5.5c0.2,1.7,6.3,5.4,6.3,5.4l-15.7,0.4l-0.6-2.3l-0.7-10.2
			L26.3,189.5z"/>
	</g>
	<g id="XMLID_306_">
		<path id="XMLID_1267_" class="st3" d="M16.6,195.9c-0.1-0.1-0.3,0-0.4,0.1c-0.2,0.7-0.6,2.3-0.1,3.8c0.5,1.3,0.7,2.1,0.7,2.4
			c0,0.2,0.2,0.3,0.3,0.3h5.4c0.1,0,0.1,0,0.2-0.1c0.3-0.2,1.4-0.9,3.9-0.2c2.5,0.6,13.4,0.1,14,0c1-0.1,3.5-1.3,1.1-3.5
			c-2.4-2.2-4.4-0.3-8.9-2.8c-4.5-2.5-5.2-3.1-5.7-2.6c-0.6,0.5-0.2,2.1-0.9,2.9C25.7,196.8,18,197,16.6,195.9z"/>
	</g>
	<g id="XMLID_542_">
		<path id="XMLID_1266_" class="st2" d="M43.9,190.3c0,0-0.3,3.2-0.6,5.6c-0.2,1.7,5,6.7,5,6.7l-15.4-3.1l-0.1-2.3l1.6-10.1
			L43.9,190.3z"/>
	</g>
	<g id="XMLID_163_">
		<path id="XMLID_1264_" class="st4" d="M14.6,97.8c0,0-2.4,10.2,0,20.4c2.4,10.2,1.2,36,1.2,40.3s-1.4,33.7,0.3,34.7s11.7,0,11.7,0
			s2.2-18.5,4-28C33.6,155.7,35,133,35,129C35,125.1,40.1,89.5,14.6,97.8z"/>
	</g>
	<g id="XMLID_982_">
		<path id="XMLID_1263_" class="st2" d="M34.2,29.5c0,0-1.3,2.9-0.2,5.3c1.2,2.6,4,7.3,4.9,12.9c0.9,5.5-7,0.5-7,0.5l-8.2-10.8
			c0,0,1.8-4.7,0.3-12.7C22.4,16.6,34.2,29.5,34.2,29.5z"/>
	</g>
	<g id="XMLID_161_">
		<path id="XMLID_1261_" class="st4" d="M22.4,96.8c0,0-3.2,8.8,2.9,20.1c3.5,6.5,16.4,28.5,15.9,35c-0.4,6.5-8.9,39-8.1,40.4
			c0.8,1.3,10.3,2.5,11,2.1c0.7-0.4,12.3-31.8,13.7-37.4c1.3-5.7,2.2-7.3,1.8-12.3c-0.3-5-14.2-47.3-14.2-47.3S22.5,93,22.4,96.8z"
			/>
	</g>
	<g id="XMLID_165_">
		<path id="XMLID_1260_" class="st2" d="M77,28.5l1.5-2.8c0,0-1.8-7-0.8-7.7s0.9,2.7,1.3,3.1s3.3-5.2,4.6-7.1c1.4-2.2,6.8-0.4,3.7,5
			s-6.2,12.2-6.2,12.2L77,28.5z"/>
	</g>
	<g id="XMLID_158_">
		<path id="XMLID_1258_" class="st5" d="M32.9,197.5c-0.1-0.1-0.3,0-0.4,0.1c-0.2,0.7-0.6,2.3-0.1,3.8c0.5,1.3,0.7,2.1,0.7,2.4
			c0,0.2,0.2,0.3,0.3,0.3h5.4c0.1,0,0.1,0,0.2-0.1c0.3-0.2,1.4-0.9,3.9-0.2c2.5,0.6,13.4,0.1,14,0c1-0.1,3.5-1.3,1.1-3.5
			c-2.4-2.2-4.4-0.3-8.9-2.8c-4.5-2.5-5.2-3.1-5.7-2.6c-0.6,0.5-0.2,2.1-0.9,2.9C42,198.3,34.3,198.5,32.9,197.5z"/>
	</g>
	<g id="XMLID_915_">
		<path id="XMLID_1257_" class="st2" d="M39,17.5c0.1,3.7,0,7.4-2.1,10c-1.6,2-3.6,2.8-5.7,2.8c-4.4,0.1-9.9-6.7-10.1-13.7
			C21,9.6,26.4,5,30.8,4.9C35.2,4.9,38.8,10.5,39,17.5z"/>
	</g>
	<g id="XMLID_921_">
		<path id="XMLID_1255_" class="st5" d="M20.9,14.6c0,0,1.6,0,1.8,1.7c0.1,1.7,1.7,0.1,1.6,0c-0.1-0.1-1.1-5.7,1.1-5.8
			c2.2,0,4.8,0.7,6.4-0.7c1.6-1.4,2.2-1.4,2.7-0.2s3.4,3.1,5.5,1.6C42,9.6,42.8,5.6,41.5,3c-1.3-2.5-5.3-4.6-8.8-1.3
			c-3.2,3-5.1,1.5-6.7,1.9C23.8,4.1,19.3,5.5,20.9,14.6z"/>
	</g>
	<g id="XMLID_919_">
		<path id="XMLID_1254_" class="st5" d="M36.3,10.4c0,0,0.9,6,0,5.4c-1-0.7-3.4-1.6-3.5,2.2c0,1.6,2.8,16.2-7.7,10.3
			C18.8,24.7,20.7,9,20.7,9l12-2.4C32.7,6.5,36.5,6.8,36.3,10.4z"/>
	</g>
	<g id="XMLID_914_">
		<g id="XMLID_536_">
			<path id="XMLID_2516_" class="st6" d="M76.6,27.6c0,0-8,13.3-8.5,13.7C67.6,41.6,50.8,38,47.5,37c-3.3-1-13.7-3.1-13.7-3.1
				s-5.7,1.8-9.4,0.6c0,0-3.7,2.3-7.2,3.9c-3.5,1.6-11.8,4.4-13,9.5c-1.2,5.1-6,27.3-3.3,29.8c2.7,2.5,13,4.1,13,4.1
				s-0.6,15.6,0.8,16.1c3,1.1,31.1,1.9,31.7-1.5c0.7-3.4,2.3-40.7,3.3-42.1c1-1.4,16-0.2,22.5-2.4c6.5-2.2,10.3-21.6,10.3-21.6
				L76.6,27.6z M14.3,72.9l-2.5-1.6l3.3-13.2L14.3,72.9z"/>
		</g>
	</g>
	<g id="XMLID_538_">
		<path id="XMLID_1252_" class="st7" d="M16.2,52.6l-2.5,30.7C13.7,83.3,13.7,60.9,16.2,52.6z"/>
	</g>
	<g id="XMLID_1011_">
		<path id="XMLID_1251_" class="st8" d="M72.1,51.9c0.3-0.1,0.6-0.3,0.9-0.4c-14.6,2.9-21.1-0.9-23.4,0.7C47.2,53.8,48,71.8,48,71.8
			l0,0c0.6-8.9,1.2-16.9,1.6-17.5C50.6,52.9,65.6,54.1,72.1,51.9z"/>
	</g>
	<g id="XMLID_328_">
		<g id="XMLID_658_">
			<path id="XMLID_2504_" class="st8" d="M21.2,84c-4.4-8.4-5-31.4-5-31.4l-2.4,29.1c0,0-0.6,15.6,0.8,16.1c3,1.1,31.1,1.9,31.7-1.5
				c0.1-0.7,0.3-2.7,0.5-5.5C41.2,97.4,25.6,92.4,21.2,84z"/>
		</g>
	</g>
</g>
<path class="st5" d="M73.9,14.2L73.9,14.2c-0.3,0-0.5-0.2-0.5-0.5V7.8c0-0.3,0.2-0.5,0.5-0.5l0,0c0.3,0,0.5,0.2,0.5,0.5v5.9
	C74.4,14,74.2,14.2,73.9,14.2z"/>
<path class="st5" d="M73.4,14.1L73.4,14.1c-0.1-0.3,0-0.6,0.2-0.7l5.2-2.7c0.3-0.1,0.6,0,0.7,0.2v0c0.1,0.3,0,0.6-0.2,0.7l-5.2,2.7
	C73.9,14.5,73.5,14.4,73.4,14.1z"/>
</svg>
