<?xml version="1.0" encoding="utf-8"?>
<!-- Generator: Adobe Illustrator 23.0.2, SVG Export Plug-In . SVG Version: 6.00 Build 0)  -->
<!DOCTYPE svg PUBLIC "-//W3C//DTD SVG 1.1//EN" "http://www.w3.org/Graphics/SVG/1.1/DTD/svg11.dtd" [
	<!ENTITY ns_extend "http://ns.adobe.com/Extensibility/1.0/">
	<!ENTITY ns_ai "http://ns.adobe.com/AdobeIllustrator/10.0/">
	<!ENTITY ns_graphs "http://ns.adobe.com/Graphs/1.0/">
	<!ENTITY ns_vars "http://ns.adobe.com/Variables/1.0/">
	<!ENTITY ns_imrep "http://ns.adobe.com/ImageReplacement/1.0/">
	<!ENTITY ns_sfw "http://ns.adobe.com/SaveForWeb/1.0/">
	<!ENTITY ns_custom "http://ns.adobe.com/GenericCustomNamespace/1.0/">
	<!ENTITY ns_adobe_xpath "http://ns.adobe.com/XPath/1.0/">
]>
<svg version="1.1" id="text" xmlns:x="&ns_extend;" xmlns:i="&ns_ai;" xmlns:graph="&ns_graphs;"
	 xmlns="http://www.w3.org/2000/svg" xmlns:xlink="http://www.w3.org/1999/xlink" x="0px" y="0px" viewBox="0 0 94.5 80.9"
	 style="enable-background:new 0 0 94.5 80.9;" xml:space="preserve">
<style type="text/css">
	.st0{fill:url(#SVGID_1_);}
	.st1{opacity:0.2;fill:#4B61F4;}
	.st2{fill:url(#SVGID_2_);}
	.st3{fill:#FFFFFF;}
	.st4{fill:#B1B9FC;}
	.st5{clip-path:url(#SVGID_4_);}
	.st6{fill:url(#SVGID_5_);}
	.st7{fill:#446DFF;}
</style>
<metadata>
	<sfw  xmlns="&ns_sfw;">
		<slices></slices>
		<sliceSourceBounds  bottomLeftOrigin="true" height="81" width="94.5" x="1696.9" y="-228.2"></sliceSourceBounds>
	</sfw>
</metadata>
<linearGradient id="SVGID_1_" gradientUnits="userSpaceOnUse" x1="7.9885" y1="18.8713" x2="88.824" y2="57.7255">
	<stop  offset="0" style="stop-color:#DDE0FE"/>
	<stop  offset="0.3772" style="stop-color:#E1E4FE"/>
	<stop  offset="0.7883" style="stop-color:#EEF0FF"/>
	<stop  offset="1" style="stop-color:#F8F9FF"/>
</linearGradient>
<path class="st0" d="M34.4,3.3c16-5.5,41.3-5.5,53.6,11.3c14.1,19.3,3.5,50.2-16.4,61.4C44.5,91.2,2.2,68.3,0.1,43.4
	C-1.4,26,16.8,9.3,34.4,3.3z"/>
<g>
	<g>
		<path class="st1" d="M78,63H26c-0.7,0-1.2-0.5-1.2-1.2V26.4c0-0.7,0.5-1.2,1.2-1.2h52c0.7,0,1.2,0.5,1.2,1.2v35.3
			C79.2,62.4,78.6,63,78,63z"/>
		<linearGradient id="SVGID_2_" gradientUnits="userSpaceOnUse" x1="26.2636" y1="42.7755" x2="80.646" y2="42.7755">
			<stop  offset="5.282353e-03" style="stop-color:#F99747"/>
			<stop  offset="0.3696" style="stop-color:#F77D62"/>
			<stop  offset="1" style="stop-color:#F3538C"/>
		</linearGradient>
		<path class="st2" d="M78.9,61.5H28c-1,0-1.8-0.8-1.8-1.8V25.9c0-1,0.8-1.8,1.8-1.8h50.8c1,0,1.8,0.8,1.8,1.8v33.8
			C80.6,60.7,79.8,61.5,78.9,61.5z"/>
		<path class="st3" d="M79.4,61.5h-52c-0.7,0-1.2-0.5-1.2-1.2V29c0-0.7,0.5-1.2,1.2-1.2h52c0.7,0,1.2,0.5,1.2,1.2v31.3
			C80.6,60.9,80.1,61.5,79.4,61.5z"/>
		<circle class="st3" cx="28.7" cy="26" r="0.7"/>
		<circle class="st3" cx="31.2" cy="26" r="0.7"/>
		<circle class="st3" cx="33.7" cy="26" r="0.7"/>
	</g>
	<path class="st4" d="M75.3,36.1H31.7c-0.8,0-1.4-0.6-1.4-1.4v0c0-0.8,0.6-1.4,1.4-1.4h43.6c0.8,0,1.4,0.6,1.4,1.4v0
		C76.7,35.4,76.1,36.1,75.3,36.1z"/>
	<path class="st4" d="M72.8,42.7H56.3c-0.4,0-0.7-0.3-0.7-0.7v0c0-0.4,0.3-0.7,0.7-0.7h16.5c0.4,0,0.7,0.3,0.7,0.7v0
		C73.5,42.4,73.2,42.7,72.8,42.7z"/>
	<path class="st4" d="M72.8,45.8H56.3c-0.4,0-0.7-0.3-0.7-0.7v0c0-0.4,0.3-0.7,0.7-0.7h16.5c0.4,0,0.7,0.3,0.7,0.7v0
		C73.5,45.5,73.2,45.8,72.8,45.8z"/>
	<path class="st4" d="M72.8,48.9H56.3c-0.4,0-0.7-0.3-0.7-0.7v0c0-0.4,0.3-0.7,0.7-0.7h16.5c0.4,0,0.7,0.3,0.7,0.7v0
		C73.5,48.6,73.2,48.9,72.8,48.9z"/>
	<path class="st4" d="M66.5,52H56.3c-0.4,0-0.7-0.3-0.7-0.7v0c0-0.4,0.3-0.7,0.7-0.7h10.2c0.4,0,0.7,0.3,0.7,0.7v0
		C67.1,51.7,66.8,52,66.5,52z"/>
	<path class="st4" d="M48.2,54.5H32.8c-1.4,0-2.6-1.2-2.6-2.6v-10c0-1.4,1.2-2.6,2.6-2.6h15.4c1.4,0,2.6,1.2,2.6,2.6v10
		C50.8,53.4,49.6,54.5,48.2,54.5z"/>
	<path class="st3" d="M34.4,53.4h12.2c1.5,0,2.8-1.2,2.8-2.8v-5.2l-2.5-1.7L40.4,49l-3.6-2.8l-5.1,4.1v0.4
		C31.6,52.1,32.8,53.4,34.4,53.4z"/>
</g>
<g>
	<defs>
		<path id="SVGID_3_" d="M34.4,3.3c16-5.5,41.3-5.5,53.6,11.3c14.1,19.3,3.5,50.2-16.4,61.4C44.5,91.2,2.2,68.3,0.1,43.4
			C-1.4,26,16.8,9.3,34.4,3.3z"/>
	</defs>
	<clipPath id="SVGID_4_">
		<use xlink:href="#SVGID_3_"  style="overflow:visible;"/>
	</clipPath>
	<g class="st5">
		<g>
			<path class="st1" d="M59.6,48.9h-52c-0.7,0-1.2-0.5-1.2-1.2V12.3c0-0.7,0.5-1.2,1.2-1.2h52c0.7,0,1.2,0.5,1.2,1.2v35.3
				C60.8,48.3,60.2,48.9,59.6,48.9z"/>
			<linearGradient id="SVGID_5_" gradientUnits="userSpaceOnUse" x1="7.8631" y1="28.6669" x2="62.2456" y2="28.6669">
				<stop  offset="5.282353e-03" style="stop-color:#F99747"/>
				<stop  offset="0.3696" style="stop-color:#F77D62"/>
				<stop  offset="1" style="stop-color:#F3538C"/>
			</linearGradient>
			<path class="st6" d="M60.5,47.4H9.6c-1,0-1.8-0.8-1.8-1.8V11.8c0-1,0.8-1.8,1.8-1.8h50.8c1,0,1.8,0.8,1.8,1.8v33.8
				C62.2,46.6,61.4,47.4,60.5,47.4z"/>
			<path class="st3" d="M61,47.4h-52c-0.7,0-1.2-0.5-1.2-1.2V14.9c0-0.7,0.5-1.2,1.2-1.2h52c0.7,0,1.2,0.5,1.2,1.2v31.3
				C62.2,46.8,61.7,47.4,61,47.4z"/>
			<circle class="st3" cx="10.3" cy="11.9" r="0.7"/>
			<circle class="st3" cx="12.8" cy="11.9" r="0.7"/>
			<circle class="st3" cx="15.3" cy="11.9" r="0.7"/>
		</g>
		<path class="st4" d="M21.6,19.5h-6.3c-0.6,0-1.1-0.5-1.1-1.1v0c0-0.6,0.5-1.1,1.1-1.1h6.3c0.6,0,1.1,0.5,1.1,1.1v0
			C22.7,19,22.2,19.5,21.6,19.5z"/>
		<path class="st4" d="M32.5,19.5h-6.3c-0.6,0-1.1-0.5-1.1-1.1v0c0-0.6,0.5-1.1,1.1-1.1h6.3c0.6,0,1.1,0.5,1.1,1.1v0
			C33.6,19,33.1,19.5,32.5,19.5z"/>
		<path class="st4" d="M43.3,19.5H37c-0.6,0-1.1-0.5-1.1-1.1v0c0-0.6,0.5-1.1,1.1-1.1h6.3c0.6,0,1.1,0.5,1.1,1.1v0
			C44.4,19,43.9,19.5,43.3,19.5z"/>
		<path class="st4" d="M54.2,19.5h-6.3c-0.6,0-1.1-0.5-1.1-1.1v0c0-0.6,0.5-1.1,1.1-1.1h6.3c0.6,0,1.1,0.5,1.1,1.1v0
			C55.3,19,54.8,19.5,54.2,19.5z"/>
		<path class="st4" d="M56.4,41.1H13.7c-1.1,0-1.9-0.9-1.9-1.9V25.5c0-1.1,0.9-1.9,1.9-1.9h42.6c1.1,0,1.9,0.9,1.9,1.9l0,13.6
			C58.3,40.2,57.4,41.1,56.4,41.1z"/>
		<path class="st3" d="M32.3,29.1H17.1c-0.4,0-0.8-0.4-0.8-0.8v0c0-0.4,0.4-0.8,0.8-0.8h15.1c0.4,0,0.8,0.4,0.8,0.8v0
			C33,28.8,32.7,29.1,32.3,29.1z"/>
		<path class="st3" d="M28,32.1H17.1c-0.4,0-0.8-0.4-0.8-0.8v0c0-0.4,0.4-0.8,0.8-0.8H28c0.4,0,0.8,0.4,0.8,0.8v0
			C28.8,31.7,28.4,32.1,28,32.1z"/>
		<path class="st3" d="M24.3,37.7h-6.6c-0.8,0-1.4-0.6-1.4-1.4l0,0c0-0.8,0.6-1.4,1.4-1.4h6.6c0.8,0,1.4,0.6,1.4,1.4l0,0
			C25.7,37.1,25,37.7,24.3,37.7z"/>
		<g id="XMLID_4_">
			<path id="XMLID_845_" class="st3" d="M50.2,33.8v-2.9l-4,2.9v-2.9h-1v-2.4h-1v2.4h-1v-4h-2v4h-1v7.7h14.1v-7.7L50.2,33.8z
				 M45.5,37h-1.3v-1.3h1.3V37z M47.9,37h-1.3v-1.3h1.3V37z M50.2,37h-1.3v-1.3h1.3V37z"/>
		</g>
	</g>
</g>
<circle class="st7" cx="76.7" cy="64.4" r="16.6"/>
<g>
	<path class="st3" d="M86.1,64.8v-3.4c0-1.1-0.9-2-2-2h-2.8c0-2.5-2.1-4.6-4.6-4.6c-2.5,0-4.6,2.1-4.6,4.6h-2.8c-1.1,0-2,0.9-2,2
		v3.4H86.1z M76.7,56.6c1.5,0,2.8,1.3,2.8,2.8h-5.6C73.9,57.8,75.2,56.6,76.7,56.6z"/>
	<path class="st3" d="M78.6,66c0,0.8-0.6,1.4-1.4,1.4h-0.9c-0.8,0-1.4-0.6-1.4-1.4h-7.6V72c0,1.1,0.9,2,2,2h14.9c1.1,0,2-0.9,2-2V66
		H78.6z"/>
</g>
</svg>
