<?xml version="1.0" encoding="utf-8"?>
<!-- Generator: Adobe Illustrator 23.0.2, SVG Export Plug-In . SVG Version: 6.00 Build 0)  -->
<!DOCTYPE svg PUBLIC "-//W3C//DTD SVG 1.1//EN" "http://www.w3.org/Graphics/SVG/1.1/DTD/svg11.dtd" [
	<!ENTITY ns_extend "http://ns.adobe.com/Extensibility/1.0/">
	<!ENTITY ns_ai "http://ns.adobe.com/AdobeIllustrator/10.0/">
	<!ENTITY ns_graphs "http://ns.adobe.com/Graphs/1.0/">
	<!ENTITY ns_vars "http://ns.adobe.com/Variables/1.0/">
	<!ENTITY ns_imrep "http://ns.adobe.com/ImageReplacement/1.0/">
	<!ENTITY ns_sfw "http://ns.adobe.com/SaveForWeb/1.0/">
	<!ENTITY ns_custom "http://ns.adobe.com/GenericCustomNamespace/1.0/">
	<!ENTITY ns_adobe_xpath "http://ns.adobe.com/XPath/1.0/">
]>
<svg version="1.1" id="text" xmlns:x="&ns_extend;" xmlns:i="&ns_ai;" xmlns:graph="&ns_graphs;"
	 xmlns="http://www.w3.org/2000/svg" xmlns:xlink="http://www.w3.org/1999/xlink" x="0px" y="0px" viewBox="0 0 104.3 77.7"
	 style="enable-background:new 0 0 104.3 77.7;" xml:space="preserve">
<style type="text/css">
	.st0{fill:url(#SVGID_1_);}
	.st1{fill:#446DFF;}
	.st2{fill:#FFFFFF;}
	.st3{clip-path:url(#SVGID_3_);}
	.st4{opacity:0.2;fill:#4B61F4;}
	.st5{fill:#808EDB;}
	.st6{fill:#B1B9FC;}
	.st7{fill:url(#SVGID_4_);}
	.st8{fill:url(#SVGID_5_);}
</style>
<metadata>
	<sfw  xmlns="&ns_sfw;">
		<slices></slices>
		<sliceSourceBounds  bottomLeftOrigin="true" height="77.7" width="104.3" x="1578.9" y="-375.3"></sliceSourceBounds>
	</sfw>
</metadata>
<linearGradient id="SVGID_1_" gradientUnits="userSpaceOnUse" x1="0" y1="39.4007" x2="101.8589" y2="39.4007">
	<stop  offset="0" style="stop-color:#DDE0FE"/>
	<stop  offset="0.3772" style="stop-color:#E1E4FE"/>
	<stop  offset="0.7883" style="stop-color:#EEF0FF"/>
	<stop  offset="1" style="stop-color:#F8F9FF"/>
</linearGradient>
<path class="st0" d="M0.4,29.5c-4,19.1,20.3,45.8,46.9,47.3c31.4,1.7,59-32.3,54-51.3C95.6,3.8,45.5-6.7,16.4,10.9
	C12.3,13.4,2.5,19.3,0.4,29.5z"/>
<g>
	<circle class="st1" cx="20.9" cy="10.6" r="10.6"/>
</g>
<g>
	<path class="st2" d="M18.3,6.2c0.9,0,1.5,0.4,2,1.1c0.4,0.7,0.7,1.7,0.7,3c0,1.3-0.2,2.3-0.7,3c-0.4,0.7-1.1,1.1-2,1.1
		c-0.9,0-1.5-0.4-2-1.1c-0.5-0.7-0.7-1.7-0.7-3c0-1.3,0.2-2.3,0.7-3C16.8,6.6,17.5,6.2,18.3,6.2z M17.1,10.3c0,1.9,0.4,2.9,1.3,2.9
		c0.4,0,0.8-0.2,1-0.7c0.2-0.4,0.3-1.2,0.3-2.2c0-1-0.1-1.7-0.3-2.2c-0.2-0.4-0.5-0.7-1-0.7c-0.4,0-0.8,0.2-1,0.7
		C17.2,8.6,17.1,9.3,17.1,10.3z"/>
	<path class="st2" d="M22.4,8.9l-0.7-1.1l2-1.5h0.9v8h-1.3V8.2L22.4,8.9z"/>
</g>
<g>
	<defs>
		<path id="SVGID_2_" d="M0.4,29.5c-4,19.1,20.3,45.8,46.9,47.3c31.4,1.7,59-32.3,54-51.3C95.6,3.8,45.5-6.7,16.4,10.9
			C12.3,13.4,2.5,19.3,0.4,29.5z"/>
	</defs>
	<clipPath id="SVGID_3_">
		<use xlink:href="#SVGID_2_"  style="overflow:visible;"/>
	</clipPath>
	<g class="st3">
		<path class="st4" d="M98,67H40.2c-1.7,0-3.1-1.4-3.1-3.1v-41c0-1.7,1.4-3.1,3.1-3.1H98c1.7,0,3.1,1.4,3.1,3.1v41
			C101.1,65.6,99.7,67,98,67z"/>
		<path class="st4" d="M81.8,77.7H55.5c-1,0-1.9-0.8-1.9-1.9l0,0c0-1,0.8-1.9,1.9-1.9h26.3c1,0,1.9,0.8,1.9,1.9l0,0
			C83.7,76.8,82.9,77.7,81.8,77.7z"/>
		<path class="st5" d="M101.2,65.6H41.7c-1.7,0-3.1-1.4-3.1-3.1V20.6c0-1.7,1.4-3.1,3.1-3.1h59.5c1.7,0,3.1,1.4,3.1,3.1v41.8
			C104.3,64.2,102.9,65.6,101.2,65.6z"/>
		<path class="st6" d="M100.4,63.5H42.5c-1,0-1.8-0.8-1.8-1.8V21.3c0-1,0.8-1.8,1.8-1.8h57.9c1,0,1.8,0.8,1.8,1.8v40.4
			C102.2,62.7,101.4,63.5,100.4,63.5z"/>
		<rect x="61.7" y="65.6" class="st5" width="15.9" height="6.9"/>
		<path class="st5" d="M82.4,76.6H56.7c-1.1,0-1.9-0.9-1.9-1.9v-0.3c0-1.1,0.9-1.9,1.9-1.9h25.7c1.1,0,1.9,0.9,1.9,1.9v0.3
			C84.3,75.8,83.5,76.6,82.4,76.6z"/>
		<linearGradient id="SVGID_4_" gradientUnits="userSpaceOnUse" x1="43.5435" y1="41.5517" x2="99.1846" y2="41.5517">
			<stop  offset="5.282353e-03" style="stop-color:#F99747"/>
			<stop  offset="0.3696" style="stop-color:#F77D62"/>
			<stop  offset="1" style="stop-color:#F3538C"/>
		</linearGradient>
		<path class="st7" d="M97.4,60.7H45.3c-1,0-1.8-0.8-1.8-1.8V24.2c0-1,0.8-1.8,1.8-1.8h52.1c1,0,1.8,0.8,1.8,1.8v34.7
			C99.2,59.9,98.4,60.7,97.4,60.7z"/>
		<path class="st2" d="M98,60.7H44.7c-0.7,0-1.2-0.5-1.2-1.2V27.4c0-0.7,0.5-1.2,1.2-1.2H98c0.7,0,1.2,0.5,1.2,1.2v32.1
			C99.2,60.1,98.6,60.7,98,60.7z"/>
		<circle class="st2" cx="46" cy="24.4" r="0.7"/>
		<circle class="st2" cx="48.6" cy="24.4" r="0.7"/>
		<circle class="st2" cx="51.2" cy="24.4" r="0.7"/>
		<g>
			<path class="st4" d="M41.1,58.9H18.6c-2.1,0-3.7-1.7-3.7-3.7V35.4c0-2.1,1.7-3.7,3.7-3.7h22.5c2.1,0,3.7,1.7,3.7,3.7v19.8
				C44.8,57.2,43.1,58.9,41.1,58.9z"/>
			<linearGradient id="SVGID_5_" gradientUnits="userSpaceOnUse" x1="16.467" y1="43.5721" x2="46.4239" y2="43.5721">
				<stop  offset="5.282353e-03" style="stop-color:#F99747"/>
				<stop  offset="0.3696" style="stop-color:#F77D62"/>
				<stop  offset="1" style="stop-color:#F3538C"/>
			</linearGradient>
			<path class="st8" d="M42.7,57.2H20.2c-2.1,0-3.7-1.7-3.7-3.7V33.7c0-2.1,1.7-3.7,3.7-3.7h22.5c2.1,0,3.7,1.7,3.7,3.7v19.8
				C46.4,55.5,44.7,57.2,42.7,57.2z"/>
			<path class="st2" d="M43.3,44l-1.5-1.4c-0.1-0.1-0.2-0.1-0.3-0.2c-0.3-0.1-0.6,0-0.8,0.3l-4.2,6.5l-3-3c0,0,0,0-0.1,0
				c0,0-0.1-0.1-0.1-0.1c0,0,0,0,0,0c-0.2-0.1-0.4-0.1-0.6,0.1l-6.7,4.5l-1-0.9c0,0-0.1-0.1-0.1-0.1c0,0,0,0,0,0c0,0-0.1,0-0.1,0
				c-0.2-0.1-0.4,0-0.6,0.1l-4.2,3.1c-0.3,0.2-0.4,0.7-0.1,1l0.1,0.1c0.2,0.3,0.7,0.4,1,0.1l3.6-2.7l0.8,0.8l0,0
				c0.1,0.2,0.4,0.3,0.6,0.3c0,0,0.1,0,0.1,0c0,0,0,0,0,0c0.1,0,0.3-0.1,0.4-0.2l0,0l6.5-4.4L36,51c0,0,0,0,0,0c0,0,0,0,0,0l0.1,0.1
				c0,0,0,0,0,0c0.1,0,0.1,0.1,0.2,0.1c0,0,0,0,0.1,0c0,0,0.1,0,0.1,0c0.1,0,0.1,0,0.2,0c0,0,0,0,0.1,0c0.1,0,0.2-0.1,0.3-0.2l0,0
				c0,0,0,0,0,0c0,0,0,0,0,0l4.3-6.6l0.8,0.8c0.3,0.3,0.7,0.2,1,0l0.1-0.1C43.6,44.7,43.5,44.2,43.3,44z"/>
			<path class="st2" d="M30.8,34.4H20c-0.3,0-0.6-0.3-0.6-0.6v0c0-0.3,0.3-0.6,0.6-0.6h10.8c0.3,0,0.6,0.3,0.6,0.6v0
				C31.4,34.1,31.2,34.4,30.8,34.4z"/>
			<path class="st2" d="M30.8,36.9H20c-0.3,0-0.6-0.3-0.6-0.6l0,0c0-0.3,0.3-0.6,0.6-0.6h10.8c0.3,0,0.6,0.3,0.6,0.6l0,0
				C31.4,36.6,31.2,36.9,30.8,36.9z"/>
			<path class="st2" d="M30.8,39.4H20c-0.3,0-0.6-0.3-0.6-0.6v0c0-0.3,0.3-0.6,0.6-0.6h10.8c0.3,0,0.6,0.3,0.6,0.6v0
				C31.4,39.1,31.2,39.4,30.8,39.4z"/>
			<path class="st2" d="M27.2,41.9H20c-0.3,0-0.6-0.3-0.6-0.6l0,0c0-0.3,0.3-0.6,0.6-0.6h7.1c0.3,0,0.6,0.3,0.6,0.6l0,0
				C27.8,41.6,27.5,41.9,27.2,41.9z"/>
		</g>
		<path class="st6" d="M92,58.2H77.7c-2.2,0-4.1-1.8-4.1-4.1V46c0-2.2,1.8-4.1,4.1-4.1H92c2.2,0,4.1,1.8,4.1,4.1v8.1
			C96.1,56.4,94.3,58.2,92,58.2z M77.7,44c-1.1,0-2.1,0.9-2.1,2.1v8.1c0,1.1,0.9,2.1,2.1,2.1H92c1.1,0,2.1-0.9,2.1-2.1V46
			c0-1.1-0.9-2.1-2.1-2.1H77.7z"/>
		<path class="st6" d="M92.3,32.9H50.6c-0.7,0-1.2-0.6-1.2-1.2v0c0-0.7,0.6-1.2,1.2-1.2h41.7c0.7,0,1.2,0.6,1.2,1.2v0
			C93.5,32.3,93,32.9,92.3,32.9z"/>
		<path class="st6" d="M92.3,37.9H50.6c-0.7,0-1.2-0.6-1.2-1.2v0c0-0.7,0.6-1.2,1.2-1.2h41.7c0.7,0,1.2,0.6,1.2,1.2v0
			C93.5,37.3,93,37.9,92.3,37.9z"/>
		<path class="st6" d="M68.4,42.8H50.6c-0.7,0-1.2-0.6-1.2-1.2v0c0-0.7,0.6-1.2,1.2-1.2h17.8c0.7,0,1.2,0.6,1.2,1.2v0
			C69.6,42.3,69.1,42.8,68.4,42.8z"/>
		<path class="st6" d="M68.4,47.8H50.6c-0.7,0-1.2-0.6-1.2-1.2v0c0-0.7,0.6-1.2,1.2-1.2h17.8c0.7,0,1.2,0.6,1.2,1.2v0
			C69.6,47.2,69.1,47.8,68.4,47.8z"/>
		<path class="st6" d="M62.1,52.8H50.6c-0.7,0-1.2-0.6-1.2-1.2v0c0-0.7,0.6-1.2,1.2-1.2h11.5c0.7,0,1.2,0.6,1.2,1.2v0
			C63.4,52.2,62.8,52.8,62.1,52.8z"/>
	</g>
</g>
</svg>
