<?xml version="1.0" encoding="utf-8"?>
<!-- Generator: Adobe Illustrator 23.0.2, SVG Export Plug-In . SVG Version: 6.00 Build 0)  -->
<!DOCTYPE svg PUBLIC "-//W3C//DTD SVG 1.1//EN" "http://www.w3.org/Graphics/SVG/1.1/DTD/svg11.dtd" [
	<!ENTITY ns_extend "http://ns.adobe.com/Extensibility/1.0/">
	<!ENTITY ns_ai "http://ns.adobe.com/AdobeIllustrator/10.0/">
	<!ENTITY ns_graphs "http://ns.adobe.com/Graphs/1.0/">
	<!ENTITY ns_vars "http://ns.adobe.com/Variables/1.0/">
	<!ENTITY ns_imrep "http://ns.adobe.com/ImageReplacement/1.0/">
	<!ENTITY ns_sfw "http://ns.adobe.com/SaveForWeb/1.0/">
	<!ENTITY ns_custom "http://ns.adobe.com/GenericCustomNamespace/1.0/">
	<!ENTITY ns_adobe_xpath "http://ns.adobe.com/XPath/1.0/">
]>
<svg version="1.1" id="text" xmlns:x="&ns_extend;" xmlns:i="&ns_ai;" xmlns:graph="&ns_graphs;"
	 xmlns="http://www.w3.org/2000/svg" xmlns:xlink="http://www.w3.org/1999/xlink" x="0px" y="0px" viewBox="0 0 104.7 79"
	 style="enable-background:new 0 0 104.7 79;" xml:space="preserve">
<style type="text/css">
	.st0{fill:url(#SVGID_1_);}
	.st1{clip-path:url(#SVGID_3_);}
	.st2{opacity:0.2;fill:#4B61F4;}
	.st3{fill:url(#SVGID_4_);}
	.st4{fill:#FFFFFF;}
	.st5{fill:#B1B9FC;}
	.st6{fill:url(#SVGID_5_);}
	.st7{fill:url(#SVGID_6_);}
	.st8{fill:url(#SVGID_7_);}
	.st9{fill:url(#SVGID_8_);}
	.st10{fill:#446DFF;}
</style>
<metadata>
	<sfw  xmlns="&ns_sfw;">
		<slices></slices>
		<sliceSourceBounds  bottomLeftOrigin="true" height="79" width="104.7" x="1936.2" y="-377"></sliceSourceBounds>
	</sfw>
</metadata>
<linearGradient id="SVGID_1_" gradientUnits="userSpaceOnUse" x1="0" y1="38.6265" x2="104.653" y2="38.6265">
	<stop  offset="0" style="stop-color:#DDE0FE"/>
	<stop  offset="0.3772" style="stop-color:#E1E4FE"/>
	<stop  offset="0.7883" style="stop-color:#EEF0FF"/>
	<stop  offset="1" style="stop-color:#F8F9FF"/>
</linearGradient>
<path class="st0" d="M11.3,13.6C-2.6,29-3.4,55,7.4,67.2c21.4,24.1,93.8,0.5,97.1-25.1c2.2-17-25.4-39.8-53-41.9
	C46.3-0.2,25.2-1.7,11.3,13.6z"/>
<g>
	<defs>
		<path id="SVGID_2_" d="M11.3,13.6C-2.6,29-3.4,55,7.4,67.2c21.4,24.1,93.8,0.5,97.1-25.1c2.2-17-25.4-39.8-53-41.9
			C46.3-0.2,25.2-1.7,11.3,13.6z"/>
	</defs>
	<clipPath id="SVGID_3_">
		<use xlink:href="#SVGID_2_"  style="overflow:visible;"/>
	</clipPath>
	<g class="st1">
		<g>
			<path class="st2" d="M67.2,56.1H8c-1,0-1.8-0.8-1.8-1.8V13.9c0-1,0.8-1.8,1.8-1.8h59.2c1,0,1.8,0.8,1.8,1.8v40.4
				C69,55.3,68.2,56.1,67.2,56.1z"/>
			<linearGradient id="SVGID_4_" gradientUnits="userSpaceOnUse" x1="8.337" y1="32.2147" x2="70.7818" y2="32.2147">
				<stop  offset="5.282353e-03" style="stop-color:#F99747"/>
				<stop  offset="0.3696" style="stop-color:#F77D62"/>
				<stop  offset="1" style="stop-color:#F3538C"/>
			</linearGradient>
			<path class="st3" d="M69,53.7H10.1c-1,0-1.8-0.8-1.8-1.8V12.5c0-1,0.8-1.8,1.8-1.8H69c1,0,1.8,0.8,1.8,1.8v39.4
				C70.8,52.9,70,53.7,69,53.7z"/>
			<path class="st4" d="M69.6,53.7h-60c-0.7,0-1.2-0.5-1.2-1.2V16.1c0-0.7,0.5-1.2,1.2-1.2h60c0.7,0,1.2,0.5,1.2,1.2v36.4
				C70.8,53.1,70.2,53.7,69.6,53.7z"/>
			<circle class="st4" cx="11.1" cy="12.9" r="0.8"/>
			<circle class="st4" cx="14" cy="12.9" r="0.8"/>
			<circle class="st4" cx="16.9" cy="12.9" r="0.8"/>
			<path class="st5" d="M26.7,35.7H15c-1.4,0-2.5-1.1-2.5-2.5V21.4c0-1.4,1.1-2.5,2.5-2.5h11.8c1.4,0,2.5,1.1,2.5,2.5v11.8
				C29.2,34.6,28.1,35.7,26.7,35.7z"/>
			<path class="st5" d="M66.4,22.2H34.7c-0.4,0-0.7-0.3-0.7-0.7v-0.2c0-0.4,0.3-0.7,0.7-0.7h31.7c0.4,0,0.7,0.3,0.7,0.7v0.2
				C67.1,21.8,66.8,22.2,66.4,22.2z"/>
			<path class="st5" d="M66.4,26.1H34.7c-0.4,0-0.7-0.3-0.7-0.7v-0.2c0-0.4,0.3-0.7,0.7-0.7h31.7c0.4,0,0.7,0.3,0.7,0.7v0.2
				C67.1,25.8,66.8,26.1,66.4,26.1z"/>
			<path class="st5" d="M66.4,30.1H34.7c-0.4,0-0.7-0.3-0.7-0.7v-0.2c0-0.4,0.3-0.7,0.7-0.7h31.7c0.4,0,0.7,0.3,0.7,0.7v0.2
				C67.1,29.8,66.8,30.1,66.4,30.1z"/>
			<path class="st5" d="M51.3,34.1H34.7c-0.4,0-0.7-0.3-0.7-0.7v-0.2c0-0.4,0.3-0.7,0.7-0.7h16.6c0.4,0,0.7,0.3,0.7,0.7v0.2
				C52,33.7,51.7,34.1,51.3,34.1z"/>
			<path class="st4" d="M22,31.8l-4.2-3.6L13.9,32v0.2c0,1.1,0.9,2,2,2h9.9c1.1,0,2-0.9,2-2v-5L22,31.8z"/>
			<circle class="st4" cx="17.8" cy="23.6" r="2"/>
			<linearGradient id="SVGID_5_" gradientUnits="userSpaceOnUse" x1="34.0002" y1="39.9907" x2="49.1181" y2="39.9907">
				<stop  offset="5.282353e-03" style="stop-color:#F99747"/>
				<stop  offset="0.3696" style="stop-color:#F77D62"/>
				<stop  offset="1" style="stop-color:#F3538C"/>
			</linearGradient>
			<path class="st6" d="M47.3,42H35.8c-1,0-1.8-0.8-1.8-1.8v-0.4c0-1,0.8-1.8,1.8-1.8h11.5c1,0,1.8,0.8,1.8,1.8v0.4
				C49.1,41.2,48.3,42,47.3,42z"/>
		</g>
		<g>
			<path class="st2" d="M88.5,68.2H43.9c-1,0-1.8-0.8-1.8-1.8V36.2c0-1,0.8-1.8,1.8-1.8h44.6c1,0,1.8,0.8,1.8,1.8v30.2
				C90.3,67.4,89.4,68.2,88.5,68.2z"/>
			<linearGradient id="SVGID_6_" gradientUnits="userSpaceOnUse" x1="43.7533" y1="49.8723" x2="91.6402" y2="49.8723">
				<stop  offset="5.282353e-03" style="stop-color:#F99747"/>
				<stop  offset="0.3696" style="stop-color:#F77D62"/>
				<stop  offset="1" style="stop-color:#F3538C"/>
			</linearGradient>
			<path class="st7" d="M89.9,66.3H45.5c-1,0-1.8-0.8-1.8-1.8V35.2c0-1,0.8-1.8,1.8-1.8h44.3c1,0,1.8,0.8,1.8,1.8v29.4
				C91.6,65.5,90.8,66.3,89.9,66.3z"/>
			<path class="st4" d="M90.4,66.3H45c-0.7,0-1.2-0.5-1.2-1.2V37.8c0-0.7,0.5-1.2,1.2-1.2h45.5c0.7,0,1.2,0.5,1.2,1.2v27.3
				C91.6,65.8,91.1,66.3,90.4,66.3z"/>
			<circle class="st4" cx="45.9" cy="35.1" r="0.6"/>
			<circle class="st4" cx="48.1" cy="35.1" r="0.6"/>
			<circle class="st4" cx="50.3" cy="35.1" r="0.6"/>
			<path class="st5" d="M86.5,52.3h-7.9c-1.4,0-2.5-1.1-2.5-2.5V42c0-1.4,1.1-2.5,2.5-2.5h7.9c1.4,0,2.5,1.1,2.5,2.5v7.9
				C88.9,51.2,87.8,52.3,86.5,52.3z"/>
			<path class="st5" d="M72.2,41.8H48.1c-0.3,0-0.6-0.3-0.6-0.6l0,0c0-0.3,0.3-0.6,0.6-0.6h24.1c0.3,0,0.6,0.3,0.6,0.6l0,0
				C72.8,41.5,72.6,41.8,72.2,41.8z"/>
			<path class="st5" d="M72.2,44.9H48.1c-0.3,0-0.6-0.3-0.6-0.6l0,0c0-0.3,0.3-0.6,0.6-0.6h24.1c0.3,0,0.6,0.3,0.6,0.6l0,0
				C72.8,44.6,72.6,44.9,72.2,44.9z"/>
			<path class="st5" d="M72.2,47.9H48.1c-0.3,0-0.6-0.3-0.6-0.6l0,0c0-0.3,0.3-0.6,0.6-0.6h24.1c0.3,0,0.6,0.3,0.6,0.6l0,0
				C72.8,47.6,72.6,47.9,72.2,47.9z"/>
			<path class="st5" d="M60.7,50.9H48.1c-0.3,0-0.6-0.3-0.6-0.6l0,0c0-0.3,0.3-0.6,0.6-0.6h12.6c0.3,0,0.6,0.3,0.6,0.6l0,0
				C61.3,50.7,61,50.9,60.7,50.9z"/>
			<path class="st4" d="M83.4,49.3l-3.2-2.7l-3,2.9v0.2c0,0.9,0.7,1.6,1.6,1.6h7.6c0.9,0,1.6-0.7,1.6-1.6v-3.8L83.4,49.3z"/>
			<circle class="st4" cx="80.2" cy="43" r="1.5"/>
			<linearGradient id="SVGID_7_" gradientUnits="userSpaceOnUse" x1="47.4679" y1="55.4828" x2="59.0613" y2="55.4828">
				<stop  offset="5.282353e-03" style="stop-color:#F99747"/>
				<stop  offset="0.3696" style="stop-color:#F77D62"/>
				<stop  offset="1" style="stop-color:#F3538C"/>
			</linearGradient>
			<path class="st8" d="M57.5,57H49c-0.9,0-1.6-0.7-1.6-1.6v0c0-0.9,0.7-1.6,1.6-1.6h8.5c0.9,0,1.6,0.7,1.6,1.6v0
				C59.1,56.3,58.4,57,57.5,57z"/>
		</g>
		<g>
			<path class="st2" d="M40.4,63.6H17.9c-1.2,0-2.2-1-2.2-2.2V50.7c0-1.2,1-2.2,2.2-2.2h22.5c1.2,0,2.2,1,2.2,2.2v10.7
				C42.6,62.6,41.7,63.6,40.4,63.6z"/>
			<linearGradient id="SVGID_8_" gradientUnits="userSpaceOnUse" x1="17.3179" y1="54.3483" x2="44.2104" y2="54.3483">
				<stop  offset="5.282353e-03" style="stop-color:#F99747"/>
				<stop  offset="0.3696" style="stop-color:#F77D62"/>
				<stop  offset="1" style="stop-color:#F3538C"/>
			</linearGradient>
			<path class="st9" d="M42,61.9H19.5c-1.2,0-2.2-1-2.2-2.2V49c0-1.2,1-2.2,2.2-2.2H42c1.2,0,2.2,1,2.2,2.2v10.7
				C44.2,60.9,43.2,61.9,42,61.9z"/>
			<g>
				<path class="st4" d="M23.6,57.2h-1.4l2.5-6h1.2l2.5,6H27l-0.5-1.3h-2.4L23.6,57.2z M25.9,54.6l-0.7-1.7l-0.7,1.7H25.9z"/>
				<path class="st4" d="M30.5,58.1l-1-0.4l2.8-7.6l1,0.4L30.5,58.1z"/>
				<path class="st4" d="M34.5,57.2v-6c0.7,0,1.3-0.1,1.8-0.1c0.7,0,1.2,0.1,1.5,0.4c0.3,0.3,0.5,0.6,0.5,1.1c0,0.6-0.2,1-0.7,1.3v0
					c0.3,0.1,0.5,0.3,0.6,0.5c0.2,0.2,0.2,0.5,0.2,0.9c0,0.6-0.2,1.1-0.6,1.4c-0.4,0.3-1,0.5-1.7,0.5C35.4,57.2,34.8,57.2,34.5,57.2
					z M36.3,52.4c-0.1,0-0.2,0-0.4,0v1.1h0.5c0.4,0,0.6-0.2,0.6-0.6c0-0.2-0.1-0.3-0.2-0.4C36.6,52.5,36.5,52.4,36.3,52.4z
					 M36.4,54.8h-0.5v1.1c0.1,0,0.3,0.1,0.5,0.1c0.5,0,0.8-0.2,0.8-0.6C37.1,54.9,36.9,54.8,36.4,54.8z"/>
			</g>
		</g>
	</g>
</g>
<g>
	<circle class="st10" cx="71.9" cy="68.4" r="10.6"/>
</g>
<g>
	<path class="st4" d="M68.4,64.1c0.9,0,1.5,0.4,2,1.1c0.4,0.7,0.7,1.7,0.7,3c0,1.3-0.2,2.3-0.7,3c-0.4,0.7-1.1,1.1-2,1.1
		c-0.9,0-1.5-0.4-2-1.1c-0.5-0.7-0.7-1.7-0.7-3c0-1.3,0.2-2.3,0.7-3C66.9,64.4,67.5,64.1,68.4,64.1z M67.1,68.1
		c0,1.9,0.4,2.9,1.3,2.9c0.4,0,0.8-0.2,1-0.7c0.2-0.4,0.3-1.2,0.3-2.2c0-1-0.1-1.7-0.3-2.2c-0.2-0.4-0.5-0.7-1-0.7
		c-0.4,0-0.8,0.2-1,0.7C67.2,66.4,67.1,67.2,67.1,68.1z"/>
	<path class="st4" d="M76.6,72.1h-1.3v-1.8h-3.6v-1l3.1-5.1h1.5L73.4,69h1.9v-2h1.3v2h1v1.3h-1V72.1z"/>
</g>
</svg>
