<?xml version="1.0" encoding="utf-8"?>
<!-- Generator: Adobe Illustrator 23.0.2, SVG Export Plug-In . SVG Version: 6.00 Build 0)  -->
<!DOCTYPE svg PUBLIC "-//W3C//DTD SVG 1.1//EN" "http://www.w3.org/Graphics/SVG/1.1/DTD/svg11.dtd" [
	<!ENTITY ns_extend "http://ns.adobe.com/Extensibility/1.0/">
	<!ENTITY ns_ai "http://ns.adobe.com/AdobeIllustrator/10.0/">
	<!ENTITY ns_graphs "http://ns.adobe.com/Graphs/1.0/">
	<!ENTITY ns_vars "http://ns.adobe.com/Variables/1.0/">
	<!ENTITY ns_imrep "http://ns.adobe.com/ImageReplacement/1.0/">
	<!ENTITY ns_sfw "http://ns.adobe.com/SaveForWeb/1.0/">
	<!ENTITY ns_custom "http://ns.adobe.com/GenericCustomNamespace/1.0/">
	<!ENTITY ns_adobe_xpath "http://ns.adobe.com/XPath/1.0/">
]>
<svg version="1.1" id="text" xmlns:x="&ns_extend;" xmlns:i="&ns_ai;" xmlns:graph="&ns_graphs;"
	 xmlns="http://www.w3.org/2000/svg" xmlns:xlink="http://www.w3.org/1999/xlink" x="0px" y="0px" viewBox="0 0 102.6 79.9"
	 style="enable-background:new 0 0 102.6 79.9;" xml:space="preserve">
<style type="text/css">
	.st0{fill:url(#SVGID_1_);}
	.st1{fill:#446DFF;}
	.st2{fill:#FFFFFF;}
	.st3{clip-path:url(#SVGID_3_);}
	.st4{opacity:0.2;fill:#4B61F4;}
	.st5{fill:url(#SVGID_4_);}
	.st6{fill:#B1B9FC;}
	.st7{fill:url(#SVGID_5_);}
</style>
<metadata>
	<sfw  xmlns="&ns_sfw;">
		<slices></slices>
		<sliceSourceBounds  bottomLeftOrigin="true" height="79.9" width="104.1" x="1809.6" y="-376.4"></sliceSourceBounds>
	</sfw>
</metadata>
<linearGradient id="SVGID_1_" gradientUnits="userSpaceOnUse" x1="0" y1="39.9714" x2="102.6284" y2="39.9714">
	<stop  offset="0" style="stop-color:#DDE0FE"/>
	<stop  offset="0.3772" style="stop-color:#E1E4FE"/>
	<stop  offset="0.7883" style="stop-color:#EEF0FF"/>
	<stop  offset="1" style="stop-color:#F8F9FF"/>
</linearGradient>
<path class="st0" d="M16.5,8.7c28-17.9,78.9-6.4,85.4,18.4c5,19.3-16.1,48.9-43.5,52.5c-31.9,4.2-61.7-28.2-58-50.2
	C2.2,17.8,13,10.9,16.5,8.7z"/>
<g>
	<circle class="st1" cx="93.6" cy="48.9" r="10.6"/>
</g>
<g>
	<path class="st2" d="M90.2,44.6c0.9,0,1.5,0.4,2,1.1c0.4,0.7,0.7,1.7,0.7,3c0,1.3-0.2,2.3-0.7,3c-0.4,0.7-1.1,1.1-2,1.1
		c-0.9,0-1.5-0.4-2-1.1c-0.5-0.7-0.7-1.7-0.7-3c0-1.3,0.2-2.3,0.7-3C88.7,45,89.3,44.6,90.2,44.6z M88.9,48.7c0,1.9,0.4,2.9,1.3,2.9
		c0.4,0,0.8-0.2,1-0.7c0.2-0.4,0.3-1.2,0.3-2.2c0-1-0.1-1.7-0.3-2.2c-0.2-0.4-0.5-0.7-1-0.7c-0.4,0-0.8,0.2-1,0.7
		C89,47,88.9,47.7,88.9,48.7z"/>
	<path class="st2" d="M96.1,52.8c-0.6,0-1.1-0.1-1.5-0.4c-0.4-0.2-0.8-0.6-1-1l0.7-1c0.4,0.7,1,1,1.7,1c0.4,0,0.7-0.1,0.9-0.3
		c0.2-0.2,0.3-0.5,0.3-0.8c0-0.4-0.1-0.6-0.4-0.8c-0.3-0.2-0.6-0.3-1.1-0.3h-0.6v-1.3h0.5c0.3,0,0.6-0.1,0.9-0.3
		c0.2-0.2,0.4-0.5,0.4-0.8c0-0.3-0.1-0.5-0.3-0.7c-0.2-0.2-0.4-0.3-0.7-0.3c-0.6,0-1.1,0.3-1.5,0.9l-0.7-0.9
		c0.4-0.8,1.2-1.2,2.4-1.2c0.7,0,1.2,0.2,1.7,0.6s0.6,0.9,0.6,1.5c0,0.9-0.4,1.5-1.2,1.9v0c0.5,0.1,0.8,0.3,1.1,0.6
		c0.3,0.3,0.4,0.8,0.4,1.3c0,0.7-0.2,1.3-0.7,1.7C97.5,52.6,96.9,52.8,96.1,52.8z"/>
</g>
<g>
	<defs>
		<path id="SVGID_2_" d="M16.5,8.7c28-17.9,78.9-6.4,85.4,18.4c5,19.3-16.1,48.9-43.5,52.5c-31.9,4.2-61.7-28.2-58-50.2
			C2.2,17.8,13,10.9,16.5,8.7z"/>
	</defs>
	<clipPath id="SVGID_3_">
		<use xlink:href="#SVGID_2_"  style="overflow:visible;"/>
	</clipPath>
	<g class="st3">
		<g>
			<path class="st4" d="M71.4,60.9H4.3c-0.7,0-1.2-0.5-1.2-1.2V13c0-0.7,0.5-1.2,1.2-1.2h67.1c0.7,0,1.2,0.5,1.2,1.2v46.7
				C72.6,60.4,72,60.9,71.4,60.9z"/>
			<linearGradient id="SVGID_4_" gradientUnits="userSpaceOnUse" x1="4.963" y1="34.1995" x2="74.4782" y2="34.1995">
				<stop  offset="5.282353e-03" style="stop-color:#F99747"/>
				<stop  offset="0.3696" style="stop-color:#F77D62"/>
				<stop  offset="1" style="stop-color:#F3538C"/>
			</linearGradient>
			<path class="st5" d="M72.7,58.1h-66c-1,0-1.8-0.8-1.8-1.8V12.1c0-1,0.8-1.8,1.8-1.8h66c1,0,1.8,0.8,1.8,1.8v44.2
				C74.5,57.3,73.7,58.1,72.7,58.1z"/>
			<path class="st2" d="M73.3,59H6.2C5.5,59,5,58.4,5,57.8V16.2C5,15.6,5.5,15,6.2,15h67.1c0.7,0,1.2,0.5,1.2,1.2v41.5
				C74.5,58.4,73.9,59,73.3,59z"/>
			<circle class="st2" cx="8.1" cy="12.7" r="0.9"/>
			<circle class="st2" cx="11.3" cy="12.7" r="0.9"/>
			<circle class="st2" cx="14.5" cy="12.7" r="0.9"/>
			<g>
				<g>
					<polygon class="st6" points="21,33.4 19.1,33.4 19.1,27.2 16.7,27.2 16.7,25.1 23.5,25.1 23.5,27.2 21,27.2 					"/>
				</g>
			</g>
			<path class="st6" d="M26,38.2H14.5c-1.8,0-3.2-1.4-3.2-3.2V23.6c0-1.8,1.4-3.2,3.2-3.2H26c1.8,0,3.2,1.4,3.2,3.2V35
				C29.2,36.8,27.7,38.2,26,38.2z M14.5,22c-0.9,0-1.6,0.7-1.6,1.6V35c0,0.9,0.7,1.6,1.6,1.6H26c0.9,0,1.6-0.7,1.6-1.6V23.6
				c0-0.9-0.7-1.6-1.6-1.6H14.5z"/>
			<path class="st6" d="M66.6,22.5H34.5c-0.4,0-0.7-0.3-0.7-0.7l0,0c0-0.4,0.3-0.7,0.7-0.7h32.1c0.4,0,0.7,0.3,0.7,0.7l0,0
				C67.4,22.1,67,22.5,66.6,22.5z"/>
			<path class="st6" d="M66.6,26H34.5c-0.4,0-0.7-0.3-0.7-0.7v0c0-0.4,0.3-0.7,0.7-0.7h32.1c0.4,0,0.7,0.3,0.7,0.7v0
				C67.4,25.7,67,26,66.6,26z"/>
			<path class="st6" d="M66.6,29.5H34.5c-0.4,0-0.7-0.3-0.7-0.7v0c0-0.4,0.3-0.7,0.7-0.7h32.1c0.4,0,0.7,0.3,0.7,0.7v0
				C67.4,29.2,67,29.5,66.6,29.5z"/>
			<path class="st6" d="M66.6,33.1H34.5c-0.4,0-0.7-0.3-0.7-0.7l0,0c0-0.4,0.3-0.7,0.7-0.7h32.1c0.4,0,0.7,0.3,0.7,0.7l0,0
				C67.4,32.8,67,33.1,66.6,33.1z"/>
			<path class="st6" d="M51.4,36.6H34.5c-0.4,0-0.7-0.3-0.7-0.7l0,0c0-0.4,0.3-0.7,0.7-0.7h16.9c0.4,0,0.7,0.3,0.7,0.7l0,0
				C52.1,36.3,51.8,36.6,51.4,36.6z"/>
			<path class="st6" d="M37.1,44.7H12c-0.4,0-0.7-0.3-0.7-0.7l0,0c0-0.4,0.3-0.7,0.7-0.7h25.1c0.4,0,0.7,0.3,0.7,0.7l0,0
				C37.8,44.3,37.5,44.7,37.1,44.7z"/>
			<path class="st6" d="M37.1,48.2H12c-0.4,0-0.7-0.3-0.7-0.7l0,0c0-0.4,0.3-0.7,0.7-0.7h25.1c0.4,0,0.7,0.3,0.7,0.7l0,0
				C37.8,47.9,37.5,48.2,37.1,48.2z"/>
			<path class="st6" d="M37.1,51.7H12c-0.4,0-0.7-0.3-0.7-0.7l0,0c0-0.4,0.3-0.7,0.7-0.7h25.1c0.4,0,0.7,0.3,0.7,0.7l0,0
				C37.8,51.4,37.5,51.7,37.1,51.7z"/>
			<path class="st6" d="M25,55.3H12c-0.4,0-0.7-0.3-0.7-0.7v0c0-0.4,0.3-0.7,0.7-0.7h13c0.4,0,0.7,0.3,0.7,0.7v0
				C25.8,55,25.4,55.3,25,55.3z"/>
		</g>
		<g>
			<path class="st4" d="M66.1,73h-22c-1.2,0-2.2-1-2.2-2.2V45.2c0-1.2,1-2.2,2.2-2.2h22c1.2,0,2.2,1,2.2,2.2v25.7
				C68.3,72,67.3,73,66.1,73z"/>
			<linearGradient id="SVGID_5_" gradientUnits="userSpaceOnUse" x1="43.6584" y1="56.0028" x2="70.0152" y2="56.0028">
				<stop  offset="5.282353e-03" style="stop-color:#F99747"/>
				<stop  offset="0.3696" style="stop-color:#F77D62"/>
				<stop  offset="1" style="stop-color:#F3538C"/>
			</linearGradient>
			<path class="st7" d="M67.8,71h-22c-1.2,0-2.2-1-2.2-2.2V43.2c0-1.2,1-2.2,2.2-2.2h22c1.2,0,2.2,1,2.2,2.2v25.7
				C70,70,69,71,67.8,71z"/>
			<circle class="st2" cx="56.8" cy="51.1" r="5.5"/>
			<path class="st2" d="M63.8,63.3H49.9c-1.1,0-2-0.9-2-2v0c0-1.1,0.9-2,2-2h13.9c1.1,0,2,0.9,2,2v0C65.7,62.4,64.9,63.3,63.8,63.3z
				"/>
			<path class="st2" d="M60.8,67.6h-8c-0.6,0-1.1-0.5-1.1-1.1l0,0c0-0.6,0.5-1.1,1.1-1.1h8c0.6,0,1.1,0.5,1.1,1.1l0,0
				C61.9,67.1,61.4,67.6,60.8,67.6z"/>
		</g>
	</g>
</g>
</svg>
