<?xml version="1.0" encoding="utf-8"?>
<!-- Generator: Adobe Illustrator 23.0.2, SVG Export Plug-In . SVG Version: 6.00 Build 0)  -->
<!DOCTYPE svg PUBLIC "-//W3C//DTD SVG 1.1//EN" "http://www.w3.org/Graphics/SVG/1.1/DTD/svg11.dtd" [
	<!ENTITY ns_extend "http://ns.adobe.com/Extensibility/1.0/">
	<!ENTITY ns_ai "http://ns.adobe.com/AdobeIllustrator/10.0/">
	<!ENTITY ns_graphs "http://ns.adobe.com/Graphs/1.0/">
	<!ENTITY ns_vars "http://ns.adobe.com/Variables/1.0/">
	<!ENTITY ns_imrep "http://ns.adobe.com/ImageReplacement/1.0/">
	<!ENTITY ns_sfw "http://ns.adobe.com/SaveForWeb/1.0/">
	<!ENTITY ns_custom "http://ns.adobe.com/GenericCustomNamespace/1.0/">
	<!ENTITY ns_adobe_xpath "http://ns.adobe.com/XPath/1.0/">
]>
<svg version="1.1" id="text" xmlns:x="&ns_extend;" xmlns:i="&ns_ai;" xmlns:graph="&ns_graphs;"
	 xmlns="http://www.w3.org/2000/svg" xmlns:xlink="http://www.w3.org/1999/xlink" x="0px" y="0px" viewBox="0 0 88.5 89.7"
	 enable-background="new 0 0 88.5 89.7" xml:space="preserve">
<metadata>
	<sfw  xmlns="&ns_sfw;">
		<slices></slices>
		<sliceSourceBounds  bottomLeftOrigin="true" height="89.7" width="88.5" x="2472.6" y="-306.6"></sliceSourceBounds>
	</sfw>
</metadata>
<linearGradient id="SVGID_1_" gradientUnits="userSpaceOnUse" x1="-2.3835" y1="-137.4044" x2="85.8857" y2="-137.4044" gradientTransform="matrix(0.6419 0.7668 -0.7668 0.6419 -88.1489 101.6446)">
	<stop  offset="0" style="stop-color:#DDE0FE"/>
	<stop  offset="0.3772" style="stop-color:#E1E4FE"/>
	<stop  offset="0.7883" style="stop-color:#EEF0FF"/>
	<stop  offset="1" style="stop-color:#F8F9FF"/>
</linearGradient>
<path fill="url(#SVGID_1_)" d="M64.7,4.3C87,15.5,95.5,46.7,82,68.4C67.5,91.8,32.1,97,12.6,78.5c-17.8-16.9-16-47.7,1-64.9
	C26.3,0.8,47.6-4.4,64.7,4.3z"/>
<g>
	<path opacity="0.2" fill="#4B61F4" d="M69.1,60.1H7.9c-0.7,0-1.2-0.5-1.2-1.2V17.2c0-0.7,0.5-1.2,1.2-1.2h61.2
		c0.7,0,1.2,0.5,1.2,1.2v41.7C70.3,59.6,69.8,60.1,69.1,60.1z"/>
	<linearGradient id="SVGID_2_" gradientUnits="userSpaceOnUse" x1="8.4374" y1="36.5148" x2="72.0366" y2="36.5148">
		<stop  offset="5.282353e-03" style="stop-color:#F99747"/>
		<stop  offset="0.3696" style="stop-color:#F77D62"/>
		<stop  offset="1" style="stop-color:#F3538C"/>
	</linearGradient>
	<path fill="url(#SVGID_2_)" d="M70.3,58.4h-60c-1,0-1.8-0.8-1.8-1.8V16.4c0-1,0.8-1.8,1.8-1.8h60c1,0,1.8,0.8,1.8,1.8v40.2
		C72,57.6,71.2,58.4,70.3,58.4z"/>
	<path fill="#FFFFFF" d="M70.8,58.4H9.6c-0.7,0-1.2-0.5-1.2-1.2v-37C8.4,19.5,9,19,9.6,19h61.2c0.7,0,1.2,0.5,1.2,1.2v37
		C72,57.8,71.5,58.4,70.8,58.4z"/>
	<circle fill="#FFFFFF" cx="11.3" cy="16.9" r="0.9"/>
	<circle fill="#FFFFFF" cx="14.2" cy="16.9" r="0.9"/>
	<circle fill="#FFFFFF" cx="17.2" cy="16.9" r="0.9"/>
</g>
<path fill="#B1B9FC" d="M52.2,28.1h-38c-1.2,0-2.1-1-2.1-2.1v0c0-1.2,1-2.1,2.1-2.1h38c1.2,0,2.1,1,2.1,2.1v0
	C54.4,27.1,53.4,28.1,52.2,28.1z"/>
<linearGradient id="SVGID_3_" gradientUnits="userSpaceOnUse" x1="12.1184" y1="32.5384" x2="42.5624" y2="32.5384">
	<stop  offset="5.282353e-03" style="stop-color:#F99747"/>
	<stop  offset="0.3696" style="stop-color:#F77D62"/>
	<stop  offset="1" style="stop-color:#F3538C"/>
</linearGradient>
<path fill="url(#SVGID_3_)" d="M41.4,33.7H13.3c-0.7,0-1.2-0.5-1.2-1.2l0,0c0-0.7,0.5-1.2,1.2-1.2h28.1c0.7,0,1.2,0.5,1.2,1.2l0,0
	C42.6,33.2,42,33.7,41.4,33.7z"/>
<linearGradient id="SVGID_4_" gradientUnits="userSpaceOnUse" x1="12.1184" y1="35.942" x2="42.5624" y2="35.942">
	<stop  offset="5.282353e-03" style="stop-color:#F99747"/>
	<stop  offset="0.3696" style="stop-color:#F77D62"/>
	<stop  offset="1" style="stop-color:#F3538C"/>
</linearGradient>
<path fill="url(#SVGID_4_)" d="M42.1,36.4H12.6c-0.2,0-0.5-0.2-0.5-0.5v0c0-0.2,0.2-0.5,0.5-0.5h29.5c0.2,0,0.5,0.2,0.5,0.5v0
	C42.6,36.2,42.4,36.4,42.1,36.4z"/>
<linearGradient id="SVGID_5_" gradientUnits="userSpaceOnUse" x1="12.1184" y1="37.8489" x2="34.27" y2="37.8489">
	<stop  offset="5.282353e-03" style="stop-color:#F99747"/>
	<stop  offset="0.3696" style="stop-color:#F77D62"/>
	<stop  offset="1" style="stop-color:#F3538C"/>
</linearGradient>
<path fill="url(#SVGID_5_)" d="M33.8,38.3H12.6c-0.2,0-0.5-0.2-0.5-0.5l0,0c0-0.2,0.2-0.5,0.5-0.5h21.2c0.2,0,0.5,0.2,0.5,0.5l0,0
	C34.3,38.1,34.1,38.3,33.8,38.3z"/>
<path fill="#B1B9FC" d="M41.4,43.8H13.3c-0.7,0-1.2-0.5-1.2-1.2l0,0c0-0.7,0.5-1.2,1.2-1.2h28.1c0.7,0,1.2,0.5,1.2,1.2l0,0
	C42.6,43.2,42,43.8,41.4,43.8z"/>
<path fill="#B1B9FC" d="M42.1,46.4H12.6c-0.2,0-0.5-0.2-0.5-0.5l0,0c0-0.2,0.2-0.5,0.5-0.5h29.5c0.2,0,0.5,0.2,0.5,0.5l0,0
	C42.6,46.2,42.4,46.4,42.1,46.4z"/>
<path fill="#B1B9FC" d="M33.8,48.3H12.6c-0.2,0-0.5-0.2-0.5-0.5l0,0c0-0.2,0.2-0.5,0.5-0.5h21.2c0.2,0,0.5,0.2,0.5,0.5l0,0
	C34.3,48.1,34.1,48.3,33.8,48.3z"/>
<path fill="#B1B9FC" d="M41.4,53.6H13.3c-0.7,0-1.2-0.5-1.2-1.2v0c0-0.7,0.5-1.2,1.2-1.2h28.1c0.7,0,1.2,0.5,1.2,1.2v0
	C42.6,53.1,42,53.6,41.4,53.6z"/>
<linearGradient id="SVGID_6_" gradientUnits="userSpaceOnUse" x1="56.2423" y1="25.9837" x2="69.0871" y2="25.9837">
	<stop  offset="5.282353e-03" style="stop-color:#F99747"/>
	<stop  offset="0.3696" style="stop-color:#F77D62"/>
	<stop  offset="1" style="stop-color:#F3538C"/>
</linearGradient>
<path fill="url(#SVGID_6_)" d="M67,28.1h-8.6c-1.2,0-2.1-1-2.1-2.1v0c0-1.2,1-2.1,2.1-2.1H67c1.2,0,2.1,1,2.1,2.1v0
	C69.1,27.1,68.1,28.1,67,28.1z"/>
<path fill="#FFFFFF" d="M37,27.2H14.6c-0.7,0-1.2-0.5-1.2-1.2v0c0-0.7,0.5-1.2,1.2-1.2H37c0.7,0,1.2,0.5,1.2,1.2v0
	C38.2,26.6,37.7,27.2,37,27.2z"/>
<linearGradient id="SVGID_7_" gradientUnits="userSpaceOnUse" x1="48.603" y1="59.7801" x2="74.7727" y2="59.7801">
	<stop  offset="5.282353e-03" style="stop-color:#F99747"/>
	<stop  offset="0.3696" style="stop-color:#F77D62"/>
	<stop  offset="1" style="stop-color:#F3538C"/>
</linearGradient>
<path fill="url(#SVGID_7_)" d="M61.7,72.9L61.7,72.9c-7.2,0-13.1-5.9-13.1-13.1v-0.1c0-7.2,5.9-13.1,13.1-13.1h0
	c7.2,0,13.1,5.9,13.1,13.1v0.1C74.8,67,68.9,72.9,61.7,72.9z"/>
<path fill="#FFFFFF" d="M69.4,55.4c-0.5-0.5-1.3-0.5-1.8,0l-7.7,7.7L56,59.2c-0.5-0.5-1.3-0.5-1.8,0c-0.5,0.5-0.5,1.3,0,1.8l4.8,4.8
	c0.5,0.5,1.3,0.5,1.8,0c0,0,0,0,0-0.1l8.6-8.6C70,56.7,70,55.9,69.4,55.4z"/>
</svg>
